﻿<?xml version="1.0" encoding="utf-8"?>
<svg version="1.1" xmlns:xlink="http://www.w3.org/1999/xlink" width="28px" height="26px" preserveAspectRatio="xMinYMid meet" viewBox="1060 361  28 24" xmlns="http://www.w3.org/2000/svg">
  <g transform="matrix(-1 0 0 -1 2148 746 )">
    <path d="M 990.7 367.4  L 985 372.5  L 990.7 377.6  L 996.1 372.5  L 990.7 367.4  Z M 1070.3 377.6  L 1076 372.5  L 1070.3 367.4  L 1064.9 372.5  L 1070.3 377.6  Z " fill-rule="nonzero" fill="#ff0000" stroke="none" />
    <path d="M 988 372.5  L 1073 372.5  " stroke-width="3" stroke="#ff0000" fill="none" />
  </g>
</svg>