﻿<?xml version="1.0" encoding="utf-8"?>
<svg version="1.1" xmlns:xlink="http://www.w3.org/1999/xlink" width="12px" height="12px" viewBox="12 37  12 12" xmlns="http://www.w3.org/2000/svg">
  <path d="M 18 37  C 21.36 37  24 39.64  24 43  C 24 46.36  21.36 49  18 49  C 14.64 49  12 46.36  12 43  C 12 39.64  14.64 37  18 37  Z " fill-rule="nonzero" fill="#f0f0f0" stroke="none" />
  <path d="M 18 37.5  C 21.08 37.5  23.5 39.92  23.5 43  C 23.5 46.08  21.08 48.5  18 48.5  C 14.92 48.5  12.5 46.08  12.5 43  C 12.5 39.92  14.92 37.5  18 37.5  Z " stroke-width="1" stroke="#797979" fill="none" />
</svg>