﻿<?xml version="1.0" encoding="utf-8"?>
<svg version="1.1" xmlns:xlink="http://www.w3.org/1999/xlink" width="12px" height="12px" viewBox="12 67  12 12" xmlns="http://www.w3.org/2000/svg">
  <path d="M 18 67  C 21.36 67  24 69.64  24 73  C 24 76.36  21.36 79  18 79  C 14.64 79  12 76.36  12 73  C 12 69.64  14.64 67  18 67  Z " fill-rule="nonzero" fill="#ffffff" stroke="none" />
  <path d="M 18 67.5  C 21.08 67.5  23.5 69.92  23.5 73  C 23.5 76.08  21.08 78.5  18 78.5  C 14.92 78.5  12.5 76.08  12.5 73  C 12.5 69.92  14.92 67.5  18 67.5  Z " stroke-width="1" stroke="#797979" fill="none" />
</svg>