﻿<?xml version="1.0" encoding="utf-8"?>
<svg version="1.1" xmlns:xlink="http://www.w3.org/1999/xlink" width="28px" height="26px" preserveAspectRatio="xMinYMid meet" viewBox="1022 515  28 24" xmlns="http://www.w3.org/2000/svg">
  <g transform="matrix(-1 0 0 -1 2072 1054 )">
    <path d="M 988.7 521.4  L 983 526.5  L 988.7 531.6  L 994.1 526.5  L 988.7 521.4  Z M 1032.3 531.6  L 1038 526.5  L 1032.3 521.4  L 1026.9 526.5  L 1032.3 531.6  Z " fill-rule="nonzero" fill="#ff0000" stroke="none" />
    <path d="M 986 526.5  L 1035 526.5  " stroke-width="3" stroke="#ff0000" fill="none" />
  </g>
</svg>