﻿<?xml version="1.0" encoding="utf-8"?>
<svg version="1.1" xmlns:xlink="http://www.w3.org/1999/xlink" width="12px" height="12px" viewBox="43 341  12 12" xmlns="http://www.w3.org/2000/svg">
  <path d="M 43.5 341.5  L 54.5 341.5  L 54.5 352.5  L 43.5 352.5  L 43.5 341.5  Z " fill-rule="nonzero" fill="#ffffff" stroke="none" />
  <path d="M 43.5 341.5  L 54.5 341.5  L 54.5 352.5  L 43.5 352.5  L 43.5 341.5  Z " stroke-width="1" stroke="#797979" fill="none" />
  <path d="M 45.5714285714286 347  L 48.1428571428571 349.571428571429  " stroke-width="2.57142857142857" stroke="#797979" fill="none" />
  <path d="M 48.1428571428571 349.571428571429  L 52.4285714285714 343.571428571429  " stroke-width="2.57142857142857" stroke="#797979" fill="none" />
</svg>