﻿<?xml version="1.0" encoding="utf-8"?>
<svg version="1.1" xmlns:xlink="http://www.w3.org/1999/xlink" width="82px" height="6px" preserveAspectRatio="xMinYMid meet" viewBox="1252 737  82 4" xmlns="http://www.w3.org/2000/svg">
  <path d="M 1317 748.5  L 1331 739  L 1317 729.5  L 1317 748.5  Z M 1319 744.9  L 1319 733.1  L 1327.9 739  L 1319 744.9  Z " fill-rule="nonzero" fill="#d9001b" stroke="none" />
  <path d="M 1254 739  L 1319 739  " stroke-width="2" stroke="#d9001b" fill="none" />
</svg>