﻿<?xml version="1.0" encoding="utf-8"?>
<svg version="1.1" xmlns:xlink="http://www.w3.org/1999/xlink" width="76px" height="18px" xmlns="http://www.w3.org/2000/svg">
  <g transform="matrix(1 0 0 1 -25 -1211 )">
    <path d="M 0 18  L 0 0  L 36.5999999999985 0  L 76 0  L 76 18  L 44.5999999999985 18  L 43 18  L 0 18  Z " fill-rule="nonzero" fill="#ffffff" stroke="none" transform="matrix(1 0 0 1 25 1211 )" />
  </g>
</svg>