﻿<?xml version="1.0" encoding="utf-8"?>
<svg version="1.1" xmlns:xlink="http://www.w3.org/1999/xlink" width="12px" height="12px" viewBox="9 218  12 12" xmlns="http://www.w3.org/2000/svg">
  <path d="M 15 218  C 18.36 218  21 220.64  21 224  C 21 227.36  18.36 230  15 230  C 11.64 230  9 227.36  9 224  C 9 220.64  11.64 218  15 218  Z " fill-rule="nonzero" fill="#f0f0f0" stroke="none" />
  <path d="M 15 218.5  C 18.08 218.5  20.5 220.92  20.5 224  C 20.5 227.08  18.08 229.5  15 229.5  C 11.92 229.5  9.5 227.08  9.5 224  C 9.5 220.92  11.92 218.5  15 218.5  Z " stroke-width="1" stroke="#797979" fill="none" />
</svg>