﻿<?xml version="1.0" encoding="utf-8"?>
<svg version="1.1" xmlns:xlink="http://www.w3.org/1999/xlink" width="13px" height="8px" xmlns="http://www.w3.org/2000/svg">
  <g transform="matrix(1 0 0 1 -765 -92 )">
    <path d="M 767.070288237344 93  L 771.5 98.451952938654  L 775.929711762656 93  L 767.070288237344 93  Z " fill-rule="nonzero" fill="#787878" stroke="none" />
  </g>
</svg>