﻿<?xml version="1.0" encoding="utf-8"?>
<svg version="1.1" xmlns:xlink="http://www.w3.org/1999/xlink" width="12px" height="12px" viewBox="44 284  12 12" xmlns="http://www.w3.org/2000/svg">
  <path d="M 44.5 284.5  L 55.5 284.5  L 55.5 295.5  L 44.5 295.5  L 44.5 284.5  Z " fill-rule="nonzero" fill="#ffffff" stroke="none" />
  <path d="M 44.5 284.5  L 55.5 284.5  L 55.5 295.5  L 44.5 295.5  L 44.5 284.5  Z " stroke-width="1" stroke="#cccccc" fill="none" />
</svg>