﻿<?xml version="1.0" encoding="utf-8"?>
<svg version="1.1" xmlns:xlink="http://www.w3.org/1999/xlink" width="12px" height="12px" viewBox="123 352  12 12" xmlns="http://www.w3.org/2000/svg">
  <path d="M 129 352  C 132.36 352  135 354.64  135 358  C 135 361.36  132.36 364  129 364  C 125.64 364  123 361.36  123 358  C 123 354.64  125.64 352  129 352  Z " fill-rule="nonzero" fill="#ffffff" stroke="none" />
  <path d="M 129 352.5  C 132.08 352.5  134.5 354.92  134.5 358  C 134.5 361.08  132.08 363.5  129 363.5  C 125.92 363.5  123.5 361.08  123.5 358  C 123.5 354.92  125.92 352.5  129 352.5  Z " stroke-width="1" stroke="#797979" fill="none" />
  <path d="M 129 361  C 127.32 361  126 359.68  126 358  C 126 356.32  127.32 355  129 355  C 130.68 355  132 356.32  132 358  C 132 359.68  130.68 361  129 361  " fill-rule="nonzero" fill="#797979" stroke="none" />
</svg>