﻿<?xml version="1.0" encoding="utf-8"?>
<svg version="1.1" xmlns:xlink="http://www.w3.org/1999/xlink" width="20px" height="20px" preserveAspectRatio="xMinYMid meet" viewBox="201 1093  20 18" xmlns="http://www.w3.org/2000/svg">
  <defs>
    <mask fill="white" id="clip204">
      <path d="M 151 1012  L 271 1012  L 271 1082  L 151 1082  Z M 151 989  L 271 989  L 271 1114  L 151 1114  Z " fill-rule="evenodd" />
    </mask>
  </defs>
  <path d="M 211 1012  L 211 989  M 211 1082  L 211 1102  " stroke-width="2" stroke="#cccccc" fill="none" />
  <path d="M 215.292893218813 1096.89289321881  L 211 1101.18578643763  L 206.707106781187 1096.89289321881  L 205.292893218813 1098.30710678119  L 210.292893218813 1103.30710678119  L 211 1104.01421356237  L 211.707106781187 1103.30710678119  L 216.707106781187 1098.30710678119  L 215.292893218813 1096.89289321881  Z " fill-rule="nonzero" fill="#cccccc" stroke="none" mask="url(#clip204)" />
</svg>