﻿<?xml version="1.0" encoding="utf-8"?>
<svg version="1.1" xmlns:xlink="http://www.w3.org/1999/xlink" width="12px" height="12px" viewBox="23 201  12 12" xmlns="http://www.w3.org/2000/svg">
  <path d="M 29 201  C 32.36 201  35 203.64  35 207  C 35 210.36  32.36 213  29 213  C 25.64 213  23 210.36  23 207  C 23 203.64  25.64 201  29 201  Z " fill-rule="nonzero" fill="#ffffff" stroke="none" />
  <path d="M 29 201.5  C 32.08 201.5  34.5 203.92  34.5 207  C 34.5 210.08  32.08 212.5  29 212.5  C 25.92 212.5  23.5 210.08  23.5 207  C 23.5 203.92  25.92 201.5  29 201.5  Z " stroke-width="1" stroke="#797979" fill="none" />
  <path d="M 29 210  C 27.32 210  26 208.68  26 207  C 26 205.32  27.32 204  29 204  C 30.68 204  32 205.32  32 207  C 32 208.68  30.68 210  29 210  " fill-rule="nonzero" fill="#797979" stroke="none" />
</svg>