﻿<?xml version="1.0" encoding="utf-8"?>
<svg version="1.1" xmlns:xlink="http://www.w3.org/1999/xlink" width="12px" height="12px" viewBox="23 231  12 12" xmlns="http://www.w3.org/2000/svg">
  <path d="M 29 231  C 32.36 231  35 233.64  35 237  C 35 240.36  32.36 243  29 243  C 25.64 243  23 240.36  23 237  C 23 233.64  25.64 231  29 231  Z " fill-rule="nonzero" fill="#f0f0f0" stroke="none" />
  <path d="M 29 231.5  C 32.08 231.5  34.5 233.92  34.5 237  C 34.5 240.08  32.08 242.5  29 242.5  C 25.92 242.5  23.5 240.08  23.5 237  C 23.5 233.92  25.92 231.5  29 231.5  Z " stroke-width="1" stroke="#797979" fill="none" />
</svg>