﻿<?xml version="1.0" encoding="utf-8"?>
<svg version="1.1" xmlns:xlink="http://www.w3.org/1999/xlink" width="12px" height="12px" viewBox="18 225  12 12" xmlns="http://www.w3.org/2000/svg">
  <path d="M 24 225  C 27.36 225  30 227.64  30 231  C 30 234.36  27.36 237  24 237  C 20.64 237  18 234.36  18 231  C 18 227.64  20.64 225  24 225  Z " fill-rule="nonzero" fill="#ffffff" stroke="none" />
  <path d="M 24 225.5  C 27.08 225.5  29.5 227.92  29.5 231  C 29.5 234.08  27.08 236.5  24 236.5  C 20.92 236.5  18.5 234.08  18.5 231  C 18.5 227.92  20.92 225.5  24 225.5  Z " stroke-width="1" stroke="#797979" fill="none" />
</svg>