﻿<?xml version="1.0" encoding="utf-8"?>
<svg version="1.1" xmlns:xlink="http://www.w3.org/1999/xlink" width="12px" height="12px" viewBox="18 345  12 12" xmlns="http://www.w3.org/2000/svg">
  <path d="M 24 345  C 27.36 345  30 347.64  30 351  C 30 354.36  27.36 357  24 357  C 20.64 357  18 354.36  18 351  C 18 347.64  20.64 345  24 345  Z " fill-rule="nonzero" fill="#ffffff" stroke="none" />
  <path d="M 24 345.5  C 27.08 345.5  29.5 347.92  29.5 351  C 29.5 354.08  27.08 356.5  24 356.5  C 20.92 356.5  18.5 354.08  18.5 351  C 18.5 347.92  20.92 345.5  24 345.5  Z " stroke-width="1" stroke="#797979" fill="none" />
  <path d="M 24 354  C 22.32 354  21 352.68  21 351  C 21 349.32  22.32 348  24 348  C 25.68 348  27 349.32  27 351  C 27 352.68  25.68 354  24 354  " fill-rule="nonzero" fill="#797979" stroke="none" />
</svg>