﻿<?xml version="1.0" encoding="utf-8"?>
<svg version="1.1" xmlns:xlink="http://www.w3.org/1999/xlink" width="12px" height="12px" viewBox="18 315  12 12" xmlns="http://www.w3.org/2000/svg">
  <path d="M 24 315  C 27.36 315  30 317.64  30 321  C 30 324.36  27.36 327  24 327  C 20.64 327  18 324.36  18 321  C 18 317.64  20.64 315  24 315  Z " fill-rule="nonzero" fill="#ffffff" stroke="none" />
  <path d="M 24 315.5  C 27.08 315.5  29.5 317.92  29.5 321  C 29.5 324.08  27.08 326.5  24 326.5  C 20.92 326.5  18.5 324.08  18.5 321  C 18.5 317.92  20.92 315.5  24 315.5  Z " stroke-width="1" stroke="#797979" fill="none" />
</svg>