﻿<?xml version="1.0" encoding="utf-8"?>
<svg version="1.1" xmlns:xlink="http://www.w3.org/1999/xlink" width="12px" height="12px" viewBox="18 284  12 12" xmlns="http://www.w3.org/2000/svg">
  <path d="M 24 284  C 27.36 284  30 286.64  30 290  C 30 293.36  27.36 296  24 296  C 20.64 296  18 293.36  18 290  C 18 286.64  20.64 284  24 284  Z " fill-rule="nonzero" fill="#ffffff" stroke="none" />
  <path d="M 24 284.5  C 27.08 284.5  29.5 286.92  29.5 290  C 29.5 293.08  27.08 295.5  24 295.5  C 20.92 295.5  18.5 293.08  18.5 290  C 18.5 286.92  20.92 284.5  24 284.5  Z " stroke-width="1" stroke="#797979" fill="none" />
  <path d="M 24 293  C 22.32 293  21 291.68  21 290  C 21 288.32  22.32 287  24 287  C 25.68 287  27 288.32  27 290  C 27 291.68  25.68 293  24 293  " fill-rule="nonzero" fill="#797979" stroke="none" />
</svg>