﻿<?xml version="1.0" encoding="utf-8"?>
<svg version="1.1" xmlns:xlink="http://www.w3.org/1999/xlink" width="10px" height="68px" preserveAspectRatio="xMidYMin meet" viewBox="288 533  8 68" xmlns="http://www.w3.org/2000/svg">
  <defs>
    <mask fill="white" id="clip508">
      <path d="M 236.5 552  L 347.5 552  L 347.5 577  L 236.5 577  Z M 236.5 533  L 347.5 533  L 347.5 613  L 236.5 613  Z " fill-rule="evenodd" />
    </mask>
  </defs>
  <path d="M 292 552  L 292 533  M 292 577  L 292 594  " stroke-width="2" stroke="#999999" fill="none" />
  <path d="M 284 586.6  L 292 596  L 300 586.6  L 292 590.2  L 284 586.6  Z " fill-rule="nonzero" fill="#999999" stroke="none" mask="url(#clip508)" />
</svg>