﻿<?xml version="1.0" encoding="utf-8"?>
<svg version="1.1" xmlns:xlink="http://www.w3.org/1999/xlink" width="8px" height="16px" xmlns="http://www.w3.org/2000/svg">
  <g transform="matrix(1 0 0 1 -266 -394 )">
    <path d="M 5.8984375 8.46753246753246  L 0.3515625 15.8441558441559  C 0.25260416666666 15.9757575757576  0.16927083333334 16.0207792207792  0.1015625 15.9792207792208  C 0.0338541666666598 15.9376623376623  0 15.8268398268398  0 15.6467532467532  L 0 0.353246753246765  C 0 0.17316017316017  0.0338541666666598 0.0623376623376544  0.1015625 0.0207792207792181  C 0.16927083333334 -0.0207792207792181  0.25260416666666 0.0242424242424022  0.3515625 0.155844155844136  L 5.8984375 7.53246753246754  C 5.94010416666664 7.58787878787876  5.97395833333336 7.65367965367966  6 7.72987012987011  L 6 0.685714285714312  C 6 0.505627705627717  6.04947916666664 0.349783549783524  6.1484375 0.218181818181847  C 6.24739583333336 0.0865800865800566  6.36458333333336 0.0207792207792181  6.5 0.0207792207792181  L 7.5 0.0207792207792181  C 7.63541666666664 0.0207792207792181  7.75260416666664 0.0865800865800566  7.8515625 0.218181818181847  C 7.95052083333336 0.349783549783524  8 0.505627705627717  8 0.685714285714312  L 8 15.3142857142857  C 8 15.4943722943723  7.95052083333336 15.6502164502165  7.8515625 15.7818181818182  C 7.75260416666664 15.9134199134199  7.63541666666664 15.9792207792208  7.5 15.9792207792208  L 6.5 15.9792207792208  C 6.36458333333336 15.9792207792208  6.24739583333336 15.9134199134199  6.1484375 15.7818181818182  C 6.04947916666664 15.6502164502165  6 15.4943722943723  6 15.3142857142857  L 6 8.27012987012989  C 5.97395833333336 8.33939393939397  5.94010416666664 8.40519480519481  5.8984375 8.46753246753246  Z " fill-rule="nonzero" fill="#0099ff" stroke="none" transform="matrix(1 0 0 1 266 394 )" />
  </g>
</svg>