﻿<?xml version="1.0" encoding="utf-8"?>
<svg version="1.1" xmlns:xlink="http://www.w3.org/1999/xlink" width="12px" height="12px" viewBox="120 310  12 12" xmlns="http://www.w3.org/2000/svg">
  <path d="M 126 310  C 129.36 310  132 312.64  132 316  C 132 319.36  129.36 322  126 322  C 122.64 322  120 319.36  120 316  C 120 312.64  122.64 310  126 310  Z " fill-rule="nonzero" fill="#f0f0f0" stroke="none" />
  <path d="M 126 310.5  C 129.08 310.5  131.5 312.92  131.5 316  C 131.5 319.08  129.08 321.5  126 321.5  C 122.92 321.5  120.5 319.08  120.5 316  C 120.5 312.92  122.92 310.5  126 310.5  Z " stroke-width="1" stroke="#797979" fill="none" />
</svg>