﻿<?xml version="1.0" encoding="utf-8"?>
<svg version="1.1" xmlns:xlink="http://www.w3.org/1999/xlink" width="12px" height="12px" viewBox="120 280  12 12" xmlns="http://www.w3.org/2000/svg">
  <path d="M 126 280  C 129.36 280  132 282.64  132 286  C 132 289.36  129.36 292  126 292  C 122.64 292  120 289.36  120 286  C 120 282.64  122.64 280  126 280  Z " fill-rule="nonzero" fill="#f0f0f0" stroke="none" />
  <path d="M 126 280.5  C 129.08 280.5  131.5 282.92  131.5 286  C 131.5 289.08  129.08 291.5  126 291.5  C 122.92 291.5  120.5 289.08  120.5 286  C 120.5 282.92  122.92 280.5  126 280.5  Z " stroke-width="1" stroke="#797979" fill="none" />
  <path d="M 126 289  C 124.32 289  123 287.68  123 286  C 123 284.32  124.32 283  126 283  C 127.68 283  129 284.32  129 286  C 129 287.68  127.68 289  126 289  " fill-rule="nonzero" fill="#797979" stroke="none" />
</svg>