﻿<?xml version="1.0" encoding="utf-8"?>
<svg version="1.1" xmlns:xlink="http://www.w3.org/1999/xlink" width="18px" height="9px" xmlns="http://www.w3.org/2000/svg">
  <g transform="matrix(1 0 0 1 -131 -198 )">
    <path d="M 17.666015625 0.295555555555552  C 17.888671875 0.492592592592587  18 0.725925925925935  18 0.995555555555597  C 18 1.2651851851852  17.888671875 1.49851851851849  17.666015625 1.69555555555559  L 9.791015625 8.66444444444443  C 9.56835937500004 8.86148148148146  9.30468750000004 8.96000000000004  9 8.96000000000004  C 8.69531249999996 8.96000000000004  8.43164062499996 8.86148148148146  8.208984375 8.66444444444443  L 0.333984375 1.69555555555559  C 0.111328125000043 1.49851851851849  0 1.2651851851852  0 0.995555555555597  C 0 0.725925925925935  0.111328125000043 0.492592592592587  0.333984375 0.295555555555552  C 0.556640624999957 0.0985185185185173  0.820312499999957 0  1.125 0  L 16.875 0  C 17.1796875 0  17.443359375 0.0985185185185173  17.666015625 0.295555555555552  Z " fill-rule="nonzero" fill="#999999" stroke="none" transform="matrix(1 0 0 1 131 198 )" />
  </g>
</svg>