﻿<?xml version="1.0" encoding="utf-8"?>
<svg version="1.1" xmlns:xlink="http://www.w3.org/1999/xlink" width="2px" height="156px" xmlns="http://www.w3.org/2000/svg">
  <g transform="matrix(1 0 0 1 -159 -215 )">
    <path d="M 159.5 215  L 159.5 370  " stroke-width="1" stroke="#bcbcbc" fill="none" />
  </g>
</svg>