﻿<?xml version="1.0" encoding="utf-8"?>
<svg version="1.1" xmlns:xlink="http://www.w3.org/1999/xlink" width="12px" height="12px" viewBox="47 387  12 12" xmlns="http://www.w3.org/2000/svg">
  <path d="M 47.5 387.5  L 58.5 387.5  L 58.5 398.5  L 47.5 398.5  L 47.5 387.5  Z " fill-rule="nonzero" fill="#ffffff" stroke="none" />
  <path d="M 47.5 387.5  L 58.5 387.5  L 58.5 398.5  L 47.5 398.5  L 47.5 387.5  Z " stroke-width="1" stroke="#797979" fill="none" />
  <path d="M 49.5714285714286 393  L 52.1428571428571 395.571428571429  " stroke-width="2.57142857142857" stroke="#797979" fill="none" />
  <path d="M 52.1428571428571 395.571428571429  L 56.4285714285714 389.571428571429  " stroke-width="2.57142857142857" stroke="#797979" fill="none" />
</svg>