﻿<?xml version="1.0" encoding="utf-8"?>
<svg version="1.1" xmlns:xlink="http://www.w3.org/1999/xlink" width="12px" height="12px" viewBox="196 312.5  12 12" xmlns="http://www.w3.org/2000/svg">
  <path d="M 196.5 313  L 207.5 313  L 207.5 324  L 196.5 324  L 196.5 313  Z " fill-rule="nonzero" fill="#f0f0f0" stroke="none" />
  <path d="M 196.5 313  L 207.5 313  L 207.5 324  L 196.5 324  L 196.5 313  Z " stroke-width="1" stroke="#797979" fill="none" />
  <path d="M 198.571428571429 318.5  L 201.142857142857 321.071428571429  " stroke-width="2.57142857142857" stroke="#797979" fill="none" />
  <path d="M 201.142857142857 321.071428571429  L 205.428571428571 315.071428571429  " stroke-width="2.57142857142857" stroke="#797979" fill="none" />
</svg>