﻿<?xml version="1.0" encoding="utf-8"?>
<svg version="1.1" xmlns:xlink="http://www.w3.org/1999/xlink" width="12px" height="12px" viewBox="28 243  12 12" xmlns="http://www.w3.org/2000/svg">
  <path d="M 34 243  C 37.36 243  40 245.64  40 249  C 40 252.36  37.36 255  34 255  C 30.64 255  28 252.36  28 249  C 28 245.64  30.64 243  34 243  Z " fill-rule="nonzero" fill="#ffffff" stroke="none" />
  <path d="M 34 243.5  C 37.08 243.5  39.5 245.92  39.5 249  C 39.5 252.08  37.08 254.5  34 254.5  C 30.92 254.5  28.5 252.08  28.5 249  C 28.5 245.92  30.92 243.5  34 243.5  Z " stroke-width="1" stroke="#797979" fill="none" />
  <path d="M 34 252  C 32.32 252  31 250.68  31 249  C 31 247.32  32.32 246  34 246  C 35.68 246  37 247.32  37 249  C 37 250.68  35.68 252  34 252  " fill-rule="nonzero" fill="#797979" stroke="none" />
</svg>