﻿<?xml version="1.0" encoding="utf-8"?>
<svg version="1.1" xmlns:xlink="http://www.w3.org/1999/xlink" width="36px" height="38px" xmlns="http://www.w3.org/2000/svg">
  <g transform="matrix(1 0 0 1 -152 -342 )">
    <path d="M 9.18389423076923 28.2877604166667  C 9.72475961538464 28.8302951388889  9.99519230769232 29.4849537037037  9.99519230769232 30.2517361111111  C 9.99519230769232 31.0185185185185  9.72475961538464 31.6731770833333  9.18389423076923 32.2157118055555  C 8.64302884615387 32.7582465277778  7.99038461538464 33.0295138888889  7.22596153846155 33.0295138888889  C 6.47596153846155 33.0295138888889  5.82692307692309 32.7546296296296  5.27884615384613 32.2048611111111  C 4.73076923076923 31.6550925925926  4.45673076923077 31.0040509259259  4.45673076923077 30.2517361111111  C 4.45673076923077 29.4849537037037  4.72716346153845 28.8302951388889  5.26802884615387 28.2877604166667  C 5.80889423076923 27.7452256944445  6.46153846153845 27.4739583333333  7.22596153846155 27.4739583333333  C 7.99038461538464 27.4739583333333  8.64302884615387 27.7452256944445  9.18389423076923 28.2877604166667  Z M 19.9579326923077 32.7582465277778  C 20.4987980769231 33.30078125  20.7692307692308 33.9554398148148  20.7692307692308 34.7222222222222  C 20.7692307692308 35.4890046296296  20.4987980769231 36.1436631944445  19.9579326923077 36.6861979166667  C 19.4170673076923 37.2287326388889  18.7644230769231 37.5  18 37.5  C 17.2355769230769 37.5  16.5829326923077 37.2287326388889  16.0420673076923 36.6861979166667  C 15.5012019230769 36.1436631944445  15.2307692307692 35.4890046296296  15.2307692307692 34.7222222222222  C 15.2307692307692 33.9554398148148  15.5012019230769 33.30078125  16.0420673076923 32.7582465277778  C 16.5829326923077 32.2157118055555  17.2355769230769 31.9444444444445  18 31.9444444444445  C 18.7644230769231 31.9444444444445  19.4170673076923 32.2157118055555  19.9579326923077 32.7582465277778  Z M 4.72716346153845 17.48046875  C 5.26802884615387 18.0230034722222  5.53846153846155 18.6776620370371  5.53846153846155 19.4444444444445  C 5.53846153846155 20.2112268518518  5.26802884615387 20.8658854166667  4.72716346153845 21.4084201388889  C 4.18629807692309 21.9509548611111  3.53365384615387 22.2222222222222  2.76923076923077 22.2222222222222  C 2.00480769230768 22.2222222222222  1.35216346153845 21.9509548611111  0.811298076923094 21.4084201388889  C 0.270432692307679 20.8658854166667  0 20.2112268518518  0 19.4444444444445  C 0 18.6776620370371  0.270432692307679 18.0230034722222  0.811298076923094 17.48046875  C 1.35216346153845 16.9379340277778  2.00480769230768 16.6666666666667  2.76923076923077 16.6666666666667  C 3.53365384615387 16.6666666666667  4.18629807692309 16.9379340277778  4.72716346153845 17.48046875  Z M 30.7319711538461 28.2877604166667  C 31.2728365384615 28.8302951388889  31.5432692307692 29.4849537037037  31.5432692307692 30.2517361111111  C 31.5432692307692 31.0040509259259  31.2692307692308 31.6550925925926  30.7211538461539 32.2048611111111  C 30.1730769230769 32.7546296296296  29.5240384615385 33.0295138888889  28.7740384615385 33.0295138888889  C 28.0096153846154 33.0295138888889  27.3569711538461 32.7582465277778  26.8161057692308 32.2157118055555  C 26.2752403846154 31.6731770833333  26.0048076923077 31.0185185185185  26.0048076923077 30.2517361111111  C 26.0048076923077 29.4849537037037  26.2752403846154 28.8302951388889  26.8161057692308 28.2877604166667  C 27.3569711538461 27.7452256944445  28.0096153846154 27.4739583333333  28.7740384615385 27.4739583333333  C 29.5384615384615 27.4739583333333  30.1911057692308 27.7452256944445  30.7319711538461 28.2877604166667  Z M 9.67067307692309 6.18489583333331  C 10.3485576923077 6.86487268518516  10.6875 7.68229166666669  10.6875 8.63715277777777  C 10.6875 9.59201388888891  10.3485576923077 10.4094328703704  9.67067307692309 11.0894097222222  C 8.99278846153845 11.7693865740741  8.17788461538464 12.109375  7.22596153846155 12.109375  C 6.27403846153845 12.109375  5.45913461538464 11.7693865740741  4.78125 11.0894097222222  C 4.10336538461536 10.4094328703704  3.76442307692309 9.59201388888891  3.76442307692309 8.63715277777777  C 3.76442307692309 7.68229166666669  4.10336538461536 6.86487268518516  4.78125 6.18489583333331  C 5.45913461538464 5.50491898148147  6.27403846153845 5.16493055555554  7.22596153846155 5.16493055555554  C 8.17788461538464 5.16493055555554  8.99278846153845 5.50491898148147  9.67067307692309 6.18489583333331  Z M 35.1887019230769 17.48046875  C 35.7295673076923 18.0230034722222  36 18.6776620370371  36 19.4444444444445  C 36 20.2112268518518  35.7295673076923 20.8658854166667  35.1887019230769 21.4084201388889  C 34.6478365384615 21.9509548611111  33.9951923076923 22.2222222222222  33.2307692307692 22.2222222222222  C 32.4663461538461 22.2222222222222  31.8137019230769 21.9509548611111  31.2728365384615 21.4084201388889  C 30.7319711538461 20.8658854166667  30.4615384615385 20.2112268518518  30.4615384615385 19.4444444444445  C 30.4615384615385 18.6776620370371  30.7319711538461 18.0230034722222  31.2728365384615 17.48046875  C 31.8137019230769 16.9379340277778  32.4663461538461 16.6666666666667  33.2307692307692 16.6666666666667  C 33.9951923076923 16.6666666666667  34.6478365384615 16.9379340277778  35.1887019230769 17.48046875  Z M 20.9423076923077 1.21527777777777  C 21.75 2.02546296296293  22.1538461538461 3.00925925925924  22.1538461538461 4.16666666666669  C 22.1538461538461 5.32407407407408  21.75 6.30787037037038  20.9423076923077 7.11805555555554  C 20.1346153846154 7.92824074074076  19.1538461538461 8.33333333333331  18 8.33333333333331  C 16.8461538461539 8.33333333333331  15.8653846153846 7.92824074074076  15.0576923076923 7.11805555555554  C 14.25 6.30787037037038  13.8461538461539 5.32407407407408  13.8461538461539 4.16666666666669  C 13.8461538461539 3.00925925925924  14.25 2.02546296296293  15.0576923076923 1.21527777777777  C 15.8653846153846 0.405092592592609  16.8461538461539 0  18 0  C 19.1538461538461 0  20.1346153846154 0.405092592592609  20.9423076923077 1.21527777777777  Z M 32.1923076923077 5.20833333333331  C 33.1442307692308 6.16319444444446  33.6201923076923 7.30613425925924  33.6201923076923 8.63715277777777  C 33.6201923076923 9.98263888888891  33.1442307692308 11.1291956018518  32.1923076923077 12.0768229166667  C 31.2403846153846 13.0244502314815  30.1009615384615 13.4982638888889  28.7740384615385 13.4982638888889  C 27.4326923076923 13.4982638888889  26.2896634615385 13.0244502314815  25.3449519230769 12.0768229166667  C 24.4002403846154 11.1291956018518  23.9278846153846 9.98263888888891  23.9278846153846 8.63715277777777  C 23.9278846153846 7.30613425925924  24.4002403846154 6.16319444444446  25.3449519230769 5.20833333333331  C 26.2896634615385 4.25347222222223  27.4326923076923 3.77604166666669  28.7740384615385 3.77604166666669  C 30.1009615384615 3.77604166666669  31.2403846153846 4.25347222222223  32.1923076923077 5.20833333333331  Z " fill-rule="nonzero" fill="#ffffff" stroke="none" transform="matrix(1 0 0 1 152 342 )" />
  </g>
</svg>