﻿<?xml version="1.0" encoding="utf-8"?>
<svg version="1.1" xmlns:xlink="http://www.w3.org/1999/xlink" width="12px" height="12px" viewBox="43 504  12 12" xmlns="http://www.w3.org/2000/svg">
  <path d="M 49 504  C 52.36 504  55 506.64  55 510  C 55 513.36  52.36 516  49 516  C 45.64 516  43 513.36  43 510  C 43 506.64  45.64 504  49 504  Z " fill-rule="nonzero" fill="#ffffff" stroke="none" />
  <path d="M 49 504.5  C 52.08 504.5  54.5 506.92  54.5 510  C 54.5 513.08  52.08 515.5  49 515.5  C 45.92 515.5  43.5 513.08  43.5 510  C 43.5 506.92  45.92 504.5  49 504.5  Z " stroke-width="1" stroke="#797979" fill="none" />
</svg>