﻿<?xml version="1.0" encoding="utf-8"?>
<svg version="1.1" xmlns:xlink="http://www.w3.org/1999/xlink" width="12px" height="12px" viewBox="43 639  12 12" xmlns="http://www.w3.org/2000/svg">
  <path d="M 49 639  C 52.36 639  55 641.64  55 645  C 55 648.36  52.36 651  49 651  C 45.64 651  43 648.36  43 645  C 43 641.64  45.64 639  49 639  Z " fill-rule="nonzero" fill="#f0f0f0" stroke="none" />
  <path d="M 49 639.5  C 52.08 639.5  54.5 641.92  54.5 645  C 54.5 648.08  52.08 650.5  49 650.5  C 45.92 650.5  43.5 648.08  43.5 645  C 43.5 641.92  45.92 639.5  49 639.5  Z " stroke-width="1" stroke="#797979" fill="none" />
</svg>