﻿<?xml version="1.0" encoding="utf-8"?>
<svg version="1.1" xmlns:xlink="http://www.w3.org/1999/xlink" width="12px" height="12px" viewBox="133 757  12 12" xmlns="http://www.w3.org/2000/svg">
  <path d="M 139 757  C 142.36 757  145 759.64  145 763  C 145 766.36  142.36 769  139 769  C 135.64 769  133 766.36  133 763  C 133 759.64  135.64 757  139 757  Z " fill-rule="nonzero" fill="#ffffff" stroke="none" />
  <path d="M 139 757.5  C 142.08 757.5  144.5 759.92  144.5 763  C 144.5 766.08  142.08 768.5  139 768.5  C 135.92 768.5  133.5 766.08  133.5 763  C 133.5 759.92  135.92 757.5  139 757.5  Z " stroke-width="1" stroke="#797979" fill="none" />
  <path d="M 139 766  C 137.32 766  136 764.68  136 763  C 136 761.32  137.32 760  139 760  C 140.68 760  142 761.32  142 763  C 142 764.68  140.68 766  139 766  " fill-rule="nonzero" fill="#797979" stroke="none" />
</svg>