﻿<?xml version="1.0" encoding="utf-8"?>
<svg version="1.1" xmlns:xlink="http://www.w3.org/1999/xlink" width="12px" height="12px" viewBox="43 572  12 12" xmlns="http://www.w3.org/2000/svg">
  <path d="M 49 572  C 52.36 572  55 574.64  55 578  C 55 581.36  52.36 584  49 584  C 45.64 584  43 581.36  43 578  C 43 574.64  45.64 572  49 572  Z " fill-rule="nonzero" fill="#ffffff" stroke="none" />
  <path d="M 49 572.5  C 52.08 572.5  54.5 574.92  54.5 578  C 54.5 581.08  52.08 583.5  49 583.5  C 45.92 583.5  43.5 581.08  43.5 578  C 43.5 574.92  45.92 572.5  49 572.5  Z " stroke-width="1" stroke="#797979" fill="none" />
</svg>