﻿<?xml version="1.0" encoding="utf-8"?>
<svg version="1.1" xmlns:xlink="http://www.w3.org/1999/xlink" width="12px" height="12px" viewBox="44 205  12 12" xmlns="http://www.w3.org/2000/svg">
  <path d="M 44.5 205.5  L 55.5 205.5  L 55.5 216.5  L 44.5 216.5  L 44.5 205.5  Z " fill-rule="nonzero" fill="#f0f0f0" stroke="none" />
  <path d="M 44.5 205.5  L 55.5 205.5  L 55.5 216.5  L 44.5 216.5  L 44.5 205.5  Z " stroke-width="1" stroke="#797979" fill="none" />
  <path d="M 46.5714285714286 211  L 49.1428571428571 213.571428571429  " stroke-width="2.57142857142857" stroke="#797979" fill="none" />
  <path d="M 49.1428571428571 213.571428571429  L 53.4285714285714 207.571428571429  " stroke-width="2.57142857142857" stroke="#797979" fill="none" />
</svg>