﻿<?xml version="1.0" encoding="utf-8"?>
<svg version="1.1" xmlns:xlink="http://www.w3.org/1999/xlink" width="12px" height="12px" viewBox="516 205  12 12" xmlns="http://www.w3.org/2000/svg">
  <path d="M 516.5 205.5  L 527.5 205.5  L 527.5 216.5  L 516.5 216.5  L 516.5 205.5  Z " fill-rule="nonzero" fill="#f0f0f0" stroke="none" />
  <path d="M 516.5 205.5  L 527.5 205.5  L 527.5 216.5  L 516.5 216.5  L 516.5 205.5  Z " stroke-width="1" stroke="#797979" fill="none" />
  <path d="M 518.571428571429 211  L 521.142857142857 213.571428571429  " stroke-width="2.57142857142857" stroke="#797979" fill="none" />
  <path d="M 521.142857142857 213.571428571429  L 525.428571428571 207.571428571429  " stroke-width="2.57142857142857" stroke="#797979" fill="none" />
</svg>