﻿<?xml version="1.0" encoding="utf-8"?>
<svg version="1.1" xmlns:xlink="http://www.w3.org/1999/xlink" width="12px" height="12px" viewBox="9 188  12 12" xmlns="http://www.w3.org/2000/svg">
  <path d="M 15 188  C 18.36 188  21 190.64  21 194  C 21 197.36  18.36 200  15 200  C 11.64 200  9 197.36  9 194  C 9 190.64  11.64 188  15 188  Z " fill-rule="nonzero" fill="#ffffff" stroke="none" />
  <path d="M 15 188.5  C 18.08 188.5  20.5 190.92  20.5 194  C 20.5 197.08  18.08 199.5  15 199.5  C 11.92 199.5  9.5 197.08  9.5 194  C 9.5 190.92  11.92 188.5  15 188.5  Z " stroke-width="1" stroke="#797979" fill="none" />
</svg>