﻿<?xml version="1.0" encoding="utf-8"?>
<svg version="1.1" xmlns:xlink="http://www.w3.org/1999/xlink" width="12px" height="12px" viewBox="9 69  12 12" xmlns="http://www.w3.org/2000/svg">
  <path d="M 15 69  C 18.36 69  21 71.64  21 75  C 21 78.36  18.36 81  15 81  C 11.64 81  9 78.36  9 75  C 9 71.64  11.64 69  15 69  Z " fill-rule="nonzero" fill="#ffffff" stroke="none" />
  <path d="M 15 69.5  C 18.08 69.5  20.5 71.92  20.5 75  C 20.5 78.08  18.08 80.5  15 80.5  C 11.92 80.5  9.5 78.08  9.5 75  C 9.5 71.92  11.92 69.5  15 69.5  Z " stroke-width="1" stroke="#797979" fill="none" />
  <path d="M 15 78  C 13.32 78  12 76.68  12 75  C 12 73.32  13.32 72  15 72  C 16.68 72  18 73.32  18 75  C 18 76.68  16.68 78  15 78  " fill-rule="nonzero" fill="#797979" stroke="none" />
</svg>