﻿<?xml version="1.0" encoding="utf-8"?>
<svg version="1.1" xmlns:xlink="http://www.w3.org/1999/xlink" width="12px" height="12px" viewBox="9 158  12 12" xmlns="http://www.w3.org/2000/svg">
  <path d="M 15 158  C 18.36 158  21 160.64  21 164  C 21 167.36  18.36 170  15 170  C 11.64 170  9 167.36  9 164  C 9 160.64  11.64 158  15 158  Z " fill-rule="nonzero" fill="#ffffff" stroke="none" />
  <path d="M 15 158.5  C 18.08 158.5  20.5 160.92  20.5 164  C 20.5 167.08  18.08 169.5  15 169.5  C 11.92 169.5  9.5 167.08  9.5 164  C 9.5 160.92  11.92 158.5  15 158.5  Z " stroke-width="1" stroke="#797979" fill="none" />
</svg>