﻿<?xml version="1.0" encoding="utf-8"?>
<svg version="1.1" xmlns:xlink="http://www.w3.org/1999/xlink" width="12px" height="12px" viewBox="9 129  12 12" xmlns="http://www.w3.org/2000/svg">
  <path d="M 15 129  C 18.36 129  21 131.64  21 135  C 21 138.36  18.36 141  15 141  C 11.64 141  9 138.36  9 135  C 9 131.64  11.64 129  15 129  Z " fill-rule="nonzero" fill="#f0f0f0" stroke="none" />
  <path d="M 15 129.5  C 18.08 129.5  20.5 131.92  20.5 135  C 20.5 138.08  18.08 140.5  15 140.5  C 11.92 140.5  9.5 138.08  9.5 135  C 9.5 131.92  11.92 129.5  15 129.5  Z " stroke-width="1" stroke="#797979" fill="none" />
</svg>