﻿<?xml version="1.0" encoding="utf-8"?>
<svg version="1.1" xmlns:xlink="http://www.w3.org/1999/xlink" width="12px" height="12px" viewBox="445 116  12 12" xmlns="http://www.w3.org/2000/svg">
  <path d="M 445.5 116.5  L 456.5 116.5  L 456.5 127.5  L 445.5 127.5  L 445.5 116.5  Z " fill-rule="nonzero" fill="#ffffff" stroke="none" />
  <path d="M 445.5 116.5  L 456.5 116.5  L 456.5 127.5  L 445.5 127.5  L 445.5 116.5  Z " stroke-width="1" stroke="#797979" fill="none" />
  <path d="M 447.571428571429 122  L 450.142857142857 124.571428571429  L 454.428571428571 118.571428571429  " stroke-width="2.57142857142857" stroke="#797979" fill="none" />
</svg>