﻿<?xml version="1.0" encoding="utf-8"?>
<svg version="1.1" xmlns:xlink="http://www.w3.org/1999/xlink" width="352px" height="175px" xmlns="http://www.w3.org/2000/svg">
  <g transform="matrix(1 0 0 1 -673 -1260 )">
    <path d="M 676 1263  L 1022 1263  L 1022 1432  L 676 1432  L 676 1263  Z " fill-rule="nonzero" fill="#ffffff" stroke="none" fill-opacity="0" />
    <path d="M 674.5 1261.5  L 1023.5 1261.5  L 1023.5 1433.5  L 674.5 1433.5  L 674.5 1261.5  Z " stroke-width="3" stroke-dasharray="9,3" stroke="#a30014" fill="none" stroke-opacity="0.807843137254902" stroke-dashoffset="0.5" />
  </g>
</svg>