﻿<?xml version="1.0" encoding="utf-8"?>
<svg version="1.1" xmlns:xlink="http://www.w3.org/1999/xlink" width="278px" height="37px" xmlns="http://www.w3.org/2000/svg">
  <g transform="matrix(1 0 0 1 -534 -1219 )">
    <path d="M 537 1222  L 809 1222  L 809 1253  L 537 1253  L 537 1222  Z " fill-rule="nonzero" fill="#ffffff" stroke="none" fill-opacity="0" />
    <path d="M 535.5 1220.5  L 810.5 1220.5  L 810.5 1254.5  L 535.5 1254.5  L 535.5 1220.5  Z " stroke-width="3" stroke-dasharray="9,3" stroke="#a30014" fill="none" stroke-opacity="0.807843137254902" stroke-dashoffset="0.5" />
  </g>
</svg>