﻿<?xml version="1.0" encoding="utf-8"?>
<svg version="1.1" xmlns:xlink="http://www.w3.org/1999/xlink" width="175px" height="37px" xmlns="http://www.w3.org/2000/svg">
  <g transform="matrix(1 0 0 1 -528 -1732 )">
    <path d="M 531 1735  L 700 1735  L 700 1766  L 531 1766  L 531 1735  Z " fill-rule="nonzero" fill="#ffffff" stroke="none" fill-opacity="0" />
    <path d="M 529.5 1733.5  L 701.5 1733.5  L 701.5 1767.5  L 529.5 1767.5  L 529.5 1733.5  Z " stroke-width="3" stroke-dasharray="9,3" stroke="#a30014" fill="none" stroke-opacity="0.807843137254902" stroke-dashoffset="0.5" />
  </g>
</svg>