﻿<?xml version="1.0" encoding="utf-8"?>
<svg version="1.1" xmlns:xlink="http://www.w3.org/1999/xlink" width="28px" height="26px" preserveAspectRatio="xMinYMid meet" viewBox="334 105  28 24" xmlns="http://www.w3.org/2000/svg">
  <path d="M 351.7 112.4  L 346 117.5  L 351.7 122.6  L 357.1 117.5  L 351.7 112.4  Z M 406.3 122.6  L 412 117.5  L 406.3 112.4  L 400.9 117.5  L 406.3 122.6  Z " fill-rule="nonzero" fill="#ff0000" stroke="none" />
  <path d="M 349 117.5  L 409 117.5  " stroke-width="3" stroke="#ff0000" fill="none" />
</svg>