﻿<?xml version="1.0" encoding="utf-8"?>
<svg version="1.1" xmlns:xlink="http://www.w3.org/1999/xlink" width="4px" height="4px" preserveAspectRatio="xMinYMid meet" viewBox="1252 873  4 2" xmlns="http://www.w3.org/2000/svg">
  <path d="M 1317 882.5  L 1331 873  L 1317 863.5  L 1317 882.5  Z M 1319 878.9  L 1319 867.1  L 1327.9 873  L 1319 878.9  Z " fill-rule="nonzero" fill="#d9001b" stroke="none" />
  <path d="M 1254 873  L 1319 873  " stroke-width="2" stroke="#d9001b" fill="none" />
</svg>