﻿<?xml version="1.0" encoding="utf-8"?>
<svg version="1.1" xmlns:xlink="http://www.w3.org/1999/xlink" width="40px" height="50px" xmlns="http://www.w3.org/2000/svg">
  <defs>
    <filter x="200px" y="752px" width="40px" height="50px" filterUnits="userSpaceOnUse" id="filter242">
      <feOffset dx="1" dy="1" in="SourceAlpha" result="shadowOffsetInner" />
      <feGaussianBlur stdDeviation="2.5" in="shadowOffsetInner" result="shadowGaussian" />
      <feComposite in2="shadowGaussian" operator="atop" in="SourceAlpha" result="shadowComposite" />
      <feColorMatrix type="matrix" values="0 0 0 0 0  0 0 0 0 0  0 0 0 0 0  0 0 0 0.698039215686274 0  " in="shadowComposite" />
    </filter>
    <g id="widget243">
      <path d="M 219 795.036928468354  C 213.2 785.40734059591  204.5 779.629587872444  204.5 770  C 204.5 764.985714285714  207.4 756.5  219 756.5  C 230.6 756.5  233.5 764.985714285714  233.5 770  C 233.5 779.629587872444  224.8 785.40734059591  219 795.036928468354  Z " fill-rule="nonzero" fill="#009dd9" stroke="none" />
      <path d="M 219 796  C 213 786  204 780  204 770  C 204 764.8  207 756  219 756  C 231 756  234 764.8  234 770  C 234 780  225 786  219 796  Z M 219 794.073856936707  C 224.6 784.81468119182  233 779.259175744887  233 770  C 233 765.171428571429  230.2 757  219 757  C 207.8 757  205 765.171428571429  205 770  C 205 779.259175744887  213.4 784.81468119182  219 794.073856936707  Z " fill-rule="nonzero" fill="#ffffff" stroke="none" />
    </g>
  </defs>
  <g transform="matrix(1 0 0 1 -200 -752 )">
    <use xlink:href="#widget243" filter="url(#filter242)" />
    <use xlink:href="#widget243" />
  </g>
</svg>