﻿<?xml version="1.0" encoding="utf-8"?>
<svg version="1.1" xmlns:xlink="http://www.w3.org/1999/xlink" width="67px" height="33px" xmlns="http://www.w3.org/2000/svg">
  <g transform="matrix(1 0 0 1 -531 -598 )">
    <path d="M 532 602  A 3 3 0 0 1 535 599 L 594 599  A 3 3 0 0 1 597 602 L 597 627  A 3 3 0 0 1 594 630 L 535 630  A 3 3 0 0 1 532 627 L 532 602  Z " fill-rule="nonzero" fill="#1890ff" stroke="none" />
  </g>
</svg>