﻿<?xml version="1.0" encoding="utf-8"?>
<svg version="1.1" xmlns:xlink="http://www.w3.org/1999/xlink" width="12px" height="12px" viewBox="199 20  12 12" xmlns="http://www.w3.org/2000/svg">
  <path d="M 199.5 20.5  L 210.5 20.5  L 210.5 31.5  L 199.5 31.5  L 199.5 20.5  Z " fill-rule="nonzero" fill="#f0f0f0" stroke="none" />
  <path d="M 199.5 20.5  L 210.5 20.5  L 210.5 31.5  L 199.5 31.5  L 199.5 20.5  Z " stroke-width="1" stroke="#797979" fill="none" />
  <path d="M 201.571428571429 26  L 204.142857142857 28.5714285714286  " stroke-width="2.57142857142857" stroke="#797979" fill="none" />
  <path d="M 204.142857142857 28.5714285714286  L 208.428571428571 22.5714285714286  " stroke-width="2.57142857142857" stroke="#797979" fill="none" />
</svg>