﻿<?xml version="1.0" encoding="utf-8"?>
<svg version="1.1" xmlns:xlink="http://www.w3.org/1999/xlink" width="12px" height="12px" viewBox="294 247  12 12" xmlns="http://www.w3.org/2000/svg">
  <path d="M 300 247  C 303.36 247  306 249.64  306 253  C 306 256.36  303.36 259  300 259  C 296.64 259  294 256.36  294 253  C 294 249.64  296.64 247  300 247  Z " fill-rule="nonzero" fill="#ffffff" stroke="none" />
  <path d="M 300 247.5  C 303.08 247.5  305.5 249.92  305.5 253  C 305.5 256.08  303.08 258.5  300 258.5  C 296.92 258.5  294.5 256.08  294.5 253  C 294.5 249.92  296.92 247.5  300 247.5  Z " stroke-width="1" stroke="#797979" fill="none" />
  <path d="M 300 256  C 298.32 256  297 254.68  297 253  C 297 251.32  298.32 250  300 250  C 301.68 250  303 251.32  303 253  C 303 254.68  301.68 256  300 256  " fill-rule="nonzero" fill="#797979" stroke="none" />
</svg>