﻿<?xml version="1.0" encoding="utf-8"?>
<svg version="1.1" xmlns:xlink="http://www.w3.org/1999/xlink" width="14px" height="14px" xmlns="http://www.w3.org/2000/svg">
  <g transform="matrix(1 0 0 1 -23 -294 )">
    <path d="M 30 298  C 31.68 298  33 299.32  33 301  C 33 302.68  31.68 304  30 304  C 28.32 304  27 302.68  27 301  C 27 299.32  28.32 298  30 298  Z " fill-rule="nonzero" fill="#ffffff" stroke="none" />
    <path d="M 30 296.5  C 32.52 296.5  34.5 298.48  34.5 301  C 34.5 303.52  32.52 305.5  30 305.5  C 27.48 305.5  25.5 303.52  25.5 301  C 25.5 298.48  27.48 296.5  30 296.5  Z " stroke-width="5" stroke="#2e8ff4" fill="none" />
  </g>
</svg>