﻿<?xml version="1.0" encoding="utf-8"?>
<svg version="1.1" xmlns:xlink="http://www.w3.org/1999/xlink" width="1178px" height="5px" xmlns="http://www.w3.org/2000/svg">
  <g transform="matrix(1 0 0 1 -9 -901 )">
    <path d="M 10 903  L 1185 903  " stroke-width="2" stroke-dasharray="6,2" stroke="#d9001b" fill="none" stroke-opacity="0.776470588235294" />
  </g>
</svg>