﻿<?xml version="1.0" encoding="utf-8"?>
<svg version="1.1" xmlns:xlink="http://www.w3.org/1999/xlink" width="28px" height="26px" preserveAspectRatio="xMinYMid meet" viewBox="1022 627  28 24" xmlns="http://www.w3.org/2000/svg">
  <g transform="matrix(-1 0 0 -1 2072 1278 )">
    <path d="M 988.7 633.4  L 983 638.5  L 988.7 643.6  L 994.1 638.5  L 988.7 633.4  Z M 1032.3 643.6  L 1038 638.5  L 1032.3 633.4  L 1026.9 638.5  L 1032.3 643.6  Z " fill-rule="nonzero" fill="#ff0000" stroke="none" />
    <path d="M 986 638.5  L 1035 638.5  " stroke-width="3" stroke="#ff0000" fill="none" />
  </g>
</svg>