﻿<?xml version="1.0" encoding="utf-8"?>
<svg version="1.1" xmlns:xlink="http://www.w3.org/1999/xlink" width="274px" height="37px" xmlns="http://www.w3.org/2000/svg">
  <g transform="matrix(1 0 0 1 -536 -730 )">
    <path d="M 539 733  L 807 733  L 807 764  L 539 764  L 539 733  Z " fill-rule="nonzero" fill="#ffffff" stroke="none" fill-opacity="0" />
    <path d="M 537.5 731.5  L 808.5 731.5  L 808.5 765.5  L 537.5 765.5  L 537.5 731.5  Z " stroke-width="3" stroke-dasharray="9,3" stroke="#a30014" fill="none" stroke-opacity="0.807843137254902" stroke-dashoffset="0.5" />
  </g>
</svg>