﻿<?xml version="1.0" encoding="utf-8"?>
<svg version="1.1" xmlns:xlink="http://www.w3.org/1999/xlink" width="12px" height="12px" viewBox="12 56  12 12" xmlns="http://www.w3.org/2000/svg">
  <path d="M 18 56  C 21.36 56  24 58.64  24 62  C 24 65.36  21.36 68  18 68  C 14.64 68  12 65.36  12 62  C 12 58.64  14.64 56  18 56  Z " fill-rule="nonzero" fill="#f0f0f0" stroke="none" />
  <path d="M 18 56.5  C 21.08 56.5  23.5 58.92  23.5 62  C 23.5 65.08  21.08 67.5  18 67.5  C 14.92 67.5  12.5 65.08  12.5 62  C 12.5 58.92  14.92 56.5  18 56.5  Z " stroke-width="1" stroke="#797979" fill="none" />
</svg>