﻿<?xml version="1.0" encoding="utf-8"?>
<svg version="1.1" xmlns:xlink="http://www.w3.org/1999/xlink" width="12px" height="12px" viewBox="12 86  12 12" xmlns="http://www.w3.org/2000/svg">
  <path d="M 18 86  C 21.36 86  24 88.64  24 92  C 24 95.36  21.36 98  18 98  C 14.64 98  12 95.36  12 92  C 12 88.64  14.64 86  18 86  Z " fill-rule="nonzero" fill="#ffffff" stroke="none" />
  <path d="M 18 86.5  C 21.08 86.5  23.5 88.92  23.5 92  C 23.5 95.08  21.08 97.5  18 97.5  C 14.92 97.5  12.5 95.08  12.5 92  C 12.5 88.92  14.92 86.5  18 86.5  Z " stroke-width="1" stroke="#797979" fill="none" />
</svg>