﻿<?xml version="1.0" encoding="utf-8"?>
<svg version="1.1" xmlns:xlink="http://www.w3.org/1999/xlink" width="12px" height="12px" viewBox="180 1036  12 12" xmlns="http://www.w3.org/2000/svg">
  <path d="M 186 1036  C 189.36 1036  192 1038.64  192 1042  C 192 1045.36  189.36 1048  186 1048  C 182.64 1048  180 1045.36  180 1042  C 180 1038.64  182.64 1036  186 1036  Z " fill-rule="nonzero" fill="#ffffff" stroke="none" />
  <path d="M 186 1036.5  C 189.08 1036.5  191.5 1038.92  191.5 1042  C 191.5 1045.08  189.08 1047.5  186 1047.5  C 182.92 1047.5  180.5 1045.08  180.5 1042  C 180.5 1038.92  182.92 1036.5  186 1036.5  Z " stroke-width="1" stroke="#797979" fill="none" />
  <path d="M 186 1045  C 184.32 1045  183 1043.68  183 1042  C 183 1040.32  184.32 1039  186 1039  C 187.68 1039  189 1040.32  189 1042  C 189 1043.68  187.68 1045  186 1045  " fill-rule="nonzero" fill="#797979" stroke="none" />
</svg>