﻿<?xml version="1.0" encoding="utf-8"?>
<svg version="1.1" xmlns:xlink="http://www.w3.org/1999/xlink" width="12px" height="12px" viewBox="43 918  12 12" xmlns="http://www.w3.org/2000/svg">
  <path d="M 49 918  C 52.36 918  55 920.64  55 924  C 55 927.36  52.36 930  49 930  C 45.64 930  43 927.36  43 924  C 43 920.64  45.64 918  49 918  Z " fill-rule="nonzero" fill="#ffffff" stroke="none" />
  <path d="M 49 918.5  C 52.08 918.5  54.5 920.92  54.5 924  C 54.5 927.08  52.08 929.5  49 929.5  C 45.92 929.5  43.5 927.08  43.5 924  C 43.5 920.92  45.92 918.5  49 918.5  Z " stroke-width="1" stroke="#797979" fill="none" />
</svg>