﻿<?xml version="1.0" encoding="utf-8"?>
<svg version="1.1" xmlns:xlink="http://www.w3.org/1999/xlink" width="12px" height="12px" viewBox="290 171  12 12" xmlns="http://www.w3.org/2000/svg">
  <path d="M 296 171  C 299.36 171  302 173.64  302 177  C 302 180.36  299.36 183  296 183  C 292.64 183  290 180.36  290 177  C 290 173.64  292.64 171  296 171  Z " fill-rule="nonzero" fill="#f0f0f0" stroke="none" />
  <path d="M 296 171.5  C 299.08 171.5  301.5 173.92  301.5 177  C 301.5 180.08  299.08 182.5  296 182.5  C 292.92 182.5  290.5 180.08  290.5 177  C 290.5 173.92  292.92 171.5  296 171.5  Z " stroke-width="1" stroke="#797979" fill="none" />
  <path d="M 296 180  C 294.32 180  293 178.68  293 177  C 293 175.32  294.32 174  296 174  C 297.68 174  299 175.32  299 177  C 299 178.68  297.68 180  296 180  " fill-rule="nonzero" fill="#797979" stroke="none" />
</svg>