﻿<?xml version="1.0" encoding="utf-8"?>
<svg version="1.1" xmlns:xlink="http://www.w3.org/1999/xlink" width="12px" height="12px" viewBox="290 210  12 12" xmlns="http://www.w3.org/2000/svg">
  <path d="M 296 210  C 299.36 210  302 212.64  302 216  C 302 219.36  299.36 222  296 222  C 292.64 222  290 219.36  290 216  C 290 212.64  292.64 210  296 210  Z " fill-rule="nonzero" fill="#f0f0f0" stroke="none" />
  <path d="M 296 210.5  C 299.08 210.5  301.5 212.92  301.5 216  C 301.5 219.08  299.08 221.5  296 221.5  C 292.92 221.5  290.5 219.08  290.5 216  C 290.5 212.92  292.92 210.5  296 210.5  Z " stroke-width="1" stroke="#797979" fill="none" />
  <path d="M 296 219  C 294.32 219  293 217.68  293 216  C 293 214.32  294.32 213  296 213  C 297.68 213  299 214.32  299 216  C 299 217.68  297.68 219  296 219  " fill-rule="nonzero" fill="#797979" stroke="none" />
</svg>