﻿<?xml version="1.0" encoding="utf-8"?>
<svg version="1.1" xmlns:xlink="http://www.w3.org/1999/xlink" width="32px" height="22px" xmlns="http://www.w3.org/2000/svg">
  <defs>
    <filter x="727px" y="267px" width="32px" height="22px" filterUnits="userSpaceOnUse" id="filter75">
      <feOffset dx="5" dy="5" in="SourceAlpha" result="shadowOffsetInner" />
      <feGaussianBlur stdDeviation="2.5" in="shadowOffsetInner" result="shadowGaussian" />
      <feComposite in2="shadowGaussian" operator="atop" in="SourceAlpha" result="shadowComposite" />
      <feColorMatrix type="matrix" values="0 0 0 0 0  0 0 0 0 0  0 0 0 0 0  0 0 0 0.349019607843137 0  " in="shadowComposite" />
    </filter>
    <g id="widget76">
      <path d="M 727 279  L 738 267  L 749 279  L 727 279  Z " fill-rule="nonzero" fill="#000000" stroke="none" />
    </g>
  </defs>
  <g transform="matrix(1 0 0 1 -727 -267 )">
    <use xlink:href="#widget76" filter="url(#filter75)" />
    <use xlink:href="#widget76" />
  </g>
</svg>