﻿<?xml version="1.0" encoding="utf-8"?>
<svg version="1.1" xmlns:xlink="http://www.w3.org/1999/xlink" width="12px" height="12px" viewBox="18 282  12 12" xmlns="http://www.w3.org/2000/svg">
  <path d="M 24 282  C 27.36 282  30 284.64  30 288  C 30 291.36  27.36 294  24 294  C 20.64 294  18 291.36  18 288  C 18 284.64  20.64 282  24 282  Z " fill-rule="nonzero" fill="#ffffff" stroke="none" />
  <path d="M 24 282.5  C 27.08 282.5  29.5 284.92  29.5 288  C 29.5 291.08  27.08 293.5  24 293.5  C 20.92 293.5  18.5 291.08  18.5 288  C 18.5 284.92  20.92 282.5  24 282.5  Z " stroke-width="1" stroke="#797979" fill="none" />
</svg>