﻿<?xml version="1.0" encoding="utf-8"?>
<svg version="1.1" xmlns:xlink="http://www.w3.org/1999/xlink" width="12px" height="12px" viewBox="18 253  12 12" xmlns="http://www.w3.org/2000/svg">
  <path d="M 24 253  C 27.36 253  30 255.64  30 259  C 30 262.36  27.36 265  24 265  C 20.64 265  18 262.36  18 259  C 18 255.64  20.64 253  24 253  Z " fill-rule="nonzero" fill="#ffffff" stroke="none" />
  <path d="M 24 253.5  C 27.08 253.5  29.5 255.92  29.5 259  C 29.5 262.08  27.08 264.5  24 264.5  C 20.92 264.5  18.5 262.08  18.5 259  C 18.5 255.92  20.92 253.5  24 253.5  Z " stroke-width="1" stroke="#797979" fill="none" />
</svg>