﻿<?xml version="1.0" encoding="utf-8"?>
<svg version="1.1" xmlns:xlink="http://www.w3.org/1999/xlink" width="12px" height="12px" viewBox="925 390  12 12" xmlns="http://www.w3.org/2000/svg">
  <path d="M 925.5 390.5  L 936.5 390.5  L 936.5 401.5  L 925.5 401.5  L 925.5 390.5  Z " fill-rule="nonzero" fill="#f0f0f0" stroke="none" />
  <path d="M 925.5 390.5  L 936.5 390.5  L 936.5 401.5  L 925.5 401.5  L 925.5 390.5  Z " stroke-width="1" stroke="#797979" fill="none" />
  <path d="M 927.571428571429 396  L 930.142857142857 398.571428571429  " stroke-width="2.57142857142857" stroke="#797979" fill="none" />
  <path d="M 930.142857142857 398.571428571429  L 934.428571428571 392.571428571429  " stroke-width="2.57142857142857" stroke="#797979" fill="none" />
</svg>