﻿<?xml version="1.0" encoding="utf-8"?>
<svg version="1.1" xmlns:xlink="http://www.w3.org/1999/xlink" width="12px" height="12px" viewBox="512 470  12 12" xmlns="http://www.w3.org/2000/svg">
  <path d="M 512.5 470.5  L 523.5 470.5  L 523.5 481.5  L 512.5 481.5  L 512.5 470.5  Z " fill-rule="nonzero" fill="#ffffff" stroke="none" />
  <path d="M 512.5 470.5  L 523.5 470.5  L 523.5 481.5  L 512.5 481.5  L 512.5 470.5  Z " stroke-width="1" stroke="#797979" fill="none" />
  <path d="M 514.571428571429 476  L 517.142857142857 478.571428571429  " stroke-width="2.57142857142857" stroke="#797979" fill="none" />
  <path d="M 517.142857142857 478.571428571429  L 521.428571428571 472.571428571429  " stroke-width="2.57142857142857" stroke="#797979" fill="none" />
</svg>