﻿<?xml version="1.0" encoding="utf-8"?>
<svg version="1.1" xmlns:xlink="http://www.w3.org/1999/xlink" width="12px" height="12px" viewBox="952 470  12 12" xmlns="http://www.w3.org/2000/svg">
  <path d="M 952.5 470.5  L 963.5 470.5  L 963.5 481.5  L 952.5 481.5  L 952.5 470.5  Z " fill-rule="nonzero" fill="#ffffff" stroke="none" />
  <path d="M 952.5 470.5  L 963.5 470.5  L 963.5 481.5  L 952.5 481.5  L 952.5 470.5  Z " stroke-width="1" stroke="#797979" fill="none" />
  <path d="M 954.571428571429 476  L 957.142857142857 478.571428571429  " stroke-width="2.57142857142857" stroke="#797979" fill="none" />
  <path d="M 957.142857142857 478.571428571429  L 961.428571428571 472.571428571429  " stroke-width="2.57142857142857" stroke="#797979" fill="none" />
</svg>