﻿<?xml version="1.0" encoding="utf-8"?>
<svg version="1.1" xmlns:xlink="http://www.w3.org/1999/xlink" width="380px" height="20px" xmlns="http://www.w3.org/2000/svg">
  <defs>
    <mask fill="white" id="clip183">
      <path d="M 0 20  L 0 0  L 36.2295081967213 0  L 55.9999999999999 0  L 380 0  L 380 20  L 0 20  Z " fill-rule="evenodd" />
    </mask>
  </defs>
  <g transform="matrix(1 0 0 1 -35 -470 )">
    <path d="M 0 20  L 0 0  L 36.2295081967213 0  L 55.9999999999999 0  L 380 0  L 380 20  L 0 20  Z " fill-rule="nonzero" fill="#efeff4" stroke="none" transform="matrix(1 0 0 1 35 470 )" />
    <path d="M 0 20  L 0 0  L 36.2295081967213 0  L 55.9999999999999 0  L 380 0  L 380 20  L 0 20  Z " stroke-width="2" stroke="#ebebeb" fill="none" transform="matrix(1 0 0 1 35 470 )" mask="url(#clip183)" />
  </g>
</svg>