﻿<?xml version="1.0" encoding="utf-8"?>
<svg version="1.1" xmlns:xlink="http://www.w3.org/1999/xlink" width="12px" height="12px" viewBox="13 8  12 12" xmlns="http://www.w3.org/2000/svg">
  <path d="M 13.5 8.5  L 24.5 8.5  L 24.5 19.5  L 13.5 19.5  L 13.5 8.5  Z " fill-rule="nonzero" fill="#ffffff" stroke="none" />
  <path d="M 13.5 8.5  L 24.5 8.5  L 24.5 19.5  L 13.5 19.5  L 13.5 8.5  Z " stroke-width="1" stroke="#797979" fill="none" />
  <path d="M 15.5714285714286 14  L 18.1428571428571 16.5714285714286  L 22.4285714285714 10.5714285714286  " stroke-width="2.57142857142857" stroke="#797979" fill="none" />
</svg>