﻿<?xml version="1.0" encoding="utf-8"?>
<svg version="1.1" xmlns:xlink="http://www.w3.org/1999/xlink" width="12px" height="12px" viewBox="11 97  12 12" xmlns="http://www.w3.org/2000/svg">
  <path d="M 17 97  C 20.36 97  23 99.64  23 103  C 23 106.36  20.36 109  17 109  C 13.64 109  11 106.36  11 103  C 11 99.64  13.64 97  17 97  Z " fill-rule="nonzero" fill="#f0f0f0" stroke="none" />
  <path d="M 17 97.5  C 20.08 97.5  22.5 99.92  22.5 103  C 22.5 106.08  20.08 108.5  17 108.5  C 13.92 108.5  11.5 106.08  11.5 103  C 11.5 99.92  13.92 97.5  17 97.5  Z " stroke-width="1" stroke="#797979" fill="none" />
  <path d="M 17 106  C 15.32 106  14 104.68  14 103  C 14 101.32  15.32 100  17 100  C 18.68 100  20 101.32  20 103  C 20 104.68  18.68 106  17 106  " fill-rule="nonzero" fill="#797979" stroke="none" />
</svg>