﻿<?xml version="1.0" encoding="utf-8"?>
<svg version="1.1" xmlns:xlink="http://www.w3.org/1999/xlink" width="12px" height="12px" viewBox="859 154.5  12 12" xmlns="http://www.w3.org/2000/svg">
  <path d="M 859.5 155  L 870.5 155  L 870.5 166  L 859.5 166  L 859.5 155  Z " fill-rule="nonzero" fill="#ffffff" stroke="none" />
  <path d="M 859.5 155  L 870.5 155  L 870.5 166  L 859.5 166  L 859.5 155  Z " stroke-width="1" stroke="#797979" fill="none" />
  <path d="M 861.571428571429 160.5  L 864.142857142857 163.071428571429  L 868.428571428571 157.071428571429  " stroke-width="2.57142857142857" stroke="#797979" fill="none" />
</svg>