﻿<?xml version="1.0" encoding="utf-8"?>
<svg version="1.1" xmlns:xlink="http://www.w3.org/1999/xlink" width="320px" height="572px" xmlns="http://www.w3.org/2000/svg">
  <g transform="matrix(1 0 0 1 -36 -74 )">
    <path d="M 37 75  L 355 75  L 355 645  L 37 645  L 37 75  Z " fill-rule="nonzero" fill="#333333" stroke="none" fill-opacity="0.4" />
  </g>
</svg>