﻿<?xml version="1.0" encoding="utf-8"?>
<svg version="1.1" xmlns:xlink="http://www.w3.org/1999/xlink" width="96px" height="6px" preserveAspectRatio="xMinYMid meet" viewBox="982 371  96 4" xmlns="http://www.w3.org/2000/svg">
  <path d="M 990.7 367.4  L 985 372.5  L 990.7 377.6  L 996.1 372.5  L 990.7 367.4  Z M 1070.3 377.6  L 1076 372.5  L 1070.3 367.4  L 1064.9 372.5  L 1070.3 377.6  Z " fill-rule="nonzero" fill="#ff0000" stroke="none" />
  <path d="M 988 372.5  L 1073 372.5  " stroke-width="3" stroke="#ff0000" fill="none" />
</svg>