﻿<?xml version="1.0" encoding="utf-8"?>
<svg version="1.1" xmlns:xlink="http://www.w3.org/1999/xlink" width="61.5px" height="31px" xmlns="http://www.w3.org/2000/svg">
  <g transform="matrix(1 0 0 1 -584.5 -152 )">
    <path d="M 621 179  L 633 167.5  L 621 156  L 621 179  Z " fill-rule="nonzero" fill="#d9001b" stroke="none" />
    <path d="M 587 167.5  L 624 167.5  " stroke-width="5" stroke="#d9001b" fill="none" />
  </g>
</svg>