﻿<?xml version="1.0" encoding="utf-8"?>
<svg version="1.1" xmlns:xlink="http://www.w3.org/1999/xlink" width="12px" height="12px" viewBox="23 320  12 12" xmlns="http://www.w3.org/2000/svg">
  <path d="M 29 320  C 32.36 320  35 322.64  35 326  C 35 329.36  32.36 332  29 332  C 25.64 332  23 329.36  23 326  C 23 322.64  25.64 320  29 320  Z " fill-rule="nonzero" fill="#f0f0f0" stroke="none" />
  <path d="M 29 320.5  C 32.08 320.5  34.5 322.92  34.5 326  C 34.5 329.08  32.08 331.5  29 331.5  C 25.92 331.5  23.5 329.08  23.5 326  C 23.5 322.92  25.92 320.5  29 320.5  Z " stroke-width="1" stroke="#797979" fill="none" />
</svg>