﻿<?xml version="1.0" encoding="utf-8"?>
<svg version="1.1" xmlns:xlink="http://www.w3.org/1999/xlink" width="12px" height="12px" viewBox="23 350  12 12" xmlns="http://www.w3.org/2000/svg">
  <path d="M 29 350  C 32.36 350  35 352.64  35 356  C 35 359.36  32.36 362  29 362  C 25.64 362  23 359.36  23 356  C 23 352.64  25.64 350  29 350  Z " fill-rule="nonzero" fill="#ffffff" stroke="none" />
  <path d="M 29 350.5  C 32.08 350.5  34.5 352.92  34.5 356  C 34.5 359.08  32.08 361.5  29 361.5  C 25.92 361.5  23.5 359.08  23.5 356  C 23.5 352.92  25.92 350.5  29 350.5  Z " stroke-width="1" stroke="#797979" fill="none" />
</svg>