﻿<?xml version="1.0" encoding="utf-8"?>
<svg version="1.1" xmlns:xlink="http://www.w3.org/1999/xlink" width="102px" height="24px" xmlns="http://www.w3.org/2000/svg">
  <defs>
    <filter x="856px" y="610px" width="102px" height="24px" filterUnits="userSpaceOnUse" id="filter192">
      <feOffset dx="0" dy="0" in="SourceAlpha" result="shadowOffsetInner" />
      <feGaussianBlur stdDeviation="2.5" in="shadowOffsetInner" result="shadowGaussian" />
      <feComposite in2="shadowGaussian" operator="atop" in="SourceAlpha" result="shadowComposite" />
      <feColorMatrix type="matrix" values="0 0 0 0 0  0 0 0 0 0  0 0 0 0 0  0 0 0 0.349019607843137 0  " in="shadowComposite" />
    </filter>
    <g id="widget193">
      <path d="M 861 615  L 953 615  L 953 629  L 861 629  L 861 615  Z " fill-rule="nonzero" fill="#ffffff" stroke="none" fill-opacity="0" />
    </g>
  </defs>
  <g transform="matrix(1 0 0 1 -856 -610 )">
    <use xlink:href="#widget193" filter="url(#filter192)" />
    <use xlink:href="#widget193" />
  </g>
</svg>