﻿<?xml version="1.0" encoding="utf-8"?>
<svg version="1.1" xmlns:xlink="http://www.w3.org/1999/xlink" width="12px" height="12px" viewBox="10 97  12 12" xmlns="http://www.w3.org/2000/svg">
  <path d="M 16 97  C 19.36 97  22 99.64  22 103  C 22 106.36  19.36 109  16 109  C 12.64 109  10 106.36  10 103  C 10 99.64  12.64 97  16 97  Z " fill-rule="nonzero" fill="#f0f0f0" stroke="none" />
  <path d="M 16 97.5  C 19.08 97.5  21.5 99.92  21.5 103  C 21.5 106.08  19.08 108.5  16 108.5  C 12.92 108.5  10.5 106.08  10.5 103  C 10.5 99.92  12.92 97.5  16 97.5  Z " stroke-width="1" stroke="#797979" fill="none" />
</svg>