﻿<?xml version="1.0" encoding="utf-8"?>
<svg version="1.1" xmlns:xlink="http://www.w3.org/1999/xlink" width="12px" height="12px" viewBox="10 67  12 12" xmlns="http://www.w3.org/2000/svg">
  <path d="M 16 67  C 19.36 67  22 69.64  22 73  C 22 76.36  19.36 79  16 79  C 12.64 79  10 76.36  10 73  C 10 69.64  12.64 67  16 67  Z " fill-rule="nonzero" fill="#ffffff" stroke="none" />
  <path d="M 16 67.5  C 19.08 67.5  21.5 69.92  21.5 73  C 21.5 76.08  19.08 78.5  16 78.5  C 12.92 78.5  10.5 76.08  10.5 73  C 10.5 69.92  12.92 67.5  16 67.5  Z " stroke-width="1" stroke="#797979" fill="none" />
</svg>