﻿<?xml version="1.0" encoding="utf-8"?>
<svg version="1.1" xmlns:xlink="http://www.w3.org/1999/xlink" width="5px" height="5px" xmlns="http://www.w3.org/2000/svg">
  <g transform="matrix(1 0 0 1 -50 -104 )">
    <path d="M 52.5 104  C 53.9 104  55 105.1  55 106.5  C 55 107.9  53.9 109  52.5 109  C 51.1 109  50 107.9  50 106.5  C 50 105.1  51.1 104  52.5 104  Z " fill-rule="nonzero" fill="#333333" stroke="none" />
  </g>
</svg>