﻿<?xml version="1.0" encoding="utf-8"?>
<svg version="1.1" xmlns:xlink="http://www.w3.org/1999/xlink" width="60px" height="60px" xmlns="http://www.w3.org/2000/svg">
  <g transform="matrix(1 0 0 1 -198 -783 )">
    <path d="M 228 783  C 244.8 783  258 796.2  258 813  C 258 829.8  244.8 843  228 843  C 211.2 843  198 829.8  198 813  C 198 796.2  211.2 783  228 783  Z " fill-rule="nonzero" fill="#ffffff" stroke="none" />
    <path d="M 228 783.5  C 244.52 783.5  257.5 796.48  257.5 813  C 257.5 829.52  244.52 842.5  228 842.5  C 211.48 842.5  198.5 829.52  198.5 813  C 198.5 796.48  211.48 783.5  228 783.5  Z " stroke-width="1" stroke="#d7d7d7" fill="none" />
  </g>
</svg>