﻿<?xml version="1.0" encoding="utf-8"?>
<svg version="1.1" xmlns:xlink="http://www.w3.org/1999/xlink" width="5px" height="5px" xmlns="http://www.w3.org/2000/svg">
  <g transform="matrix(1 0 0 1 -71 -104 )">
    <path d="M 73.5 104  C 74.9 104  76 105.1  76 106.5  C 76 107.9  74.9 109  73.5 109  C 72.1 109  71 107.9  71 106.5  C 71 105.1  72.1 104  73.5 104  Z " fill-rule="nonzero" fill="#ffffff" stroke="none" fill-opacity="0" />
    <path d="M 73.5 104.5  C 74.62 104.5  75.5 105.38  75.5 106.5  C 75.5 107.62  74.62 108.5  73.5 108.5  C 72.38 108.5  71.5 107.62  71.5 106.5  C 71.5 105.38  72.38 104.5  73.5 104.5  Z " stroke-width="1" stroke="#333333" fill="none" />
  </g>
</svg>