﻿<?xml version="1.0" encoding="utf-8"?>
<svg version="1.1" xmlns:xlink="http://www.w3.org/1999/xlink" width="12px" height="12px" viewBox="16 402  12 12" xmlns="http://www.w3.org/2000/svg">
  <path d="M 22 402  C 25.36 402  28 404.64  28 408  C 28 411.36  25.36 414  22 414  C 18.64 414  16 411.36  16 408  C 16 404.64  18.64 402  22 402  Z " fill-rule="nonzero" fill="#ffffff" stroke="none" />
  <path d="M 22 402.5  C 25.08 402.5  27.5 404.92  27.5 408  C 27.5 411.08  25.08 413.5  22 413.5  C 18.92 413.5  16.5 411.08  16.5 408  C 16.5 404.92  18.92 402.5  22 402.5  Z " stroke-width="1" stroke="#797979" fill="none" />
</svg>