﻿<?xml version="1.0" encoding="utf-8"?>
<svg version="1.1" xmlns:xlink="http://www.w3.org/1999/xlink" width="28px" height="26px" preserveAspectRatio="xMinYMid meet" viewBox="1016 361  28 24" xmlns="http://www.w3.org/2000/svg">
  <path d="M 1033.7 368.4  L 1028 373.5  L 1033.7 378.6  L 1039.1 373.5  L 1033.7 368.4  Z M 1117.3 378.6  L 1123 373.5  L 1117.3 368.4  L 1111.9 373.5  L 1117.3 378.6  Z " fill-rule="nonzero" fill="#ff0000" stroke="none" />
  <path d="M 1031 373.5  L 1120 373.5  " stroke-width="3" stroke="#ff0000" fill="none" />
</svg>