﻿<?xml version="1.0" encoding="utf-8"?>
<svg version="1.1" xmlns:xlink="http://www.w3.org/1999/xlink" width="12px" height="12px" viewBox="276 406.5  12 12" xmlns="http://www.w3.org/2000/svg">
  <path d="M 282 406.5  C 285.36 406.5  288 409.14  288 412.5  C 288 415.86  285.36 418.5  282 418.5  C 278.64 418.5  276 415.86  276 412.5  C 276 409.14  278.64 406.5  282 406.5  Z " fill-rule="nonzero" fill="#ffffff" stroke="none" />
  <path d="M 282 407  C 285.08 407  287.5 409.42  287.5 412.5  C 287.5 415.58  285.08 418  282 418  C 278.92 418  276.5 415.58  276.5 412.5  C 276.5 409.42  278.92 407  282 407  Z " stroke-width="1" stroke="#797979" fill="none" />
</svg>