﻿<?xml version="1.0" encoding="utf-8"?>
<svg version="1.1" xmlns:xlink="http://www.w3.org/1999/xlink" width="12px" height="12px" viewBox="217 406.5  12 12" xmlns="http://www.w3.org/2000/svg">
  <path d="M 223 406.5  C 226.36 406.5  229 409.14  229 412.5  C 229 415.86  226.36 418.5  223 418.5  C 219.64 418.5  217 415.86  217 412.5  C 217 409.14  219.64 406.5  223 406.5  Z " fill-rule="nonzero" fill="#ffffff" stroke="none" />
  <path d="M 223 407  C 226.08 407  228.5 409.42  228.5 412.5  C 228.5 415.58  226.08 418  223 418  C 219.92 418  217.5 415.58  217.5 412.5  C 217.5 409.42  219.92 407  223 407  Z " stroke-width="1" stroke="#797979" fill="none" />
</svg>