﻿<?xml version="1.0" encoding="utf-8"?>
<svg version="1.1" xmlns:xlink="http://www.w3.org/1999/xlink" width="82px" height="4px" preserveAspectRatio="xMinYMid meet" viewBox="1252 265  82 2" xmlns="http://www.w3.org/2000/svg">
  <path d="M 1318 275.5  L 1332 266  L 1318 256.5  L 1318 275.5  Z M 1320 271.9  L 1320 260.1  L 1328.9 266  L 1320 271.9  Z " fill-rule="nonzero" fill="#d9001b" stroke="none" />
  <path d="M 1255 266  L 1320 266  " stroke-width="2" stroke="#d9001b" fill="none" />
</svg>