﻿<?xml version="1.0" encoding="utf-8"?>
<svg version="1.1" xmlns:xlink="http://www.w3.org/1999/xlink" width="12px" height="12px" viewBox="10 36  12 12" xmlns="http://www.w3.org/2000/svg">
  <path d="M 16 36  C 19.36 36  22 38.64  22 42  C 22 45.36  19.36 48  16 48  C 12.64 48  10 45.36  10 42  C 10 38.64  12.64 36  16 36  Z " fill-rule="nonzero" fill="#f0f0f0" stroke="none" />
  <path d="M 16 36.5  C 19.08 36.5  21.5 38.92  21.5 42  C 21.5 45.08  19.08 47.5  16 47.5  C 12.92 47.5  10.5 45.08  10.5 42  C 10.5 38.92  12.92 36.5  16 36.5  Z " stroke-width="1" stroke="#797979" fill="none" />
</svg>