﻿<?xml version="1.0" encoding="utf-8"?>
<svg version="1.1" xmlns:xlink="http://www.w3.org/1999/xlink" width="12px" height="12px" viewBox="10 128  12 12" xmlns="http://www.w3.org/2000/svg">
  <path d="M 16 128  C 19.36 128  22 130.64  22 134  C 22 137.36  19.36 140  16 140  C 12.64 140  10 137.36  10 134  C 10 130.64  12.64 128  16 128  Z " fill-rule="nonzero" fill="#ffffff" stroke="none" />
  <path d="M 16 128.5  C 19.08 128.5  21.5 130.92  21.5 134  C 21.5 137.08  19.08 139.5  16 139.5  C 12.92 139.5  10.5 137.08  10.5 134  C 10.5 130.92  12.92 128.5  16 128.5  Z " stroke-width="1" stroke="#797979" fill="none" />
  <path d="M 16 137  C 14.32 137  13 135.68  13 134  C 13 132.32  14.32 131  16 131  C 17.68 131  19 132.32  19 134  C 19 135.68  17.68 137  16 137  " fill-rule="nonzero" fill="#797979" stroke="none" />
</svg>