﻿<?xml version="1.0" encoding="utf-8"?>
<svg version="1.1" xmlns:xlink="http://www.w3.org/1999/xlink" width="28px" height="26px" preserveAspectRatio="xMinYMid meet" viewBox="1006 263  28 24" xmlns="http://www.w3.org/2000/svg">
  <path d="M 1023.7 269.4  L 1018 274.5  L 1023.7 279.6  L 1029.1 274.5  L 1023.7 269.4  Z M 1107.3 279.6  L 1113 274.5  L 1107.3 269.4  L 1101.9 274.5  L 1107.3 279.6  Z " fill-rule="nonzero" fill="#ff0000" stroke="none" />
  <path d="M 1021 274.5  L 1110 274.5  " stroke-width="3" stroke="#ff0000" fill="none" />
</svg>