﻿<?xml version="1.0" encoding="utf-8"?>
<svg version="1.1" xmlns:xlink="http://www.w3.org/1999/xlink" width="12px" height="12px" viewBox="102 780  12 12" xmlns="http://www.w3.org/2000/svg">
  <path d="M 108 780  C 111.36 780  114 782.64  114 786  C 114 789.36  111.36 792  108 792  C 104.64 792  102 789.36  102 786  C 102 782.64  104.64 780  108 780  Z " fill-rule="nonzero" fill="#ffffff" stroke="none" />
  <path d="M 108 780.5  C 111.08 780.5  113.5 782.92  113.5 786  C 113.5 789.08  111.08 791.5  108 791.5  C 104.92 791.5  102.5 789.08  102.5 786  C 102.5 782.92  104.92 780.5  108 780.5  Z " stroke-width="1" stroke="#797979" fill="none" />
</svg>