﻿<?xml version="1.0" encoding="utf-8"?>
<svg version="1.1" xmlns:xlink="http://www.w3.org/1999/xlink" width="12px" height="12px" viewBox="148 780  12 12" xmlns="http://www.w3.org/2000/svg">
  <path d="M 154 780  C 157.36 780  160 782.64  160 786  C 160 789.36  157.36 792  154 792  C 150.64 792  148 789.36  148 786  C 148 782.64  150.64 780  154 780  Z " fill-rule="nonzero" fill="#ffffff" stroke="none" />
  <path d="M 154 780.5  C 157.08 780.5  159.5 782.92  159.5 786  C 159.5 789.08  157.08 791.5  154 791.5  C 150.92 791.5  148.5 789.08  148.5 786  C 148.5 782.92  150.92 780.5  154 780.5  Z " stroke-width="1" stroke="#797979" fill="none" />
</svg>