﻿<?xml version="1.0" encoding="utf-8"?>
<svg version="1.1" xmlns:xlink="http://www.w3.org/1999/xlink" width="164px" height="38px" xmlns="http://www.w3.org/2000/svg">
  <defs>
    <filter x="76px" y="106px" width="164px" height="38px" filterUnits="userSpaceOnUse" id="filter348">
      <feOffset dx="0" dy="0" in="SourceAlpha" result="shadowOffsetInner" />
      <feGaussianBlur stdDeviation="2.5" in="shadowOffsetInner" result="shadowGaussian" />
      <feComposite in2="shadowGaussian" operator="atop" in="SourceAlpha" result="shadowComposite" />
      <feColorMatrix type="matrix" values="0 0 0 0 0  0 0 0 0 0  0 0 0 0 0  0 0 0 0.349019607843137 0  " in="shadowComposite" />
    </filter>
    <g id="widget349">
      <path d="M 81 111  L 235 111  L 235 139  L 81 139  L 81 111  Z " fill-rule="nonzero" fill="#ffffff" stroke="none" fill-opacity="0" />
    </g>
  </defs>
  <g transform="matrix(1 0 0 1 -76 -106 )">
    <use xlink:href="#widget349" filter="url(#filter348)" />
    <use xlink:href="#widget349" />
  </g>
</svg>