﻿<?xml version="1.0" encoding="utf-8"?>
<svg version="1.1" xmlns:xlink="http://www.w3.org/1999/xlink" width="12px" height="12px" viewBox="13 157  12 12" xmlns="http://www.w3.org/2000/svg">
  <path d="M 19 157  C 22.36 157  25 159.64  25 163  C 25 166.36  22.36 169  19 169  C 15.64 169  13 166.36  13 163  C 13 159.64  15.64 157  19 157  Z " fill-rule="nonzero" fill="#f0f0f0" stroke="none" />
  <path d="M 19 157.5  C 22.08 157.5  24.5 159.92  24.5 163  C 24.5 166.08  22.08 168.5  19 168.5  C 15.92 168.5  13.5 166.08  13.5 163  C 13.5 159.92  15.92 157.5  19 157.5  Z " stroke-width="1" stroke="#797979" fill="none" />
</svg>