﻿<?xml version="1.0" encoding="utf-8"?>
<svg version="1.1" xmlns:xlink="http://www.w3.org/1999/xlink" width="12px" height="12px" viewBox="656 265  12 12" xmlns="http://www.w3.org/2000/svg">
  <path d="M 662 265  C 665.36 265  668 267.64  668 271  C 668 274.36  665.36 277  662 277  C 658.64 277  656 274.36  656 271  C 656 267.64  658.64 265  662 265  Z " fill-rule="nonzero" fill="#f0f0f0" stroke="none" />
  <path d="M 662 265.5  C 665.08 265.5  667.5 267.92  667.5 271  C 667.5 274.08  665.08 276.5  662 276.5  C 658.92 276.5  656.5 274.08  656.5 271  C 656.5 267.92  658.92 265.5  662 265.5  Z " stroke-width="1" stroke="#797979" fill="none" />
</svg>