﻿<?xml version="1.0" encoding="utf-8"?>
<svg version="1.1" xmlns:xlink="http://www.w3.org/1999/xlink" width="12px" height="12px" viewBox="474 234  12 12" xmlns="http://www.w3.org/2000/svg">
  <path d="M 480 234  C 483.36 234  486 236.64  486 240  C 486 243.36  483.36 246  480 246  C 476.64 246  474 243.36  474 240  C 474 236.64  476.64 234  480 234  Z " fill-rule="nonzero" fill="#f0f0f0" stroke="none" />
  <path d="M 480 234.5  C 483.08 234.5  485.5 236.92  485.5 240  C 485.5 243.08  483.08 245.5  480 245.5  C 476.92 245.5  474.5 243.08  474.5 240  C 474.5 236.92  476.92 234.5  480 234.5  Z " stroke-width="1" stroke="#797979" fill="none" />
</svg>