﻿<?xml version="1.0" encoding="utf-8"?>
<svg version="1.1" xmlns:xlink="http://www.w3.org/1999/xlink" width="12px" height="12px" viewBox="95 595  12 12" xmlns="http://www.w3.org/2000/svg">
  <path d="M 101 595  C 104.36 595  107 597.64  107 601  C 107 604.36  104.36 607  101 607  C 97.64 607  95 604.36  95 601  C 95 597.64  97.64 595  101 595  Z " fill-rule="nonzero" fill="#ffffff" stroke="none" />
  <path d="M 101 595.5  C 104.08 595.5  106.5 597.92  106.5 601  C 106.5 604.08  104.08 606.5  101 606.5  C 97.92 606.5  95.5 604.08  95.5 601  C 95.5 597.92  97.92 595.5  101 595.5  Z " stroke-width="1" stroke="#797979" fill="none" />
</svg>