﻿<?xml version="1.0" encoding="utf-8"?>
<svg version="1.1" xmlns:xlink="http://www.w3.org/1999/xlink" width="12px" height="12px" viewBox="565 265  12 12" xmlns="http://www.w3.org/2000/svg">
  <path d="M 571 265  C 574.36 265  577 267.64  577 271  C 577 274.36  574.36 277  571 277  C 567.64 277  565 274.36  565 271  C 565 267.64  567.64 265  571 265  Z " fill-rule="nonzero" fill="#ffffff" stroke="none" />
  <path d="M 571 265.5  C 574.08 265.5  576.5 267.92  576.5 271  C 576.5 274.08  574.08 276.5  571 276.5  C 567.92 276.5  565.5 274.08  565.5 271  C 565.5 267.92  567.92 265.5  571 265.5  Z " stroke-width="1" stroke="#797979" fill="none" />
  <path d="M 571 274  C 569.32 274  568 272.68  568 271  C 568 269.32  569.32 268  571 268  C 572.68 268  574 269.32  574 271  C 574 272.68  572.68 274  571 274  " fill-rule="nonzero" fill="#797979" stroke="none" />
</svg>