﻿<?xml version="1.0" encoding="utf-8"?>
<svg version="1.1" xmlns:xlink="http://www.w3.org/1999/xlink" width="12px" height="12px" viewBox="656 234  12 12" xmlns="http://www.w3.org/2000/svg">
  <path d="M 662 234  C 665.36 234  668 236.64  668 240  C 668 243.36  665.36 246  662 246  C 658.64 246  656 243.36  656 240  C 656 236.64  658.64 234  662 234  Z " fill-rule="nonzero" fill="#ffffff" stroke="none" />
  <path d="M 662 234.5  C 665.08 234.5  667.5 236.92  667.5 240  C 667.5 243.08  665.08 245.5  662 245.5  C 658.92 245.5  656.5 243.08  656.5 240  C 656.5 236.92  658.92 234.5  662 234.5  Z " stroke-width="1" stroke="#797979" fill="none" />
  <path d="M 662 243  C 660.32 243  659 241.68  659 240  C 659 238.32  660.32 237  662 237  C 663.68 237  665 238.32  665 240  C 665 241.68  663.68 243  662 243  " fill-rule="nonzero" fill="#797979" stroke="none" />
</svg>