﻿<?xml version="1.0" encoding="utf-8"?>
<svg version="1.1" xmlns:xlink="http://www.w3.org/1999/xlink" width="12px" height="12px" viewBox="9 38  12 12" xmlns="http://www.w3.org/2000/svg">
  <path d="M 15 38  C 18.36 38  21 40.64  21 44  C 21 47.36  18.36 50  15 50  C 11.64 50  9 47.36  9 44  C 9 40.64  11.64 38  15 38  Z " fill-rule="nonzero" fill="#ffffff" stroke="none" />
  <path d="M 15 38.5  C 18.08 38.5  20.5 40.92  20.5 44  C 20.5 47.08  18.08 49.5  15 49.5  C 11.92 49.5  9.5 47.08  9.5 44  C 9.5 40.92  11.92 38.5  15 38.5  Z " stroke-width="1" stroke="#797979" fill="none" />
  <path d="M 15 47  C 13.32 47  12 45.68  12 44  C 12 42.32  13.32 41  15 41  C 16.68 41  18 42.32  18 44  C 18 45.68  16.68 47  15 47  " fill-rule="nonzero" fill="#797979" stroke="none" />
</svg>