﻿<?xml version="1.0" encoding="utf-8"?>
<svg version="1.1" xmlns:xlink="http://www.w3.org/1999/xlink" width="15px" height="15px" viewBox="8 10  15 15" xmlns="http://www.w3.org/2000/svg">
  <path d="M 8.5 10.5  L 22.5 10.5  L 22.5 24.5  L 8.5 24.5  L 8.5 10.5  Z " fill-rule="nonzero" fill="#f0f0f0" stroke="none" />
  <path d="M 8.5 10.5  L 22.5 10.5  L 22.5 24.5  L 8.5 24.5  L 8.5 10.5  Z " stroke-width="1" stroke="#278ff8" fill="none" />
</svg>