﻿<?xml version="1.0" encoding="utf-8"?>
<svg version="1.1" xmlns:xlink="http://www.w3.org/1999/xlink" width="10px" height="641px" preserveAspectRatio="xMidYMin meet" viewBox="970 345  8 641" xmlns="http://www.w3.org/2000/svg">
  <defs>
    <mask fill="white" id="clip556">
      <path d="M 957.5 896  L 990.5 896  L 990.5 921  L 957.5 921  Z M 467 345  L 990.5 345  L 990.5 998  L 467 998  Z " fill-rule="evenodd" />
    </mask>
  </defs>
  <path d="M 974 345  L 974 976  A 5 5 0 0 1 969 981 L 486 981  " stroke-width="2" stroke="#999999" fill="none" mask="url(#clip556)" />
  <path d="M 493.4 973  L 484 981  L 493.4 989  L 489.8 981  L 493.4 973  Z " fill-rule="nonzero" fill="#999999" stroke="none" mask="url(#clip556)" />
</svg>