﻿<?xml version="1.0" encoding="utf-8"?>
<svg version="1.1" xmlns:xlink="http://www.w3.org/1999/xlink" width="251px" height="10px" preserveAspectRatio="xMinYMid meet" viewBox="484 715  251 8" xmlns="http://www.w3.org/2000/svg">
  <defs>
    <mask fill="white" id="clip552">
      <path d="M 713.5 642  L 746.5 642  L 746.5 667  L 713.5 667  Z M 467 345  L 746.5 345  L 746.5 736  L 467 736  Z " fill-rule="evenodd" />
    </mask>
  </defs>
  <path d="M 730 345  L 730 714  A 5 5 0 0 1 725 719 L 486 719  " stroke-width="2" stroke="#999999" fill="none" mask="url(#clip552)" />
  <path d="M 493.4 711  L 484 719  L 493.4 727  L 489.8 719  L 493.4 711  Z " fill-rule="nonzero" fill="#999999" stroke="none" mask="url(#clip552)" />
</svg>