﻿<?xml version="1.0" encoding="utf-8"?>
<svg version="1.1" xmlns:xlink="http://www.w3.org/1999/xlink" width="34px" height="34px" preserveAspectRatio="xMinYMid meet" viewBox="417 1093  34 32" xmlns="http://www.w3.org/2000/svg">
  <path d="M 434 1011  L 434 1109  " stroke-width="2" stroke="#999999" fill="none" />
  <path d="M 426 1101.6  L 434 1111  L 442 1101.6  L 434 1105.2  L 426 1101.6  Z " fill-rule="nonzero" fill="#999999" stroke="none" />
</svg>