﻿<?xml version="1.0" encoding="utf-8"?>
<svg version="1.1" xmlns:xlink="http://www.w3.org/1999/xlink" width="20px" height="20px" preserveAspectRatio="xMinYMid meet" viewBox="450 359  20 18" xmlns="http://www.w3.org/2000/svg">
  <path d="M 186 368  L 460 368  " stroke-width="2" stroke="#035df3" fill="none" />
  <path d="M 454.892893218813 363.707106781187  L 459.185786437627 368  L 454.892893218813 372.292893218813  L 456.307106781187 373.707106781187  L 461.307106781187 368.707106781187  L 462.014213562373 368  L 461.307106781187 367.292893218813  L 456.307106781187 362.292893218813  L 454.892893218813 363.707106781187  Z " fill-rule="nonzero" fill="#035df3" stroke="none" />
</svg>