﻿<?xml version="1.0" encoding="utf-8"?>
<svg version="1.1" xmlns:xlink="http://www.w3.org/1999/xlink" width="12px" height="12px" viewBox="20 277  12 12" xmlns="http://www.w3.org/2000/svg">
  <path d="M 20.5 277.5  L 31.5 277.5  L 31.5 288.5  L 20.5 288.5  L 20.5 277.5  Z " fill-rule="nonzero" fill="#ffffff" stroke="none" />
  <path d="M 20.5 277.5  L 31.5 277.5  L 31.5 288.5  L 20.5 288.5  L 20.5 277.5  Z " stroke-width="1" stroke="#797979" fill="none" />
  <path d="M 22.5714285714286 283  L 25.1428571428571 285.571428571429  " stroke-width="2.57142857142857" stroke="#797979" fill="none" />
  <path d="M 25.1428571428571 285.571428571429  L 29.4285714285714 279.571428571429  " stroke-width="2.57142857142857" stroke="#797979" fill="none" />
</svg>