﻿<?xml version="1.0" encoding="utf-8"?>
<svg version="1.1" xmlns:xlink="http://www.w3.org/1999/xlink" width="262px" height="184px" xmlns="http://www.w3.org/2000/svg">
  <g transform="matrix(1 0 0 1 -45 -381 )">
    <path d="M 64.5821917808219 564.437436246175  C 64.5821917808219 564.437436246175  64.5821917808219 548.138306798765  64.5821917808219 548.138306798765  C 64.5821917808219 548.138306798765  45.881461809137 533.346116093574  45.881461809137 533.346116093574  C 45.881461809137 533.346116093574  64.5821917808219 516.320584388066  64.5821917808219 516.320584388066  C 64.5821917808219 516.320584388066  64.5821917808219 381.5  64.5821917808219 381.5  C 64.5821917808219 381.5  306.5 381.5  306.5 381.5  C 306.5 381.5  306.5 564.437436246175  306.5 564.437436246175  C 306.5 564.437436246175  64.5821917808219 564.437436246175  64.5821917808219 564.437436246175  Z " fill-rule="nonzero" fill="#ffffff" stroke="none" />
    <path d="M 64.0821917808219 564.937436246175  C 64.0821917808219 564.937436246175  64.0821917808219 548.38031865908  64.0821917808219 548.38031865908  C 64.0821917808219 548.38031865908  45.1093476842793 533.372886942732  45.1093476842793 533.372886942732  C 45.1093476842793 533.372886942732  64.0821917808219 516.099616904694  64.0821917808219 516.099616904694  C 64.0821917808219 516.099616904694  64.0821917808219 381  64.0821917808219 381  C 64.0821917808219 381  307 381  307 381  C 307 381  307 564.937436246175  307 564.937436246175  C 307 564.937436246175  64.0821917808219 564.937436246175  64.0821917808219 564.937436246175  Z M 65.0821917808219 563.937436246175  C 65.0821917808219 563.937436246175  306 563.937436246175  306 563.937436246175  C 306 563.937436246175  306 382  306 382  C 306 382  65.0821917808219 382  65.0821917808219 382  C 65.0821917808219 382  65.0821917808219 516.541551871438  65.0821917808219 516.541551871438  C 65.0821917808219 516.541551871438  46.6535759339948 533.319345244415  46.6535759339948 533.319345244415  C 46.6535759339948 533.319345244415  65.0821917808219 547.89629493845  65.0821917808219 547.89629493845  C 65.0821917808219 547.89629493845  65.0821917808219 563.937436246175  65.0821917808219 563.937436246175  Z " fill-rule="nonzero" fill="#d7d7d7" stroke="none" />
  </g>
</svg>