﻿<?xml version="1.0" encoding="utf-8"?>
<svg version="1.1" xmlns:xlink="http://www.w3.org/1999/xlink" width="263px" height="211px" xmlns="http://www.w3.org/2000/svg">
  <g transform="matrix(1 0 0 1 -44 -575 )">
    <path d="M 64.5821917808219 785.428255695342  C 64.5821917808219 785.428255695342  64.5821917808219 766.526036338184  64.5821917808219 766.526036338184  C 64.5821917808219 766.526036338184  45.4390285754708 755.1203574229  45.4390285754708 755.1203574229  C 45.4390285754708 755.1203574229  64.5821917808219 742.086092463162  64.5821917808219 742.086092463162  C 64.5821917808219 742.086092463162  64.5821917808219 575.5  64.5821917808219 575.5  C 64.5821917808219 575.5  306.5 575.5  306.5 575.5  C 306.5 575.5  306.5 785.428255695342  306.5 785.428255695342  C 306.5 785.428255695342  64.5821917808219 785.428255695342  64.5821917808219 785.428255695342  Z " fill-rule="nonzero" fill="#ffffff" stroke="none" />
    <path d="M 64.0821917808219 785.928255695342  C 64.0821917808219 785.928255695342  64.0821917808219 766.810151548217  64.0821917808219 766.810151548217  C 64.0821917808219 766.810151548217  44.5093476842792 755.148464666621  44.5093476842792 755.148464666621  C 44.5093476842792 755.148464666621  64.0821917808219 741.821637055463  64.0821917808219 741.821637055463  C 64.0821917808219 741.821637055463  64.0821917808219 575  64.0821917808219 575  C 64.0821917808219 575  307 575  307 575  C 307 575  307 785.928255695342  307 785.928255695342  C 307 785.928255695342  64.0821917808219 785.928255695342  64.0821917808219 785.928255695342  Z M 65.0821917808219 784.928255695342  C 65.0821917808219 784.928255695342  306 784.928255695342  306 784.928255695342  C 306 784.928255695342  306 576  306 576  C 306 576  65.0821917808219 576  65.0821917808219 576  C 65.0821917808219 576  65.0821917808219 742.350547870861  65.0821917808219 742.350547870861  C 65.0821917808219 742.350547870861  46.3687094666623 755.092250179178  46.3687094666623 755.092250179178  C 46.3687094666623 755.092250179178  65.0821917808219 766.241921128152  65.0821917808219 766.241921128152  C 65.0821917808219 766.241921128152  65.0821917808219 784.928255695342  65.0821917808219 784.928255695342  Z " fill-rule="nonzero" fill="#d7d7d7" stroke="none" />
  </g>
</svg>