﻿<?xml version="1.0" encoding="utf-8"?>
<svg version="1.1" xmlns:xlink="http://www.w3.org/1999/xlink" width="12px" height="12px" viewBox="418 178.5  12 12" xmlns="http://www.w3.org/2000/svg">
  <path d="M 424 178.5  C 427.36 178.5  430 181.14  430 184.5  C 430 187.86  427.36 190.5  424 190.5  C 420.64 190.5  418 187.86  418 184.5  C 418 181.14  420.64 178.5  424 178.5  Z " fill-rule="nonzero" fill="#ffffff" stroke="none" />
  <path d="M 424 179  C 427.08 179  429.5 181.42  429.5 184.5  C 429.5 187.58  427.08 190  424 190  C 420.92 190  418.5 187.58  418.5 184.5  C 418.5 181.42  420.92 179  424 179  Z " stroke-width="1" stroke="#797979" fill="none" />
</svg>