﻿<?xml version="1.0" encoding="utf-8"?>
<svg version="1.1" xmlns:xlink="http://www.w3.org/1999/xlink" width="12px" height="12px" viewBox="186 853  12 12" xmlns="http://www.w3.org/2000/svg">
  <path d="M 192 853  C 195.36 853  198 855.64  198 859  C 198 862.36  195.36 865  192 865  C 188.64 865  186 862.36  186 859  C 186 855.64  188.64 853  192 853  Z " fill-rule="nonzero" fill="#f0f0f0" stroke="none" />
  <path d="M 192 853.5  C 195.08 853.5  197.5 855.92  197.5 859  C 197.5 862.08  195.08 864.5  192 864.5  C 188.92 864.5  186.5 862.08  186.5 859  C 186.5 855.92  188.92 853.5  192 853.5  Z " stroke-width="1" stroke="#797979" fill="none" />
</svg>