﻿<?xml version="1.0" encoding="utf-8"?>
<svg version="1.1" xmlns:xlink="http://www.w3.org/1999/xlink" width="12px" height="12px" viewBox="277 822  12 12" xmlns="http://www.w3.org/2000/svg">
  <path d="M 283 822  C 286.36 822  289 824.64  289 828  C 289 831.36  286.36 834  283 834  C 279.64 834  277 831.36  277 828  C 277 824.64  279.64 822  283 822  Z " fill-rule="nonzero" fill="#f0f0f0" stroke="none" />
  <path d="M 283 822.5  C 286.08 822.5  288.5 824.92  288.5 828  C 288.5 831.08  286.08 833.5  283 833.5  C 279.92 833.5  277.5 831.08  277.5 828  C 277.5 824.92  279.92 822.5  283 822.5  Z " stroke-width="1" stroke="#797979" fill="none" />
</svg>