﻿<?xml version="1.0" encoding="utf-8"?>
<svg version="1.1" xmlns:xlink="http://www.w3.org/1999/xlink" width="80px" height="80px" xmlns="http://www.w3.org/2000/svg">
  <g transform="matrix(1 0 0 1 -682 -261 )">
    <path d="M 14.5454545454545 58.1818181818182  L 21.8181818181818 58.1818181818182  L 21.8181818181818 65.4545454545455  L 14.5454545454545 65.4545454545455  L 14.5454545454545 58.1818181818182  Z M 14.5454545454545 14.5454545454545  L 21.8181818181818 14.5454545454545  L 21.8181818181818 21.8181818181819  L 14.5454545454545 21.8181818181819  L 14.5454545454545 14.5454545454545  Z M 58.1818181818182 14.5454545454545  L 65.4545454545455 14.5454545454545  L 65.4545454545455 21.8181818181819  L 58.1818181818182 21.8181818181819  L 58.1818181818182 14.5454545454545  Z M 8 51  L 8 72  L 29 72  L 29 51  L 8 51  Z M 8 8  L 8 29  L 29 29  L 29 8  L 8 8  Z M 51 8  L 51 29  L 72 29  L 72 8  L 51 8  Z M 0 43  L 37 43  L 37 80  L 0 80  L 0 43  Z M 58.1818181818182 72.7272727272727  L 65.4545454545455 72.7272727272727  L 65.4545454545455 80  L 58.1818181818182 80  L 58.1818181818182 72.7272727272727  Z M 72.7272727272727 72.7272727272727  L 80 72.7272727272727  L 80 80  L 72.7272727272727 80  L 72.7272727272727 72.7272727272727  Z M 72.7272727272727 43.6363636363636  L 80 43.6363636363636  L 80 65  L 58.1818181818182 65  L 58.1818181818182 58.1818181818182  L 51 58.1818181818182  L 51 80  L 43 80  L 43 43  L 65.4545454545455 43  L 65.4545454545455 50.9090909090909  L 72.7272727272727 50.9090909090909  L 72.7272727272727 43.6363636363636  Z M 0 0  L 37 0  L 37 37  L 0 37  L 0 0  Z M 43 0  L 80 0  L 80 37  L 43 37  L 43 0  Z " fill-rule="nonzero" fill="#333333" stroke="none" transform="matrix(1 0 0 1 682 261 )" />
  </g>
</svg>