﻿<?xml version="1.0" encoding="utf-8"?>
<svg version="1.1" xmlns:xlink="http://www.w3.org/1999/xlink" width="12px" height="12px" viewBox="12 127  12 12" xmlns="http://www.w3.org/2000/svg">
  <path d="M 18 127  C 21.36 127  24 129.64  24 133  C 24 136.36  21.36 139  18 139  C 14.64 139  12 136.36  12 133  C 12 129.64  14.64 127  18 127  Z " fill-rule="nonzero" fill="#f0f0f0" stroke="none" />
  <path d="M 18 127.5  C 21.08 127.5  23.5 129.92  23.5 133  C 23.5 136.08  21.08 138.5  18 138.5  C 14.92 138.5  12.5 136.08  12.5 133  C 12.5 129.92  14.92 127.5  18 127.5  Z " stroke-width="1" stroke="#797979" fill="none" />
</svg>