﻿<?xml version="1.0" encoding="utf-8"?>
<svg version="1.1" xmlns:xlink="http://www.w3.org/1999/xlink" width="12px" height="12px" viewBox="40 175  12 12" xmlns="http://www.w3.org/2000/svg">
  <path d="M 46 175  C 49.36 175  52 177.64  52 181  C 52 184.36  49.36 187  46 187  C 42.64 187  40 184.36  40 181  C 40 177.64  42.64 175  46 175  Z " fill-rule="nonzero" fill="#ffffff" stroke="none" />
  <path d="M 46 175.5  C 49.08 175.5  51.5 177.92  51.5 181  C 51.5 184.08  49.08 186.5  46 186.5  C 42.92 186.5  40.5 184.08  40.5 181  C 40.5 177.92  42.92 175.5  46 175.5  Z " stroke-width="1" stroke="#797979" fill="none" />
  <path d="M 46 184  C 44.32 184  43 182.68  43 181  C 43 179.32  44.32 178  46 178  C 47.68 178  49 179.32  49 181  C 49 182.68  47.68 184  46 184  " fill-rule="nonzero" fill="#797979" stroke="none" />
</svg>