﻿<?xml version="1.0" encoding="utf-8"?>
<svg version="1.1" xmlns:xlink="http://www.w3.org/1999/xlink" width="12px" height="12px" viewBox="40 211  12 12" xmlns="http://www.w3.org/2000/svg">
  <path d="M 46 211  C 49.36 211  52 213.64  52 217  C 52 220.36  49.36 223  46 223  C 42.64 223  40 220.36  40 217  C 40 213.64  42.64 211  46 211  Z " fill-rule="nonzero" fill="#f0f0f0" stroke="none" />
  <path d="M 46 211.5  C 49.08 211.5  51.5 213.92  51.5 217  C 51.5 220.08  49.08 222.5  46 222.5  C 42.92 222.5  40.5 220.08  40.5 217  C 40.5 213.92  42.92 211.5  46 211.5  Z " stroke-width="1" stroke="#797979" fill="none" />
</svg>