﻿<?xml version="1.0" encoding="utf-8"?>
<svg version="1.1" xmlns:xlink="http://www.w3.org/1999/xlink" width="12px" height="12px" viewBox="28 273  12 12" xmlns="http://www.w3.org/2000/svg">
  <path d="M 34 273  C 37.36 273  40 275.64  40 279  C 40 282.36  37.36 285  34 285  C 30.64 285  28 282.36  28 279  C 28 275.64  30.64 273  34 273  Z " fill-rule="nonzero" fill="#f0f0f0" stroke="none" />
  <path d="M 34 273.5  C 37.08 273.5  39.5 275.92  39.5 279  C 39.5 282.08  37.08 284.5  34 284.5  C 30.92 284.5  28.5 282.08  28.5 279  C 28.5 275.92  30.92 273.5  34 273.5  Z " stroke-width="1" stroke="#797979" fill="none" />
</svg>