﻿<?xml version="1.0" encoding="utf-8"?>
<svg version="1.1" xmlns:xlink="http://www.w3.org/1999/xlink" width="28px" height="16px" xmlns="http://www.w3.org/2000/svg">
  <g transform="matrix(1 0 0 1 -46 -1296 )">
    <path d="M 0 16  L 0 0  L 28 0  L 28 16  L 20.7323436797121 16  L 16.9536662168241 16  L 0 16  Z " fill-rule="nonzero" fill="#ffffff" stroke="none" transform="matrix(1 0 0 1 46 1296 )" />
  </g>
</svg>