﻿<?xml version="1.0" encoding="utf-8"?>
<svg version="1.1" xmlns:xlink="http://www.w3.org/1999/xlink" width="210px" height="16px" xmlns="http://www.w3.org/2000/svg">
  <g transform="matrix(1 0 0 1 -20 -542 )">
    <path d="M 0 16  L 0 0  L 142.121212121212 0  L 210 0  L 210 16  L 142.121212121212 16  L 0 16  Z " fill-rule="nonzero" fill="#ffff00" stroke="none" transform="matrix(1 0 0 1 20 542 )" />
  </g>
</svg>