﻿<?xml version="1.0" encoding="utf-8"?>
<svg version="1.1" xmlns:xlink="http://www.w3.org/1999/xlink" width="47px" height="2px" xmlns="http://www.w3.org/2000/svg">
  <g transform="matrix(1 0 0 1 -56 -515 )">
    <path d="M 56 515.5  L 102 515.5  " stroke-width="1" stroke="#1fb8ff" fill="none" />
  </g>
</svg>