﻿<?xml version="1.0" encoding="utf-8"?>
<svg version="1.1" xmlns:xlink="http://www.w3.org/1999/xlink" width="31px" height="175.5px" xmlns="http://www.w3.org/2000/svg">
  <g transform="matrix(1 0 0 1 -962 -343.5 )">
    <path d="M 966 494  L 977.5 506  L 989 494  L 966 494  Z " fill-rule="nonzero" fill="#d9001b" stroke="none" />
    <path d="M 977.5 346  L 977.5 497  " stroke-width="5" stroke="#d9001b" fill="none" />
  </g>
</svg>