﻿<?xml version="1.0" encoding="utf-8"?>
<svg version="1.1" xmlns:xlink="http://www.w3.org/1999/xlink" width="320px" height="120px" xmlns="http://www.w3.org/2000/svg">
  <g transform="matrix(1 0 0 1 -41 -1236 )">
    <path d="M 42 1237  L 360 1237  L 360 1355  L 42 1355  L 42 1237  Z " fill-rule="nonzero" fill="#ffffff" stroke="none" />
  </g>
</svg>