﻿<?xml version="1.0" encoding="utf-8"?>
<svg version="1.1" xmlns:xlink="http://www.w3.org/1999/xlink" width="2px" height="35px" xmlns="http://www.w3.org/2000/svg">
  <g transform="matrix(1 0 0 1 -311 -971 )">
    <path d="M 311.5 971  L 311.5 1005  " stroke-width="1" stroke="#1fb8ff" fill="none" />
  </g>
</svg>