﻿<?xml version="1.0" encoding="utf-8"?>
<svg version="1.1" xmlns:xlink="http://www.w3.org/1999/xlink" width="106px" height="25px" xmlns="http://www.w3.org/2000/svg">
  <g transform="matrix(1 0 0 1 -1204 -94 )">
    <path d="M 1220.7 101.4  L 1215 106.5  L 1220.7 111.6  L 1226.1 106.5  L 1220.7 101.4  Z M 1293.3 111.6  L 1299 106.5  L 1293.3 101.4  L 1287.9 106.5  L 1293.3 111.6  Z " fill-rule="nonzero" fill="#ff0000" stroke="none" />
    <path d="M 1218 106.5  L 1296 106.5  " stroke-width="3" stroke="#ff0000" fill="none" />
  </g>
</svg>