﻿<?xml version="1.0" encoding="utf-8"?>
<svg version="1.1" xmlns:xlink="http://www.w3.org/1999/xlink" width="28px" height="26px" preserveAspectRatio="xMinYMid meet" viewBox="1650 29  28 24" xmlns="http://www.w3.org/2000/svg">
  <g transform="matrix(0 -1 1 0 1623 1705 )">
    <path d="M 1637.2 65.9  L 1631.5 71  L 1637.2 76.1  L 1642.6 71  L 1637.2 65.9  Z M 1691.8 76.1  L 1697.5 71  L 1691.8 65.9  L 1686.4 71  L 1691.8 76.1  Z " fill-rule="nonzero" fill="#ff0000" stroke="none" transform="matrix(6.12303176911189E-17 1 -1 6.12303176911189E-17 1735.5 -1594.5 )" />
    <path d="M 1634.5 71  L 1694.5 71  " stroke-width="3" stroke="#ff0000" fill="none" transform="matrix(6.12303176911189E-17 1 -1 6.12303176911189E-17 1735.5 -1594.5 )" />
  </g>
</svg>