﻿<?xml version="1.0" encoding="utf-8"?>
<svg version="1.1" xmlns:xlink="http://www.w3.org/1999/xlink" width="12px" height="12px" viewBox="19 236  12 12" xmlns="http://www.w3.org/2000/svg">
  <path d="M 25 236  C 28.36 236  31 238.64  31 242  C 31 245.36  28.36 248  25 248  C 21.64 248  19 245.36  19 242  C 19 238.64  21.64 236  25 236  Z " fill-rule="nonzero" fill="#f0f0f0" stroke="none" />
  <path d="M 25 236.5  C 28.08 236.5  30.5 238.92  30.5 242  C 30.5 245.08  28.08 247.5  25 247.5  C 21.92 247.5  19.5 245.08  19.5 242  C 19.5 238.92  21.92 236.5  25 236.5  Z " stroke-width="1" stroke="#797979" fill="none" />
</svg>