﻿<?xml version="1.0" encoding="utf-8"?>
<svg version="1.1" xmlns:xlink="http://www.w3.org/1999/xlink" width="12px" height="12px" viewBox="19 297  12 12" xmlns="http://www.w3.org/2000/svg">
  <path d="M 25 297  C 28.36 297  31 299.64  31 303  C 31 306.36  28.36 309  25 309  C 21.64 309  19 306.36  19 303  C 19 299.64  21.64 297  25 297  Z " fill-rule="nonzero" fill="#ffffff" stroke="none" />
  <path d="M 25 297.5  C 28.08 297.5  30.5 299.92  30.5 303  C 30.5 306.08  28.08 308.5  25 308.5  C 21.92 308.5  19.5 306.08  19.5 303  C 19.5 299.92  21.92 297.5  25 297.5  Z " stroke-width="1" stroke="#797979" fill="none" />
  <path d="M 25 306  C 23.32 306  22 304.68  22 303  C 22 301.32  23.32 300  25 300  C 26.68 300  28 301.32  28 303  C 28 304.68  26.68 306  25 306  " fill-rule="nonzero" fill="#797979" stroke="none" />
</svg>