﻿<?xml version="1.0" encoding="utf-8"?>
<svg version="1.1" xmlns:xlink="http://www.w3.org/1999/xlink" width="12px" height="12px" viewBox="8 312  12 12" xmlns="http://www.w3.org/2000/svg">
  <path d="M 14 312  C 17.36 312  20 314.64  20 318  C 20 321.36  17.36 324  14 324  C 10.64 324  8 321.36  8 318  C 8 314.64  10.64 312  14 312  Z " fill-rule="nonzero" fill="#ffffff" stroke="none" />
  <path d="M 14 312.5  C 17.08 312.5  19.5 314.92  19.5 318  C 19.5 321.08  17.08 323.5  14 323.5  C 10.92 323.5  8.5 321.08  8.5 318  C 8.5 314.92  10.92 312.5  14 312.5  Z " stroke-width="1" stroke="#797979" fill="none" />
  <path d="M 14 321  C 12.32 321  11 319.68  11 318  C 11 316.32  12.32 315  14 315  C 15.68 315  17 316.32  17 318  C 17 319.68  15.68 321  14 321  " fill-rule="nonzero" fill="#797979" stroke="none" />
</svg>