﻿<?xml version="1.0" encoding="utf-8"?>
<svg version="1.1" xmlns:xlink="http://www.w3.org/1999/xlink" width="12px" height="12px" viewBox="8 362  12 12" xmlns="http://www.w3.org/2000/svg">
  <path d="M 14 362  C 17.36 362  20 364.64  20 368  C 20 371.36  17.36 374  14 374  C 10.64 374  8 371.36  8 368  C 8 364.64  10.64 362  14 362  Z " fill-rule="nonzero" fill="#f0f0f0" stroke="none" />
  <path d="M 14 362.5  C 17.08 362.5  19.5 364.92  19.5 368  C 19.5 371.08  17.08 373.5  14 373.5  C 10.92 373.5  8.5 371.08  8.5 368  C 8.5 364.92  10.92 362.5  14 362.5  Z " stroke-width="1" stroke="#797979" fill="none" />
  <path d="M 14 371  C 12.32 371  11 369.68  11 368  C 11 366.32  12.32 365  14 365  C 15.68 365  17 366.32  17 368  C 17 369.68  15.68 371  14 371  " fill-rule="nonzero" fill="#797979" stroke="none" />
</svg>