﻿<?xml version="1.0" encoding="utf-8"?>
<svg version="1.1" xmlns:xlink="http://www.w3.org/1999/xlink" width="12px" height="12px" viewBox="8 217  12 12" xmlns="http://www.w3.org/2000/svg">
  <path d="M 14 217  C 17.36 217  20 219.64  20 223  C 20 226.36  17.36 229  14 229  C 10.64 229  8 226.36  8 223  C 8 219.64  10.64 217  14 217  Z " fill-rule="nonzero" fill="#f0f0f0" stroke="none" />
  <path d="M 14 217.5  C 17.08 217.5  19.5 219.92  19.5 223  C 19.5 226.08  17.08 228.5  14 228.5  C 10.92 228.5  8.5 226.08  8.5 223  C 8.5 219.92  10.92 217.5  14 217.5  Z " stroke-width="1" stroke="#797979" fill="none" />
</svg>