﻿<?xml version="1.0" encoding="utf-8"?>
<svg version="1.1" xmlns:xlink="http://www.w3.org/1999/xlink" width="92px" height="35px" xmlns="http://www.w3.org/2000/svg">
  <defs>
    <linearGradient gradientUnits="userSpaceOnUse" x1="46" y1="0" x2="46" y2="35" id="LinearGradient115">
      <stop id="Stop116" stop-color="#dee0e7" stop-opacity="0.286274509803922" offset="0" />
      <stop id="Stop117" stop-color="#000000" stop-opacity="0" offset="1" />
    </linearGradient>
    <mask fill="white" id="clip118">
      <path d="M 0 35  L 0 0  L 58.4126984126984 0  L 92 0  L 92 35  L 0 35  Z " fill-rule="evenodd" />
    </mask>
  </defs>
  <g transform="matrix(1 0 0 1 -377 -285 )">
    <path d="M 0 35  L 0 0  L 58.4126984126984 0  L 92 0  L 92 35  L 0 35  Z " fill-rule="nonzero" fill="url(#LinearGradient115)" stroke="none" transform="matrix(1 0 0 1 377 285 )" />
    <path d="M 0 35  L 0 0  L 58.4126984126984 0  L 92 0  L 92 35  L 0 35  Z " stroke-width="2" stroke="#a9acb5" fill="none" transform="matrix(1 0 0 1 377 285 )" mask="url(#clip118)" />
  </g>
</svg>