﻿<?xml version="1.0" encoding="utf-8"?>
<svg version="1.1" xmlns:xlink="http://www.w3.org/1999/xlink" width="12px" height="12px" viewBox="8 162  12 12" xmlns="http://www.w3.org/2000/svg">
  <path d="M 14 162  C 17.36 162  20 164.64  20 168  C 20 171.36  17.36 174  14 174  C 10.64 174  8 171.36  8 168  C 8 164.64  10.64 162  14 162  Z " fill-rule="nonzero" fill="#ffffff" stroke="none" />
  <path d="M 14 162.5  C 17.08 162.5  19.5 164.92  19.5 168  C 19.5 171.08  17.08 173.5  14 173.5  C 10.92 173.5  8.5 171.08  8.5 168  C 8.5 164.92  10.92 162.5  14 162.5  Z " stroke-width="1" stroke="#797979" fill="none" />
</svg>