﻿<?xml version="1.0" encoding="utf-8"?>
<svg version="1.1" xmlns:xlink="http://www.w3.org/1999/xlink" width="12px" height="12px" viewBox="8 262  12 12" xmlns="http://www.w3.org/2000/svg">
  <path d="M 14 262  C 17.36 262  20 264.64  20 268  C 20 271.36  17.36 274  14 274  C 10.64 274  8 271.36  8 268  C 8 264.64  10.64 262  14 262  Z " fill-rule="nonzero" fill="#ffffff" stroke="none" />
  <path d="M 14 262.5  C 17.08 262.5  19.5 264.92  19.5 268  C 19.5 271.08  17.08 273.5  14 273.5  C 10.92 273.5  8.5 271.08  8.5 268  C 8.5 264.92  10.92 262.5  14 262.5  Z " stroke-width="1" stroke="#797979" fill="none" />
</svg>