﻿<?xml version="1.0" encoding="utf-8"?>
<svg version="1.1" xmlns:xlink="http://www.w3.org/1999/xlink" width="20px" height="20px" preserveAspectRatio="xMinYMid meet" viewBox="256 283  20 18" xmlns="http://www.w3.org/2000/svg">
  <defs>
    <mask fill="white" id="clip320">
      <path d="M 217 252  L 315 252  L 315 277  L 217 277  Z M 217 235  L 315 235  L 315 304  L 217 304  Z " fill-rule="evenodd" />
    </mask>
  </defs>
  <path d="M 266 252  L 266 235  M 266 277  L 266 292  " stroke-width="2" stroke="#cccccc" fill="none" />
  <path d="M 270.292893218813 286.892893218813  L 266 291.185786437627  L 261.707106781187 286.892893218813  L 260.292893218813 288.307106781187  L 265.292893218813 293.307106781187  L 266 294.014213562373  L 266.707106781187 293.307106781187  L 271.707106781187 288.307106781187  L 270.292893218813 286.892893218813  Z " fill-rule="nonzero" fill="#cccccc" stroke="none" mask="url(#clip320)" />
</svg>