﻿<?xml version="1.0" encoding="utf-8"?>
<svg version="1.1" xmlns:xlink="http://www.w3.org/1999/xlink" width="12px" height="12px" viewBox="11 69  12 12" xmlns="http://www.w3.org/2000/svg">
  <path d="M 11.5 69.5  L 22.5 69.5  L 22.5 80.5  L 11.5 80.5  L 11.5 69.5  Z " fill-rule="nonzero" fill="#ffffff" stroke="none" />
  <path d="M 11.5 69.5  L 22.5 69.5  L 22.5 80.5  L 11.5 80.5  L 11.5 69.5  Z " stroke-width="1" stroke="#797979" fill="none" />
  <path d="M 13.5714285714286 75  L 16.1428571428571 77.5714285714286  L 20.4285714285714 71.5714285714286  " stroke-width="2.57142857142857" stroke="#797979" fill="none" />
</svg>