﻿<?xml version="1.0" encoding="utf-8"?>
<svg version="1.1" xmlns:xlink="http://www.w3.org/1999/xlink" width="165px" height="60px" xmlns="http://www.w3.org/2000/svg">
  <g transform="matrix(1 0 0 1 -183 -30 )">
    <path d="M 183.5 39.1407682432876  L 192.140768243288 30.5  L 338.859231756712 30.5  L 347.5 39.1407682432876  L 347.5 80.8592317567124  L 338.859231756712 89.5  L 192.140768243288 89.5  L 183.5 80.8592317567124  L 183.5 39.1407682432876  Z " fill-rule="nonzero" fill="#ffffff" stroke="none" />
    <path d="M 183.5 39.1407682432876  L 192.140768243288 30.5  L 338.859231756712 30.5  L 347.5 39.1407682432876  L 347.5 80.8592317567124  L 338.859231756712 89.5  L 192.140768243288 89.5  L 183.5 80.8592317567124  L 183.5 39.1407682432876  Z " stroke-width="1" stroke="#cccccc" fill="none" />
  </g>
</svg>