﻿<?xml version="1.0" encoding="utf-8"?>
<svg version="1.1" xmlns:xlink="http://www.w3.org/1999/xlink" width="12px" height="12px" viewBox="13 97  12 12" xmlns="http://www.w3.org/2000/svg">
  <path d="M 19 97  C 22.36 97  25 99.64  25 103  C 25 106.36  22.36 109  19 109  C 15.64 109  13 106.36  13 103  C 13 99.64  15.64 97  19 97  Z " fill-rule="nonzero" fill="#ffffff" stroke="none" />
  <path d="M 19 97.5  C 22.08 97.5  24.5 99.92  24.5 103  C 24.5 106.08  22.08 108.5  19 108.5  C 15.92 108.5  13.5 106.08  13.5 103  C 13.5 99.92  15.92 97.5  19 97.5  Z " stroke-width="1" stroke="#797979" fill="none" />
</svg>