﻿<?xml version="1.0" encoding="utf-8"?>
<svg version="1.1" xmlns:xlink="http://www.w3.org/1999/xlink" width="12px" height="12px" viewBox="95 564  12 12" xmlns="http://www.w3.org/2000/svg">
  <path d="M 101 564  C 104.36 564  107 566.64  107 570  C 107 573.36  104.36 576  101 576  C 97.64 576  95 573.36  95 570  C 95 566.64  97.64 564  101 564  Z " fill-rule="nonzero" fill="#ffffff" stroke="none" />
  <path d="M 101 564.5  C 104.08 564.5  106.5 566.92  106.5 570  C 106.5 573.08  104.08 575.5  101 575.5  C 97.92 575.5  95.5 573.08  95.5 570  C 95.5 566.92  97.92 564.5  101 564.5  Z " stroke-width="1" stroke="#797979" fill="none" />
  <path d="M 101 573  C 99.32 573  98 571.68  98 570  C 98 568.32  99.32 567  101 567  C 102.68 567  104 568.32  104 570  C 104 571.68  102.68 573  101 573  " fill-rule="nonzero" fill="#797979" stroke="none" />
</svg>