﻿<?xml version="1.0" encoding="utf-8"?>
<svg version="1.1" xmlns:xlink="http://www.w3.org/1999/xlink" width="10px" height="66px" preserveAspectRatio="xMidYMin meet" viewBox="263 205  8 66" xmlns="http://www.w3.org/2000/svg">
  <defs>
    <mask fill="white" id="clip305">
      <path d="M 218 223  L 316 223  L 316 248  L 218 248  Z M 218 205  L 316 205  L 316 276  L 218 276  Z " fill-rule="evenodd" />
    </mask>
  </defs>
  <path d="M 267 223  L 267 205  M 267 248  L 267 264  " stroke-width="2" stroke="#cccccc" fill="none" />
  <path d="M 271.292893218813 258.892893218813  L 267 263.185786437627  L 262.707106781187 258.892893218813  L 261.292893218813 260.307106781187  L 266.292893218813 265.307106781187  L 267 266.014213562373  L 267.707106781187 265.307106781187  L 272.707106781187 260.307106781187  L 271.292893218813 258.892893218813  Z " fill-rule="nonzero" fill="#cccccc" stroke="none" mask="url(#clip305)" />
</svg>