﻿<?xml version="1.0" encoding="utf-8"?>
<svg version="1.1" xmlns:xlink="http://www.w3.org/1999/xlink" width="2px" height="34px" xmlns="http://www.w3.org/2000/svg">
  <g transform="matrix(1 0 0 1 -160 -437 )">
    <path d="M 160.5 437  L 160.5 470  " stroke-width="1" stroke="#e9e9e9" fill="none" />
  </g>
</svg>