﻿<?xml version="1.0" encoding="utf-8"?>
<svg version="1.1" xmlns:xlink="http://www.w3.org/1999/xlink" width="320px" height="1px" xmlns="http://www.w3.org/2000/svg">
  <g transform="matrix(1 0 0 1 -36 -645 )">
    <path d="M 36 645.5  L 356 645.5  " stroke-width="1" stroke="#d7d7d7" fill="none" />
  </g>
</svg>