﻿<?xml version="1.0" encoding="utf-8"?>
<svg version="1.1" xmlns:xlink="http://www.w3.org/1999/xlink" width="10px" height="63px" preserveAspectRatio="xMidYMin meet" viewBox="262 354  8 63" xmlns="http://www.w3.org/2000/svg">
  <defs>
    <mask fill="white" id="clip177">
      <path d="M 230 371  L 302 371  L 302 396  L 230 396  Z M 230 354  L 302 354  L 302 422  L 230 422  Z " fill-rule="evenodd" />
    </mask>
  </defs>
  <path d="M 266 371  L 266 354  M 266 396  L 266 410  " stroke-width="2" stroke="#cccccc" fill="none" />
  <path d="M 270.292893218813 404.892893218813  L 266 409.185786437627  L 261.707106781187 404.892893218813  L 260.292893218813 406.307106781187  L 265.292893218813 411.307106781187  L 266 412.014213562373  L 266.707106781187 411.307106781187  L 271.707106781187 406.307106781187  L 270.292893218813 404.892893218813  Z " fill-rule="nonzero" fill="#cccccc" stroke="none" mask="url(#clip177)" />
</svg>