﻿<?xml version="1.0" encoding="utf-8"?>
<svg version="1.1" xmlns:xlink="http://www.w3.org/1999/xlink" width="321px" height="2px" xmlns="http://www.w3.org/2000/svg">
  <g transform="matrix(1 0 0 1 -41 -1355 )">
    <path d="M 41 1355.5  L 361 1355.5  " stroke-width="1" stroke="#e5e5e5" fill="none" />
  </g>
</svg>