﻿<?xml version="1.0" encoding="utf-8"?>
<svg version="1.1" xmlns:xlink="http://www.w3.org/1999/xlink" width="204px" height="38px" xmlns="http://www.w3.org/2000/svg">
  <defs>
    <filter x="76px" y="76px" width="204px" height="38px" filterUnits="userSpaceOnUse" id="filter440">
      <feOffset dx="0" dy="0" in="SourceAlpha" result="shadowOffsetInner" />
      <feGaussianBlur stdDeviation="2.5" in="shadowOffsetInner" result="shadowGaussian" />
      <feComposite in2="shadowGaussian" operator="atop" in="SourceAlpha" result="shadowComposite" />
      <feColorMatrix type="matrix" values="0 0 0 0 0  0 0 0 0 0  0 0 0 0 0  0 0 0 0.349019607843137 0  " in="shadowComposite" />
    </filter>
    <g id="widget441">
      <path d="M 81 81  L 275 81  L 275 109  L 81 109  L 81 81  Z " fill-rule="nonzero" fill="#ffffff" stroke="none" fill-opacity="0" />
    </g>
  </defs>
  <g transform="matrix(1 0 0 1 -76 -76 )">
    <use xlink:href="#widget441" filter="url(#filter440)" />
    <use xlink:href="#widget441" />
  </g>
</svg>