﻿<?xml version="1.0" encoding="utf-8"?>
<svg version="1.1" xmlns:xlink="http://www.w3.org/1999/xlink" width="12px" height="12px" viewBox="294 390  12 12" xmlns="http://www.w3.org/2000/svg">
  <path d="M 300 390  C 303.36 390  306 392.64  306 396  C 306 399.36  303.36 402  300 402  C 296.64 402  294 399.36  294 396  C 294 392.64  296.64 390  300 390  Z " fill-rule="nonzero" fill="#ffffff" stroke="none" />
  <path d="M 300 390.5  C 303.08 390.5  305.5 392.92  305.5 396  C 305.5 399.08  303.08 401.5  300 401.5  C 296.92 401.5  294.5 399.08  294.5 396  C 294.5 392.92  296.92 390.5  300 390.5  Z " stroke-width="1" stroke="#797979" fill="none" />
  <path d="M 300 399  C 298.32 399  297 397.68  297 396  C 297 394.32  298.32 393  300 393  C 301.68 393  303 394.32  303 396  C 303 397.68  301.68 399  300 399  " fill-rule="nonzero" fill="#797979" stroke="none" />
</svg>