﻿<?xml version="1.0" encoding="utf-8"?>
<svg version="1.1" xmlns:xlink="http://www.w3.org/1999/xlink" width="12px" height="12px" viewBox="294 440  12 12" xmlns="http://www.w3.org/2000/svg">
  <path d="M 300 440  C 303.36 440  306 442.64  306 446  C 306 449.36  303.36 452  300 452  C 296.64 452  294 449.36  294 446  C 294 442.64  296.64 440  300 440  Z " fill-rule="nonzero" fill="#f0f0f0" stroke="none" />
  <path d="M 300 440.5  C 303.08 440.5  305.5 442.92  305.5 446  C 305.5 449.08  303.08 451.5  300 451.5  C 296.92 451.5  294.5 449.08  294.5 446  C 294.5 442.92  296.92 440.5  300 440.5  Z " stroke-width="1" stroke="#797979" fill="none" />
</svg>