﻿<?xml version="1.0" encoding="utf-8"?>
<svg version="1.1" xmlns:xlink="http://www.w3.org/1999/xlink" width="12px" height="12px" viewBox="294 490  12 12" xmlns="http://www.w3.org/2000/svg">
  <path d="M 300 490  C 303.36 490  306 492.64  306 496  C 306 499.36  303.36 502  300 502  C 296.64 502  294 499.36  294 496  C 294 492.64  296.64 490  300 490  Z " fill-rule="nonzero" fill="#f0f0f0" stroke="none" />
  <path d="M 300 490.5  C 303.08 490.5  305.5 492.92  305.5 496  C 305.5 499.08  303.08 501.5  300 501.5  C 296.92 501.5  294.5 499.08  294.5 496  C 294.5 492.92  296.92 490.5  300 490.5  Z " stroke-width="1" stroke="#797979" fill="none" />
</svg>