﻿<?xml version="1.0" encoding="utf-8"?>
<svg version="1.1" xmlns:xlink="http://www.w3.org/1999/xlink" width="16px" height="16px" xmlns="http://www.w3.org/2000/svg">
  <g transform="matrix(1 0 0 1 -61 -612 )">
    <path d="M 69 612  C 73.48 612  77 615.52  77 620  C 77 624.48  73.48 628  69 628  C 64.52 628  61 624.48  61 620  C 61 615.52  64.52 612  69 612  Z " fill-rule="nonzero" fill="#ffffff" stroke="none" />
    <path d="M 69 612.5  C 73.2 612.5  76.5 615.8  76.5 620  C 76.5 624.2  73.2 627.5  69 627.5  C 64.8 627.5  61.5 624.2  61.5 620  C 61.5 615.8  64.8 612.5  69 612.5  Z " stroke-width="1" stroke="#035df3" fill="none" />
  </g>
</svg>