﻿<?xml version="1.0" encoding="utf-8"?>
<svg version="1.1" xmlns:xlink="http://www.w3.org/1999/xlink" width="247px" height="2px" xmlns="http://www.w3.org/2000/svg">
  <g transform="matrix(1 0 0 1 -54 -67 )">
    <path d="M 54 67.5  L 300 67.5  " stroke-width="1" stroke="#e9e9e9" fill="none" />
  </g>
</svg>