﻿<?xml version="1.0" encoding="utf-8"?>
<svg version="1.1" xmlns:xlink="http://www.w3.org/1999/xlink" width="12px" height="12px" viewBox="962 441  12 12" xmlns="http://www.w3.org/2000/svg">
  <path d="M 968 441  C 971.36 441  974 443.64  974 447  C 974 450.36  971.36 453  968 453  C 964.64 453  962 450.36  962 447  C 962 443.64  964.64 441  968 441  Z " fill-rule="nonzero" fill="#f0f0f0" stroke="none" />
  <path d="M 968 441.5  C 971.08 441.5  973.5 443.92  973.5 447  C 973.5 450.08  971.08 452.5  968 452.5  C 964.92 452.5  962.5 450.08  962.5 447  C 962.5 443.92  964.92 441.5  968 441.5  Z " stroke-width="1" stroke="#797979" fill="none" />
  <path d="M 968 450  C 966.32 450  965 448.68  965 447  C 965 445.32  966.32 444  968 444  C 969.68 444  971 445.32  971 447  C 971 448.68  969.68 450  968 450  " fill-rule="nonzero" fill="#797979" stroke="none" />
</svg>