﻿<?xml version="1.0" encoding="utf-8"?>
<svg version="1.1" xmlns:xlink="http://www.w3.org/1999/xlink" width="12px" height="12px" viewBox="962 401  12 12" xmlns="http://www.w3.org/2000/svg">
  <path d="M 968 401  C 971.36 401  974 403.64  974 407  C 974 410.36  971.36 413  968 413  C 964.64 413  962 410.36  962 407  C 962 403.64  964.64 401  968 401  Z " fill-rule="nonzero" fill="#ffffff" stroke="none" />
  <path d="M 968 401.5  C 971.08 401.5  973.5 403.92  973.5 407  C 973.5 410.08  971.08 412.5  968 412.5  C 964.92 412.5  962.5 410.08  962.5 407  C 962.5 403.92  964.92 401.5  968 401.5  Z " stroke-width="1" stroke="#797979" fill="none" />
</svg>