﻿<?xml version="1.0" encoding="utf-8"?>
<svg version="1.1" xmlns:xlink="http://www.w3.org/1999/xlink" width="85px" height="27px" xmlns="http://www.w3.org/2000/svg">
  <defs>
    <filter x="32px" y="197px" width="85px" height="27px" filterUnits="userSpaceOnUse" id="filter361">
      <feOffset dx="0" dy="0" in="SourceAlpha" result="shadowOffsetInner" />
      <feGaussianBlur stdDeviation="2.5" in="shadowOffsetInner" result="shadowGaussian" />
      <feComposite in2="shadowGaussian" operator="atop" in="SourceAlpha" result="shadowComposite" />
      <feColorMatrix type="matrix" values="0 0 0 0 0  0 0 0 0 0  0 0 0 0 0  0 0 0 0.349019607843137 0  " in="shadowComposite" />
    </filter>
    <g id="widget362">
      <path d="M 37 202  L 112 202  L 112 219  L 37 219  L 37 202  Z " fill-rule="nonzero" fill="#ffffff" stroke="none" fill-opacity="0" />
    </g>
  </defs>
  <g transform="matrix(1 0 0 1 -32 -197 )">
    <use xlink:href="#widget362" filter="url(#filter361)" />
    <use xlink:href="#widget362" />
  </g>
</svg>