﻿<?xml version="1.0" encoding="utf-8"?>
<svg version="1.1" xmlns:xlink="http://www.w3.org/1999/xlink" width="151px" height="10px" preserveAspectRatio="xMinYMid meet" viewBox="509 287  151 8" xmlns="http://www.w3.org/2000/svg">
  <defs>
    <mask fill="white" id="clip1165">
      <path d="M 565.5 278  L 598.5 278  L 598.5 303  L 565.5 303  Z M 509 274  L 672 274  L 672 308  L 509 308  Z " fill-rule="evenodd" />
    </mask>
  </defs>
  <path d="M 565.5 291  L 509 291  M 598.5 291  L 653 291  " stroke-width="2" stroke="#999999" fill="none" />
  <path d="M 645.6 299  L 655 291  L 645.6 283  L 649.2 291  L 645.6 299  Z " fill-rule="nonzero" fill="#999999" stroke="none" mask="url(#clip1165)" />
</svg>