﻿<?xml version="1.0" encoding="utf-8"?>
<svg version="1.1" xmlns:xlink="http://www.w3.org/1999/xlink" width="34px" height="34px" preserveAspectRatio="xMinYMid meet" viewBox="227 703  34 32" xmlns="http://www.w3.org/2000/svg">
  <defs>
    <mask fill="white" id="clip1180">
      <path d="M 253 699  L 373 699  L 373 739  L 253 739  Z M 225 699  L 387 699  L 387 739  L 225 739  Z " fill-rule="evenodd" />
    </mask>
  </defs>
  <path d="M 253 719  L 244 719  M 373 719  L 384 719  " stroke-width="2" stroke="#999999" fill="none" />
  <path d="M 251.4 711  L 242 719  L 251.4 727  L 247.8 719  L 251.4 711  Z " fill-rule="nonzero" fill="#999999" stroke="none" mask="url(#clip1180)" />
</svg>