﻿<?xml version="1.0" encoding="utf-8"?>
<svg version="1.1" xmlns:xlink="http://www.w3.org/1999/xlink" width="12px" height="12px" viewBox="128 325  12 12" xmlns="http://www.w3.org/2000/svg">
  <path d="M 128.5 325.5  L 139.5 325.5  L 139.5 336.5  L 128.5 336.5  L 128.5 325.5  Z " fill-rule="nonzero" fill="#ffffff" stroke="none" />
  <path d="M 128.5 325.5  L 139.5 325.5  L 139.5 336.5  L 128.5 336.5  L 128.5 325.5  Z " stroke-width="1" stroke="#797979" fill="none" />
  <path d="M 130.571428571429 331  L 133.142857142857 333.571428571429  L 137.428571428571 327.571428571429  " stroke-width="2.57142857142857" stroke="#797979" fill="none" />
</svg>