﻿<?xml version="1.0" encoding="utf-8"?>
<svg version="1.1" xmlns:xlink="http://www.w3.org/1999/xlink" width="12px" height="12px" viewBox="206 323  12 12" xmlns="http://www.w3.org/2000/svg">
  <path d="M 206.5 323.5  L 217.5 323.5  L 217.5 334.5  L 206.5 334.5  L 206.5 323.5  Z " fill-rule="nonzero" fill="#ffffff" stroke="none" />
  <path d="M 206.5 323.5  L 217.5 323.5  L 217.5 334.5  L 206.5 334.5  L 206.5 323.5  Z " stroke-width="1" stroke="#797979" fill="none" />
  <path d="M 208.571428571429 329  L 211.142857142857 331.571428571429  L 215.428571428571 325.571428571429  " stroke-width="2.57142857142857" stroke="#797979" fill="none" />
</svg>