﻿<?xml version="1.0" encoding="utf-8"?>
<svg version="1.1" xmlns:xlink="http://www.w3.org/1999/xlink" width="562px" height="2px" xmlns="http://www.w3.org/2000/svg">
  <g transform="matrix(1 0 0 1 -30 -102 )">
    <path d="M 30 102.5  L 591 102.5  " stroke-width="1" stroke="#cccccc" fill="none" />
  </g>
</svg>