﻿<?xml version="1.0" encoding="utf-8"?>
<svg version="1.1" xmlns:xlink="http://www.w3.org/1999/xlink" width="12px" height="12px" viewBox="35 509  12 12" xmlns="http://www.w3.org/2000/svg">
  <path d="M 35.5 509.5  L 46.5 509.5  L 46.5 520.5  L 35.5 520.5  L 35.5 509.5  Z " fill-rule="nonzero" fill="#ffffff" stroke="none" />
  <path d="M 35.5 509.5  L 46.5 509.5  L 46.5 520.5  L 35.5 520.5  L 35.5 509.5  Z " stroke-width="1" stroke="#797979" fill="none" />
  <path d="M 37.5714285714286 515  L 40.1428571428571 517.571428571429  L 44.4285714285714 511.571428571429  " stroke-width="2.57142857142857" stroke="#797979" fill="none" />
</svg>