﻿<?xml version="1.0" encoding="utf-8"?>
<svg version="1.1" xmlns:xlink="http://www.w3.org/1999/xlink" width="12px" height="12px" viewBox="142 292  12 12" xmlns="http://www.w3.org/2000/svg">
  <path d="M 142.5 292.5  L 153.5 292.5  L 153.5 303.5  L 142.5 303.5  L 142.5 292.5  Z " fill-rule="nonzero" fill="#f0f0f0" stroke="none" />
  <path d="M 142.5 292.5  L 153.5 292.5  L 153.5 303.5  L 142.5 303.5  L 142.5 292.5  Z " stroke-width="1" stroke="#797979" fill="none" />
  <path d="M 144.571428571429 298  L 147.142857142857 300.571428571429  " stroke-width="2.57142857142857" stroke="#797979" fill="none" />
  <path d="M 147.142857142857 300.571428571429  L 151.428571428571 294.571428571429  " stroke-width="2.57142857142857" stroke="#797979" fill="none" />
</svg>