﻿<?xml version="1.0" encoding="utf-8"?>
<svg version="1.1" xmlns:xlink="http://www.w3.org/1999/xlink" width="12px" height="12px" viewBox="120 339  12 12" xmlns="http://www.w3.org/2000/svg">
  <path d="M 126 339  C 129.36 339  132 341.64  132 345  C 132 348.36  129.36 351  126 351  C 122.64 351  120 348.36  120 345  C 120 341.64  122.64 339  126 339  Z " fill-rule="nonzero" fill="#ffffff" stroke="none" />
  <path d="M 126 339.5  C 129.08 339.5  131.5 341.92  131.5 345  C 131.5 348.08  129.08 350.5  126 350.5  C 122.92 350.5  120.5 348.08  120.5 345  C 120.5 341.92  122.92 339.5  126 339.5  Z " stroke-width="1" stroke="#797979" fill="none" />
  <path d="M 126 348  C 124.32 348  123 346.68  123 345  C 123 343.32  124.32 342  126 342  C 127.68 342  129 343.32  129 345  C 129 346.68  127.68 348  126 348  " fill-rule="nonzero" fill="#797979" stroke="none" />
</svg>