﻿<?xml version="1.0" encoding="utf-8"?>
<svg version="1.1" xmlns:xlink="http://www.w3.org/1999/xlink" width="12px" height="12px" viewBox="120 250  12 12" xmlns="http://www.w3.org/2000/svg">
  <path d="M 126 250  C 129.36 250  132 252.64  132 256  C 132 259.36  129.36 262  126 262  C 122.64 262  120 259.36  120 256  C 120 252.64  122.64 250  126 250  Z " fill-rule="nonzero" fill="#ffffff" stroke="none" />
  <path d="M 126 250.5  C 129.08 250.5  131.5 252.92  131.5 256  C 131.5 259.08  129.08 261.5  126 261.5  C 122.92 261.5  120.5 259.08  120.5 256  C 120.5 252.92  122.92 250.5  126 250.5  Z " stroke-width="1" stroke="#797979" fill="none" />
  <path d="M 126 259  C 124.32 259  123 257.68  123 256  C 123 254.32  124.32 253  126 253  C 127.68 253  129 254.32  129 256  C 129 257.68  127.68 259  126 259  " fill-rule="nonzero" fill="#797979" stroke="none" />
</svg>