﻿<?xml version="1.0" encoding="utf-8"?>
<svg version="1.1" xmlns:xlink="http://www.w3.org/1999/xlink" width="12px" height="12px" viewBox="524 280  12 12" xmlns="http://www.w3.org/2000/svg">
  <path d="M 524.5 280.5  L 535.5 280.5  L 535.5 291.5  L 524.5 291.5  L 524.5 280.5  Z " fill-rule="nonzero" fill="#ffffff" stroke="none" />
  <path d="M 524.5 280.5  L 535.5 280.5  L 535.5 291.5  L 524.5 291.5  L 524.5 280.5  Z " stroke-width="1" stroke="#797979" fill="none" />
  <path d="M 526.571428571429 286  L 529.142857142857 288.571428571429  " stroke-width="2.57142857142857" stroke="#797979" fill="none" />
  <path d="M 529.142857142857 288.571428571429  L 533.428571428571 282.571428571429  " stroke-width="2.57142857142857" stroke="#797979" fill="none" />
</svg>