﻿<?xml version="1.0" encoding="utf-8"?>
<svg version="1.1" xmlns:xlink="http://www.w3.org/1999/xlink" width="4px" height="4px" preserveAspectRatio="xMinYMid meet" viewBox="934 1385  4 2" xmlns="http://www.w3.org/2000/svg">
  <path d="M 1129 1394.5  L 1143 1385  L 1129 1375.5  L 1129 1394.5  Z " fill-rule="nonzero" fill="#0000ff" stroke="none" />
  <path d="M 936 1385  L 1131 1385  " stroke-width="2" stroke="#0000ff" fill="none" />
</svg>