﻿<?xml version="1.0" encoding="utf-8"?>
<svg version="1.1" xmlns:xlink="http://www.w3.org/1999/xlink" width="4px" height="4px" preserveAspectRatio="xMinYMid meet" viewBox="1170 2379  4 2" xmlns="http://www.w3.org/2000/svg">
  <path d="M 978 2370.5  L 964 2380  L 978 2389.5  L 978 2370.5  Z " fill-rule="nonzero" fill="#0000ff" stroke="none" />
  <path d="M 976 2380  L 1171 2380  " stroke-width="2" stroke="#0000ff" fill="none" />
</svg>