﻿<?xml version="1.0" encoding="utf-8"?>
<svg version="1.1" xmlns:xlink="http://www.w3.org/1999/xlink" width="514px" height="8px" preserveAspectRatio="xMinYMid meet" viewBox="904 2507  514 6" xmlns="http://www.w3.org/2000/svg">
  <g transform="matrix(0.891006524188365 -0.453990499739552 0.453990499739552 0.891006524188377 -1012.97472892897 800.656594484792 )">
    <path d="M 1400 2519.5  L 1414 2510  L 1400 2500.5  L 1400 2519.5  Z " fill-rule="nonzero" fill="#0000ff" stroke="none" transform="matrix(0.889181893419846 0.457553887989488 -0.457553887989488 0.889181893419846 1277.12008059317 -253.06661643961 )" />
    <path d="M 908 2510  L 1402 2510  " stroke-width="2" stroke="#0000ff" fill="none" transform="matrix(0.889181893419846 0.457553887989488 -0.457553887989488 0.889181893419846 1277.12008059317 -253.06661643961 )" />
  </g>
</svg>