﻿<?xml version="1.0" encoding="utf-8"?>
<svg version="1.1" xmlns:xlink="http://www.w3.org/1999/xlink" width="157px" height="24px" xmlns="http://www.w3.org/2000/svg">
  <defs>
    <filter x="856px" y="632px" width="157px" height="24px" filterUnits="userSpaceOnUse" id="filter258">
      <feOffset dx="0" dy="0" in="SourceAlpha" result="shadowOffsetInner" />
      <feGaussianBlur stdDeviation="2.5" in="shadowOffsetInner" result="shadowGaussian" />
      <feComposite in2="shadowGaussian" operator="atop" in="SourceAlpha" result="shadowComposite" />
      <feColorMatrix type="matrix" values="0 0 0 0 0  0 0 0 0 0  0 0 0 0 0  0 0 0 0.349019607843137 0  " in="shadowComposite" />
    </filter>
    <g id="widget259">
      <path d="M 861 637  L 1008 637  L 1008 651  L 861 651  L 861 637  Z " fill-rule="nonzero" fill="#ffffff" stroke="none" fill-opacity="0" />
    </g>
  </defs>
  <g transform="matrix(1 0 0 1 -856 -632 )">
    <use xlink:href="#widget259" filter="url(#filter258)" />
    <use xlink:href="#widget259" />
  </g>
</svg>