﻿<?xml version="1.0" encoding="utf-8"?>
<svg version="1.1" xmlns:xlink="http://www.w3.org/1999/xlink" width="1058px" height="5px" xmlns="http://www.w3.org/2000/svg">
  <g transform="matrix(1 0 0 1 -84 -1522 )">
    <path d="M 85 1524  L 1140 1524  " stroke-width="2" stroke-dasharray="6,2" stroke="#d9001b" fill="none" stroke-opacity="0.752941176470588" />
  </g>
</svg>