﻿<?xml version="1.0" encoding="utf-8"?>
<svg version="1.1" xmlns:xlink="http://www.w3.org/1999/xlink" width="12px" height="12px" viewBox="20 187  12 12" xmlns="http://www.w3.org/2000/svg">
  <path d="M 26 187  C 29.36 187  32 189.64  32 193  C 32 196.36  29.36 199  26 199  C 22.64 199  20 196.36  20 193  C 20 189.64  22.64 187  26 187  Z " fill-rule="nonzero" fill="#ffffff" stroke="none" />
  <path d="M 26 187.5  C 29.08 187.5  31.5 189.92  31.5 193  C 31.5 196.08  29.08 198.5  26 198.5  C 22.92 198.5  20.5 196.08  20.5 193  C 20.5 189.92  22.92 187.5  26 187.5  Z " stroke-width="1" stroke="#cccccc" fill="none" />
</svg>