﻿<?xml version="1.0" encoding="utf-8"?>
<svg version="1.1" xmlns:xlink="http://www.w3.org/1999/xlink" width="12px" height="12px" viewBox="20 156  12 12" xmlns="http://www.w3.org/2000/svg">
  <path d="M 26 156  C 29.36 156  32 158.64  32 162  C 32 165.36  29.36 168  26 168  C 22.64 168  20 165.36  20 162  C 20 158.64  22.64 156  26 156  Z " fill-rule="nonzero" fill="#ffffff" stroke="none" />
  <path d="M 26 156.5  C 29.08 156.5  31.5 158.92  31.5 162  C 31.5 165.08  29.08 167.5  26 167.5  C 22.92 167.5  20.5 165.08  20.5 162  C 20.5 158.92  22.92 156.5  26 156.5  Z " stroke-width="1" stroke="#cccccc" fill="none" />
</svg>