﻿<?xml version="1.0" encoding="utf-8"?>
<svg version="1.1" xmlns:xlink="http://www.w3.org/1999/xlink" width="320px" height="120px" xmlns="http://www.w3.org/2000/svg">
  <g transform="matrix(1 0 0 1 0 -815 )">
    <path d="M 1 816  L 319 816  L 319 934  L 1 934  L 1 816  Z " fill-rule="nonzero" fill="#ffffff" stroke="none" />
  </g>
</svg>