﻿<?xml version="1.0" encoding="utf-8"?>
<svg version="1.1" xmlns:xlink="http://www.w3.org/1999/xlink" width="12px" height="12px" viewBox="21 313  12 12" xmlns="http://www.w3.org/2000/svg">
  <path d="M 27 313  C 30.36 313  33 315.64  33 319  C 33 322.36  30.36 325  27 325  C 23.64 325  21 322.36  21 319  C 21 315.64  23.64 313  27 313  Z " fill-rule="nonzero" fill="#ffffff" stroke="none" />
  <path d="M 27 313.5  C 30.08 313.5  32.5 315.92  32.5 319  C 32.5 322.08  30.08 324.5  27 324.5  C 23.92 324.5  21.5 322.08  21.5 319  C 21.5 315.92  23.92 313.5  27 313.5  Z " stroke-width="1" stroke="#797979" fill="none" />
  <path d="M 27 322  C 25.32 322  24 320.68  24 319  C 24 317.32  25.32 316  27 316  C 28.68 316  30 317.32  30 319  C 30 320.68  28.68 322  27 322  " fill-rule="nonzero" fill="#797979" stroke="none" />
</svg>