﻿<?xml version="1.0" encoding="utf-8"?>
<svg version="1.1" xmlns:xlink="http://www.w3.org/1999/xlink" width="38px" height="36px" preserveAspectRatio="xMinYMid meet" viewBox="1312 607  38 34" xmlns="http://www.w3.org/2000/svg">
  <g transform="matrix(-1 0 0 -1 2662 1248 )">
    <path d="M 1323 633.5  L 1337 624  L 1323 614.5  L 1323 633.5  Z M 1325 629.9  L 1325 618.1  L 1333.9 624  L 1325 629.9  Z " fill-rule="nonzero" fill="#d9001b" stroke="none" />
    <path d="M 1260 624  L 1325 624  " stroke-width="2" stroke="#d9001b" fill="none" />
  </g>
</svg>