﻿<?xml version="1.0" encoding="utf-8"?>
<svg version="1.1" xmlns:xlink="http://www.w3.org/1999/xlink" width="20px" height="11px" xmlns="http://www.w3.org/2000/svg">
  <g transform="matrix(1 0 0 1 -385 -101 )">
    <path d="M 2.18253968253958 2.2  L 16.3690476190476 2.2  L 16.3690476190476 8.8  L 2.18253968253958 8.8  L 2.18253968253958 2.2  Z M 17.4603174603175 9.625  L 17.4603174603175 7.15  L 18.5515873015873 7.15  L 18.5515873015873 3.85  L 17.4603174603175 3.85  L 17.4603174603175 1.375  C 17.4603174603175 1.29479166666667  17.4347408234127 1.22890625  17.3835875496032 1.17734375  C 17.3324342757936 1.12578125  17.2670717592592 1.1  17.1875 1  L 1.36408730158723 1  C 1.28451554232805 1.1  1.21915302579362 1.12578125  1.1679997519841 1.17734375  C 1.11684647817464 1.22890625  1.09126984126988 1.29479166666667  1.09126984126988 1.375  L 1.09126984126988 9.625  C 1.09126984126988 9.70520833333333  1.11684647817464 9.77109375  1.1679997519841 9.82265625  C 1.21915302579362 9.87421875  1.28451554232805 9.9  1.36408730158723 9.9  L 17.1875 9.9  C 17.2670717592592 9.9  17.3324342757936 9.87421875  17.3835875496032 9.82265625  C 17.4347408234127 9.77109375  17.4603174603175 9.70520833333333  17.4603174603175 9.625  Z M 19.3231491815476 3.072265625  C 19.5362878224207 3.287109375  19.6428571428572 3.54635416666667  19.6428571428572 3.85  L 19.6428571428572 7.15  C 19.6428571428572 7.45364583333333  19.5362878224207 7.712890625  19.3231491815476 7.927734375  C 19.1100105406746 8.142578125  18.8528232473545 8.25  18.5515873015873 8.25  L 18.5515873015873 9.625  C 18.5515873015873 10.003125  18.4180204199736 10.3268229166667  18.150886656746 10.59609375  C 17.8837528935185 10.8653645833333  17.5626240079365 11  17.1875 11  L 1.36408730158723 11  C 0.988963293650784 11  0.667834408068813 10.8653645833333  0.400700644841265 10.59609375  C 0.133566881613717 10.3268229166667  0 10.003125  0 9.625  L 0 1.375  C 0 0.996875000000001  0.133566881613717 0.673177083333332  0.400700644841265 0.40390625  C 0.667834408068813 0.134635416666665  0.988963293650784 0  1.36408730158723 0  L 17.1875 0  C 17.5626240079365 0  17.8837528935185 0.134635416666665  18.150886656746 0.40390625  C 18.4180204199736 0.673177083333332  18.5515873015873 0.996875000000001  18.5515873015873 1.375  L 18.5515873015873 2.75  C 18.8528232473545 2.75  19.1100105406746 2.857421875  19.3231491815476 3.072265625  Z " fill-rule="nonzero" fill="#333333" stroke="none" transform="matrix(1 0 0 1 385 101 )" />
  </g>
</svg>