﻿<?xml version="1.0" encoding="utf-8"?>
<svg version="1.1" xmlns:xlink="http://www.w3.org/1999/xlink" width="12px" height="12px" viewBox="156 564  12 12" xmlns="http://www.w3.org/2000/svg">
  <path d="M 162 564  C 165.36 564  168 566.64  168 570  C 168 573.36  165.36 576  162 576  C 158.64 576  156 573.36  156 570  C 156 566.64  158.64 564  162 564  Z " fill-rule="nonzero" fill="#f0f0f0" stroke="none" />
  <path d="M 162 564.5  C 165.08 564.5  167.5 566.92  167.5 570  C 167.5 573.08  165.08 575.5  162 575.5  C 158.92 575.5  156.5 573.08  156.5 570  C 156.5 566.92  158.92 564.5  162 564.5  Z " stroke-width="1" stroke="#797979" fill="none" />
</svg>