﻿<?xml version="1.0" encoding="utf-8"?>
<svg version="1.1" xmlns:xlink="http://www.w3.org/1999/xlink" width="12px" height="12px" viewBox="105 397  12 12" xmlns="http://www.w3.org/2000/svg">
  <path d="M 111 397  C 114.36 397  117 399.64  117 403  C 117 406.36  114.36 409  111 409  C 107.64 409  105 406.36  105 403  C 105 399.64  107.64 397  111 397  Z " fill-rule="nonzero" fill="#ffffff" stroke="none" />
  <path d="M 111 397.5  C 114.08 397.5  116.5 399.92  116.5 403  C 116.5 406.08  114.08 408.5  111 408.5  C 107.92 408.5  105.5 406.08  105.5 403  C 105.5 399.92  107.92 397.5  111 397.5  Z " stroke-width="1" stroke="#797979" fill="none" />
  <path d="M 111 406  C 109.32 406  108 404.68  108 403  C 108 401.32  109.32 400  111 400  C 112.68 400  114 401.32  114 403  C 114 404.68  112.68 406  111 406  " fill-rule="nonzero" fill="#797979" stroke="none" />
</svg>