﻿<?xml version="1.0" encoding="utf-8"?>
<svg version="1.1" xmlns:xlink="http://www.w3.org/1999/xlink" width="16px" height="16px" xmlns="http://www.w3.org/2000/svg">
  <g transform="matrix(1 0 0 1 -61 -612 )">
    <path d="M 69 616  C 71.24 616  73 617.76  73 620  C 73 622.24  71.24 624  69 624  C 66.76 624  65 622.24  65 620  C 65 617.76  66.76 616  69 616  Z " fill-rule="nonzero" fill="#ffffff" stroke="none" />
    <path d="M 69 614.5  C 72.08 614.5  74.5 616.92  74.5 620  C 74.5 623.08  72.08 625.5  69 625.5  C 65.92 625.5  63.5 623.08  63.5 620  C 63.5 616.92  65.92 614.5  69 614.5  Z " stroke-width="5" stroke="#035df3" fill="none" />
  </g>
</svg>