﻿<?xml version="1.0" encoding="utf-8"?>
<svg version="1.1" xmlns:xlink="http://www.w3.org/1999/xlink" width="124px" height="24px" xmlns="http://www.w3.org/2000/svg">
  <defs>
    <filter x="49px" y="370px" width="124px" height="24px" filterUnits="userSpaceOnUse" id="filter336">
      <feOffset dx="0" dy="0" in="SourceAlpha" result="shadowOffsetInner" />
      <feGaussianBlur stdDeviation="2.5" in="shadowOffsetInner" result="shadowGaussian" />
      <feComposite in2="shadowGaussian" operator="atop" in="SourceAlpha" result="shadowComposite" />
      <feColorMatrix type="matrix" values="0 0 0 0 0  0 0 0 0 0  0 0 0 0 0  0 0 0 0.349019607843137 0  " in="shadowComposite" />
    </filter>
    <g id="widget337">
      <path d="M 54 375  L 168 375  L 168 389  L 54 389  L 54 375  Z " fill-rule="nonzero" fill="#ffffff" stroke="none" fill-opacity="0" />
    </g>
  </defs>
  <g transform="matrix(1 0 0 1 -49 -370 )">
    <use xlink:href="#widget337" filter="url(#filter336)" />
    <use xlink:href="#widget337" />
  </g>
</svg>