﻿<?xml version="1.0" encoding="utf-8"?>
<svg version="1.1" xmlns:xlink="http://www.w3.org/1999/xlink" width="92px" height="24px" xmlns="http://www.w3.org/2000/svg">
  <defs>
    <filter x="111px" y="175px" width="92px" height="24px" filterUnits="userSpaceOnUse" id="filter280">
      <feOffset dx="0" dy="0" in="SourceAlpha" result="shadowOffsetInner" />
      <feGaussianBlur stdDeviation="2.5" in="shadowOffsetInner" result="shadowGaussian" />
      <feComposite in2="shadowGaussian" operator="atop" in="SourceAlpha" result="shadowComposite" />
      <feColorMatrix type="matrix" values="0 0 0 0 0  0 0 0 0 0  0 0 0 0 0  0 0 0 0.349019607843137 0  " in="shadowComposite" />
    </filter>
    <g id="widget281">
      <path d="M 116 180  L 198 180  L 198 194  L 116 194  L 116 180  Z " fill-rule="nonzero" fill="#ffffff" stroke="none" fill-opacity="0" />
    </g>
  </defs>
  <g transform="matrix(1 0 0 1 -111 -175 )">
    <use xlink:href="#widget281" filter="url(#filter280)" />
    <use xlink:href="#widget281" />
  </g>
</svg>