﻿<?xml version="1.0" encoding="utf-8"?>
<svg version="1.1" xmlns:xlink="http://www.w3.org/1999/xlink" width="28px" height="26px" preserveAspectRatio="xMinYMid meet" viewBox="1194 291  28 24" xmlns="http://www.w3.org/2000/svg">
  <g transform="matrix(-1 0 0 -1 2416 606 )">
    <path d="M 1121.7 298.4  L 1116 303.5  L 1121.7 308.6  L 1127.1 303.5  L 1121.7 298.4  Z M 1205.3 308.6  L 1211 303.5  L 1205.3 298.4  L 1199.9 303.5  L 1205.3 308.6  Z " fill-rule="nonzero" fill="#ff0000" stroke="none" />
    <path d="M 1119 303.5  L 1208 303.5  " stroke-width="3" stroke="#ff0000" fill="none" />
  </g>
</svg>