﻿<?xml version="1.0" encoding="utf-8"?>
<svg version="1.1" xmlns:xlink="http://www.w3.org/1999/xlink" width="28px" height="26px" preserveAspectRatio="xMinYMid meet" viewBox="854 1271  28 24" xmlns="http://www.w3.org/2000/svg">
  <g transform="matrix(0 -1 1 0 -415 2151 )">
    <path d="M 872.6 1285.7  L 867.5 1280  L 862.4 1285.7  L 867.5 1291.1  L 872.6 1285.7  Z M 862.4 1392.3  L 867.5 1398  L 872.6 1392.3  L 867.5 1386.9  L 862.4 1392.3  Z " fill-rule="nonzero" fill="#ff0000" stroke="none" />
    <path d="M 867.5 1283  L 867.5 1395  " stroke-width="3" stroke="#ff0000" fill="none" />
  </g>
</svg>