﻿<?xml version="1.0" encoding="utf-8"?>
<svg version="1.1" xmlns:xlink="http://www.w3.org/1999/xlink" width="109px" height="24px" xmlns="http://www.w3.org/2000/svg">
  <defs>
    <filter x="113px" y="272px" width="109px" height="24px" filterUnits="userSpaceOnUse" id="filter272">
      <feOffset dx="0" dy="0" in="SourceAlpha" result="shadowOffsetInner" />
      <feGaussianBlur stdDeviation="2.5" in="shadowOffsetInner" result="shadowGaussian" />
      <feComposite in2="shadowGaussian" operator="atop" in="SourceAlpha" result="shadowComposite" />
      <feColorMatrix type="matrix" values="0 0 0 0 0  0 0 0 0 0  0 0 0 0 0  0 0 0 0.349019607843137 0  " in="shadowComposite" />
    </filter>
    <g id="widget273">
      <path d="M 118 277  L 217 277  L 217 291  L 118 291  L 118 277  Z " fill-rule="nonzero" fill="#ffffff" stroke="none" fill-opacity="0" />
    </g>
  </defs>
  <g transform="matrix(1 0 0 1 -113 -272 )">
    <use xlink:href="#widget273" filter="url(#filter272)" />
    <use xlink:href="#widget273" />
  </g>
</svg>