﻿<?xml version="1.0" encoding="utf-8"?>
<svg version="1.1" xmlns:xlink="http://www.w3.org/1999/xlink" width="83px" height="10px" preserveAspectRatio="xMinYMid meet" viewBox="395 3491  83 8" xmlns="http://www.w3.org/2000/svg">
  <path d="M 395 3495  L 467 3495  " stroke-width="2" stroke="#0000ff" fill="none" />
  <path d="M 466 3502.6  L 473 3495  L 466 3487.4  L 466 3502.6  Z " fill-rule="nonzero" fill="#0000ff" stroke="none" />
</svg>