﻿<?xml version="1.0" encoding="utf-8"?>
<svg version="1.1" xmlns:xlink="http://www.w3.org/1999/xlink" width="10px" height="78px" preserveAspectRatio="xMidYMin meet" viewBox="959 4058  8 78" xmlns="http://www.w3.org/2000/svg">
  <path d="M 928 4063  L 958 4063  A 5 5 0 0 1 963 4068 L 963 4126  A 5 5 0 0 0 968 4131 L 1011 4131  " stroke-width="2" stroke="#0000ff" fill="none" />
  <path d="M 1010 4138.6  L 1017 4131  L 1010 4123.4  L 1010 4138.6  Z " fill-rule="nonzero" fill="#0000ff" stroke="none" />
</svg>