﻿<?xml version="1.0" encoding="utf-8"?>
<svg version="1.1" xmlns:xlink="http://www.w3.org/1999/xlink" width="20px" height="20px" preserveAspectRatio="xMinYMid meet" viewBox="752 4950  20 18" xmlns="http://www.w3.org/2000/svg">
  <path d="M 670 4891  L 708 4891  A 5 5 0 0 1 713 4896 L 713 4954  A 5 5 0 0 0 718 4959 L 761 4959  " stroke-width="2" stroke="#0000ff" fill="none" />
  <path d="M 760 4966.6  L 767 4959  L 760 4951.4  L 760 4966.6  Z " fill-rule="nonzero" fill="#0000ff" stroke="none" />
</svg>