﻿<?xml version="1.0" encoding="utf-8"?>
<svg version="1.1" xmlns:xlink="http://www.w3.org/1999/xlink" width="75px" height="10px" preserveAspectRatio="xMinYMid meet" viewBox="120 4960  75 8" xmlns="http://www.w3.org/2000/svg">
  <path d="M 120 4964  L 184 4964  " stroke-width="2" stroke="#0000ff" fill="none" />
  <path d="M 183 4971.6  L 190 4964  L 183 4956.4  L 183 4971.6  Z " fill-rule="nonzero" fill="#0000ff" stroke="none" />
</svg>