﻿<?xml version="1.0" encoding="utf-8"?>
<svg version="1.1" xmlns:xlink="http://www.w3.org/1999/xlink" width="20px" height="20px" preserveAspectRatio="xMinYMid meet" viewBox="725 6309  20 18" xmlns="http://www.w3.org/2000/svg">
  <path d="M 621 6230  L 672 6230  A 5 5 0 0 1 677 6235 L 677 6313  A 5 5 0 0 0 682 6318 L 734 6318  " stroke-width="2" stroke="#0000ff" fill="none" />
  <path d="M 733 6325.6  L 740 6318  L 733 6310.4  L 733 6325.6  Z " fill-rule="nonzero" fill="#0000ff" stroke="none" />
</svg>