﻿<?xml version="1.0" encoding="utf-8"?>
<svg version="1.1" xmlns:xlink="http://www.w3.org/1999/xlink" width="54px" height="10px" preserveAspectRatio="xMinYMid meet" viewBox="497 5044  54 8" xmlns="http://www.w3.org/2000/svg">
  <path d="M 456 4964  L 497 4964  A 5 5 0 0 1 502 4969 L 502 5043  A 5 5 0 0 0 507 5048 L 545 5048  " stroke-width="2" stroke="#0000ff" fill="none" />
  <path d="M 544 5055.6  L 551 5048  L 544 5040.4  L 544 5055.6  Z " fill-rule="nonzero" fill="#0000ff" stroke="none" />
</svg>