﻿<?xml version="1.0" encoding="utf-8"?>
<svg version="1.1" xmlns:xlink="http://www.w3.org/1999/xlink" width="633px" height="10px" preserveAspectRatio="xMinYMid meet" viewBox="1221 3290  633 8" xmlns="http://www.w3.org/2000/svg">
  <path d="M 1226 3447  L 1226 3299  A 5 5 0 0 1 1231 3294 L 1848 3294  " stroke-width="2" stroke="#0000ff" fill="none" />
  <path d="M 1847 3301.6  L 1854 3294  L 1847 3286.4  L 1847 3301.6  Z " fill-rule="nonzero" fill="#0000ff" stroke="none" />
</svg>