﻿<?xml version="1.0" encoding="utf-8"?>
<svg version="1.1" xmlns:xlink="http://www.w3.org/1999/xlink" width="10px" height="93px" preserveAspectRatio="xMidYMin meet" viewBox="1937 2813  8 93" xmlns="http://www.w3.org/2000/svg">
  <path d="M 1941 2906  L 1941 2823  A 5 5 0 0 1 1946 2818 L 2452 2818  " stroke-width="2" stroke="#0000ff" fill="none" />
  <path d="M 2451 2825.6  L 2458 2818  L 2451 2810.4  L 2451 2825.6  Z " fill-rule="nonzero" fill="#0000ff" stroke="none" />
</svg>