﻿<?xml version="1.0" encoding="utf-8"?>
<svg version="1.1" xmlns:xlink="http://www.w3.org/1999/xlink" width="10px" height="74px" preserveAspectRatio="xMidYMin meet" viewBox="2316 2945  8 74" xmlns="http://www.w3.org/2000/svg">
  <path d="M 2044 2934  L 2044 2945  A 5 5 0 0 0 2049 2950 L 2315 2950  A 5 5 0 0 1 2320 2955 L 2320 3009  A 5 5 0 0 0 2325 3014 L 2452 3014  " stroke-width="2" stroke="#0000ff" fill="none" />
  <path d="M 2451 3021.6  L 2458 3014  L 2451 3006.4  L 2451 3021.6  Z " fill-rule="nonzero" fill="#0000ff" stroke="none" />
</svg>