﻿<?xml version="1.0" encoding="utf-8"?>
<svg version="1.1" xmlns:xlink="http://www.w3.org/1999/xlink" width="34px" height="10px" preserveAspectRatio="xMinYMid meet" viewBox="2646 4254  34 8" xmlns="http://www.w3.org/2000/svg">
  <path d="M 2572 3916  L 2646 3916  A 5 5 0 0 1 2651 3921 L 2651 4253  A 5 5 0 0 0 2656 4258 L 2674 4258  " stroke-width="2" stroke="#0000ff" fill="none" />
  <path d="M 2673 4265.6  L 2680 4258  L 2673 4250.4  L 2673 4265.6  Z " fill-rule="nonzero" fill="#0000ff" stroke="none" />
</svg>