﻿<?xml version="1.0" encoding="utf-8"?>
<svg version="1.1" xmlns:xlink="http://www.w3.org/1999/xlink" width="10px" height="95px" preserveAspectRatio="xMidYMin meet" viewBox="4789 4192  8 95" xmlns="http://www.w3.org/2000/svg">
  <path d="M 4716 4282  L 4788 4282  A 5 5 0 0 0 4793 4277 L 4793 4202  A 5 5 0 0 1 4798 4197 L 4820 4197  " stroke-width="2" stroke="#0000ff" fill="none" />
  <path d="M 4819 4204.6  L 4826 4197  L 4819 4189.4  L 4819 4204.6  Z " fill-rule="nonzero" fill="#0000ff" stroke="none" />
</svg>