﻿<?xml version="1.0" encoding="utf-8"?>
<svg version="1.1" xmlns:xlink="http://www.w3.org/1999/xlink" width="236px" height="10px" preserveAspectRatio="xMinYMid meet" viewBox="2971 3969  236 8" xmlns="http://www.w3.org/2000/svg">
  <path d="M 2971 3973  L 3197 3973  A 5 5 0 0 0 3202 3968 L 3202 3897  A 5 5 0 0 1 3207 3892 L 3223 3892  " stroke-width="2" stroke="#0000ff" fill="none" />
  <path d="M 3222 3899.6  L 3229 3892  L 3222 3884.4  L 3222 3899.6  Z " fill-rule="nonzero" fill="#0000ff" stroke="none" />
</svg>