﻿<?xml version="1.0" encoding="utf-8"?>
<svg version="1.1" xmlns:xlink="http://www.w3.org/1999/xlink" width="444px" height="10px" preserveAspectRatio="xMinYMid meet" viewBox="3798 4298  444 8" xmlns="http://www.w3.org/2000/svg">
  <path d="M 3803 4345  L 3803 4307  A 5 5 0 0 1 3808 4302 L 4236 4302  " stroke-width="2" stroke="#0000ff" fill="none" />
  <path d="M 4235 4309.6  L 4242 4302  L 4235 4294.4  L 4235 4309.6  Z " fill-rule="nonzero" fill="#0000ff" stroke="none" />
</svg>