﻿<?xml version="1.0" encoding="utf-8"?>
<svg version="1.1" xmlns:xlink="http://www.w3.org/1999/xlink" width="396px" height="10px" preserveAspectRatio="xMinYMid meet" viewBox="1727 4813  396 8" xmlns="http://www.w3.org/2000/svg">
  <path d="M 1732 4890  L 1732 4822  A 5 5 0 0 1 1737 4817 L 2117 4817  " stroke-width="2" stroke="#0000ff" fill="none" />
  <path d="M 2116 4824.6  L 2123 4817  L 2116 4809.4  L 2116 4824.6  Z " fill-rule="nonzero" fill="#0000ff" stroke="none" />
</svg>