﻿<?xml version="1.0" encoding="utf-8"?>
<svg version="1.1" xmlns:xlink="http://www.w3.org/1999/xlink" width="20px" height="20px" preserveAspectRatio="xMinYMid meet" viewBox="3430 5589  20 18" xmlns="http://www.w3.org/2000/svg">
  <path d="M 2801 5508  L 2801 5535  A 5 5 0 0 0 2806 5540 L 3435 5540  A 5 5 0 0 1 3440 5545 L 3440 5597  " stroke-width="2" stroke="#0000ff" fill="none" />
  <path d="M 3432.4 5596  L 3440 5603  L 3447.6 5596  L 3432.4 5596  Z " fill-rule="nonzero" fill="#0000ff" stroke="none" />
</svg>