﻿<?xml version="1.0" encoding="utf-8"?>
<svg version="1.1" xmlns:xlink="http://www.w3.org/1999/xlink" width="20px" height="20px" preserveAspectRatio="xMinYMid meet" viewBox="3778 5856  20 18" xmlns="http://www.w3.org/2000/svg">
  <path d="M 3683 5702  L 3747 5702  A 5 5 0 0 1 3752 5707 L 3752 5860  A 5 5 0 0 0 3757 5865 L 3787 5865  " stroke-width="2" stroke="#0000ff" fill="none" />
  <path d="M 3786 5872.6  L 3793 5865  L 3786 5857.4  L 3786 5872.6  Z " fill-rule="nonzero" fill="#0000ff" stroke="none" />
</svg>