﻿<?xml version="1.0" encoding="utf-8"?>
<svg version="1.1" xmlns:xlink="http://www.w3.org/1999/xlink" width="20px" height="20px" preserveAspectRatio="xMinYMid meet" viewBox="4186 5669  20 18" xmlns="http://www.w3.org/2000/svg">
  <path d="M 4093 5585  L 4133.01204819277 5585  A 5 5 0 0 1 4138.01204819277 5590 L 4138.01204819277 5673  A 5 5 0 0 0 4143.01204819277 5678 L 4195 5678  " stroke-width="2" stroke="#0000ff" fill="none" />
  <path d="M 4194 5685.6  L 4201 5678  L 4194 5670.4  L 4194 5685.6  Z " fill-rule="nonzero" fill="#0000ff" stroke="none" />
</svg>