﻿<?xml version="1.0" encoding="utf-8"?>
<svg version="1.1" xmlns:xlink="http://www.w3.org/1999/xlink" width="20px" height="20px" preserveAspectRatio="xMinYMid meet" viewBox="4181 6203  20 18" xmlns="http://www.w3.org/2000/svg">
  <path d="M 4088 6119  L 4128.01204819277 6119  A 5 5 0 0 1 4133.01204819277 6124 L 4133.01204819277 6207  A 5 5 0 0 0 4138.01204819277 6212 L 4190 6212  " stroke-width="2" stroke="#0000ff" fill="none" />
  <path d="M 4189 6219.6  L 4196 6212  L 4189 6204.4  L 4189 6219.6  Z " fill-rule="nonzero" fill="#0000ff" stroke="none" />
</svg>