﻿<?xml version="1.0" encoding="utf-8"?>
<svg version="1.1" xmlns:xlink="http://www.w3.org/1999/xlink" width="68px" height="10px" preserveAspectRatio="xMinYMid meet" viewBox="4128 6208  68 8" xmlns="http://www.w3.org/2000/svg">
  <path d="M 4088 6399  L 4128 6399  A 5 5 0 0 0 4133 6394 L 4133 6217  A 5 5 0 0 1 4138 6212 L 4190 6212  " stroke-width="2" stroke="#0000ff" fill="none" />
  <path d="M 4189 6219.6  L 4196 6212  L 4189 6204.4  L 4189 6219.6  Z " fill-rule="nonzero" fill="#0000ff" stroke="none" />
</svg>