﻿<?xml version="1.0" encoding="utf-8"?>
<svg version="1.1" xmlns:xlink="http://www.w3.org/1999/xlink" width="46px" height="10px" preserveAspectRatio="xMinYMid meet" viewBox="3742 6395  46 8" xmlns="http://www.w3.org/2000/svg">
  <path d="M 3676 6236  L 3742 6236  A 5 5 0 0 1 3747 6241 L 3747 6394  A 5 5 0 0 0 3752 6399 L 3782 6399  " stroke-width="2" stroke="#0000ff" fill="none" />
  <path d="M 3781 6406.6  L 3788 6399  L 3781 6391.4  L 3781 6406.6  Z " fill-rule="nonzero" fill="#0000ff" stroke="none" />
</svg>