﻿<?xml version="1.0" encoding="utf-8"?>
<svg version="1.1" xmlns:xlink="http://www.w3.org/1999/xlink" width="20px" height="20px" preserveAspectRatio="xMinYMid meet" viewBox="1578 6482  20 18" xmlns="http://www.w3.org/2000/svg">
  <path d="M 1537 6231  L 1537 6486  A 5 5 0 0 0 1542 6491 L 1587 6491  " stroke-width="2" stroke="#0000ff" fill="none" />
  <path d="M 1586 6498.6  L 1593 6491  L 1586 6483.4  L 1586 6498.6  Z " fill-rule="nonzero" fill="#0000ff" stroke="none" />
</svg>