﻿<?xml version="1.0" encoding="utf-8"?>
<svg version="1.1" xmlns:xlink="http://www.w3.org/1999/xlink" width="90px" height="10px" preserveAspectRatio="xMinYMid meet" viewBox="2557 6207  90 8" xmlns="http://www.w3.org/2000/svg">
  <path d="M 2557 6211  L 2636 6211  " stroke-width="2" stroke="#0000ff" fill="none" />
  <path d="M 2635 6218.6  L 2642 6211  L 2635 6203.4  L 2635 6218.6  Z " fill-rule="nonzero" fill="#0000ff" stroke="none" />
</svg>