﻿<?xml version="1.0" encoding="utf-8"?>
<svg version="1.1" xmlns:xlink="http://www.w3.org/1999/xlink" width="109px" height="10px" preserveAspectRatio="xMinYMid meet" viewBox="507 7006  109 8" xmlns="http://www.w3.org/2000/svg">
  <path d="M 507 7010  L 605 7010  " stroke-width="2" stroke="#0000ff" fill="none" />
  <path d="M 604 7017.6  L 611 7010  L 604 7002.4  L 604 7017.6  Z " fill-rule="nonzero" fill="#0000ff" stroke="none" />
</svg>