﻿<?xml version="1.0" encoding="utf-8"?>
<svg version="1.1" xmlns:xlink="http://www.w3.org/1999/xlink" width="10px" height="183px" preserveAspectRatio="xMidYMin meet" viewBox="2674 7015  8 183" xmlns="http://www.w3.org/2000/svg">
  <path d="M 2625 7020  L 2673 7020  A 5 5 0 0 1 2678 7025 L 2678 7188  A 5 5 0 0 0 2683 7193 L 2713 7193  " stroke-width="2" stroke="#0000ff" fill="none" />
  <path d="M 2712 7200.6  L 2719 7193  L 2712 7185.4  L 2712 7200.6  Z " fill-rule="nonzero" fill="#0000ff" stroke="none" />
</svg>