﻿<?xml version="1.0" encoding="utf-8"?>
<svg version="1.1" xmlns:xlink="http://www.w3.org/1999/xlink" width="24px" height="24px" preserveAspectRatio="xMinYMid meet" viewBox="3146 7183  24 22" xmlns="http://www.w3.org/2000/svg">
  <g transform="matrix(-1 0 0 -1 6316 14388 )">
    <path d="M 3157 7201.6  L 3164 7194  L 3157 7186.4  L 3157 7201.6  Z " fill-rule="nonzero" fill="#0000ff" stroke="none" />
    <path d="M 3019 7194  L 3158 7194  " stroke-width="2" stroke="#0000ff" fill="none" />
  </g>
</svg>