﻿<?xml version="1.0" encoding="utf-8"?>
<svg version="1.1" xmlns:xlink="http://www.w3.org/1999/xlink" width="222px" height="27px" xmlns="http://www.w3.org/2000/svg">
  <defs>
    <filter x="49px" y="541px" width="222px" height="27px" filterUnits="userSpaceOnUse" id="filter403">
      <feOffset dx="0" dy="0" in="SourceAlpha" result="shadowOffsetInner" />
      <feGaussianBlur stdDeviation="2.5" in="shadowOffsetInner" result="shadowGaussian" />
      <feComposite in2="shadowGaussian" operator="atop" in="SourceAlpha" result="shadowComposite" />
      <feColorMatrix type="matrix" values="0 0 0 0 0  0 0 0 0 0  0 0 0 0 0  0 0 0 0.349019607843137 0  " in="shadowComposite" />
    </filter>
    <g id="widget404">
      <path d="M 54 546  L 266 546  L 266 563  L 54 563  L 54 546  Z " fill-rule="nonzero" fill="#ffffff" stroke="none" fill-opacity="0" />
    </g>
  </defs>
  <g transform="matrix(1 0 0 1 -49 -541 )">
    <use xlink:href="#widget404" filter="url(#filter403)" />
    <use xlink:href="#widget404" />
  </g>
</svg>