﻿<?xml version="1.0" encoding="utf-8"?>
<svg version="1.1" xmlns:xlink="http://www.w3.org/1999/xlink" width="164px" height="27px" xmlns="http://www.w3.org/2000/svg">
  <defs>
    <filter x="49px" y="519px" width="164px" height="27px" filterUnits="userSpaceOnUse" id="filter148">
      <feOffset dx="0" dy="0" in="SourceAlpha" result="shadowOffsetInner" />
      <feGaussianBlur stdDeviation="2.5" in="shadowOffsetInner" result="shadowGaussian" />
      <feComposite in2="shadowGaussian" operator="atop" in="SourceAlpha" result="shadowComposite" />
      <feColorMatrix type="matrix" values="0 0 0 0 0  0 0 0 0 0  0 0 0 0 0  0 0 0 0.349019607843137 0  " in="shadowComposite" />
    </filter>
    <g id="widget149">
      <path d="M 54 524  L 208 524  L 208 541  L 54 541  L 54 524  Z " fill-rule="nonzero" fill="#ffffff" stroke="none" fill-opacity="0" />
    </g>
  </defs>
  <g transform="matrix(1 0 0 1 -49 -519 )">
    <use xlink:href="#widget149" filter="url(#filter148)" />
    <use xlink:href="#widget149" />
  </g>
</svg>