﻿<?xml version="1.0" encoding="utf-8"?>
<svg version="1.1" xmlns:xlink="http://www.w3.org/1999/xlink" width="9px" height="16px" xmlns="http://www.w3.org/2000/svg">
  <g transform="matrix(1 0 0 1 -134 -478 )">
    <path d="M 8.703125 0.296875  C 8.9010416666667 0.494791666666629  9 0.729166666666629  9 1  L 9 15  C 9 15.2708333333334  8.9010416666667 15.5052083333334  8.703125 15.703125  C 8.50520833333332 15.9010416666666  8.27083333333333 16  8 16  C 7.72916666666669 16  7.4947916666667 15.9010416666666  7.296875 15.703125  L 0.296875000000003 8.703125  C 0.0989583333333513 8.50520833333337  0 8.27083333333337  0 8  C 0 7.72916666666663  0.0989583333333513 7.49479166666663  0.296875000000003 7.296875  L 7.296875 0.296875  C 7.4947916666667 0.0989583333333712  7.72916666666669 0  8 0  C 8.27083333333333 0  8.50520833333332 0.0989583333333712  8.703125 0.296875  Z " fill-rule="nonzero" fill="#0099ff" stroke="none" transform="matrix(1 0 0 1 134 478 )" />
  </g>
</svg>