﻿<?xml version="1.0" encoding="utf-8"?>
<svg version="1.1" xmlns:xlink="http://www.w3.org/1999/xlink" width="10px" height="16px" xmlns="http://www.w3.org/2000/svg">
  <g transform="matrix(1 0 0 1 -200 -478 )">
    <path d="M 7.373046875 8.46753246753246  L 0.439453125 15.8441558441559  C 0.315755208333325 15.9757575757576  0.211588541666675 16.0207792207792  0.126953125 15.9792207792208  C 0.0423177083333247 15.9376623376623  0 15.8268398268398  0 15.6467532467532  L 0 0.353246753246765  C 0 0.17316017316017  0.0423177083333247 0.0623376623376544  0.126953125 0.0207792207792181  C 0.211588541666675 -0.0207792207792181  0.315755208333325 0.0242424242424022  0.439453125 0.155844155844136  L 7.373046875 7.53246753246754  C 7.4251302083333 7.58787878787876  7.4674479166667 7.65367965367966  7.5 7.72987012987011  L 7.5 0.685714285714312  C 7.5 0.505627705627717  7.5618489583333 0.349783549783524  7.685546875 0.218181818181847  C 7.8092447916667 0.0865800865800566  7.9557291666667 0.0207792207792181  8.125 0.0207792207792181  L 9.375 0.0207792207792181  C 9.5442708333333 0.0207792207792181  9.6907552083333 0.0865800865800566  9.814453125 0.218181818181847  C 9.9381510416667 0.349783549783524  10 0.505627705627717  10 0.685714285714312  L 10 15.3142857142857  C 10 15.4943722943723  9.9381510416667 15.6502164502165  9.814453125 15.7818181818182  C 9.6907552083333 15.9134199134199  9.5442708333333 15.9792207792208  9.375 15.9792207792208  L 8.125 15.9792207792208  C 7.9557291666667 15.9792207792208  7.8092447916667 15.9134199134199  7.685546875 15.7818181818182  C 7.5618489583333 15.6502164502165  7.5 15.4943722943723  7.5 15.3142857142857  L 7.5 8.27012987012989  C 7.4674479166667 8.33939393939397  7.4251302083333 8.40519480519481  7.373046875 8.46753246753246  Z " fill-rule="nonzero" fill="#0099ff" stroke="none" transform="matrix(1 0 0 1 200 478 )" />
  </g>
</svg>