﻿<?xml version="1.0" encoding="utf-8"?>
<svg version="1.1" xmlns:xlink="http://www.w3.org/1999/xlink" width="12px" height="12px" viewBox="439 313  12 12" xmlns="http://www.w3.org/2000/svg">
  <path d="M 445 313  C 448.36 313  451 315.64  451 319  C 451 322.36  448.36 325  445 325  C 441.64 325  439 322.36  439 319  C 439 315.64  441.64 313  445 313  Z " fill-rule="nonzero" fill="#ffffff" stroke="none" />
  <path d="M 445 313.5  C 448.08 313.5  450.5 315.92  450.5 319  C 450.5 322.08  448.08 324.5  445 324.5  C 441.92 324.5  439.5 322.08  439.5 319  C 439.5 315.92  441.92 313.5  445 313.5  Z " stroke-width="1" stroke="#797979" fill="none" />
</svg>