﻿<?xml version="1.0" encoding="utf-8"?>
<svg version="1.1" xmlns:xlink="http://www.w3.org/1999/xlink" width="12px" height="12px" viewBox="378 313  12 12" xmlns="http://www.w3.org/2000/svg">
  <path d="M 384 313  C 387.36 313  390 315.64  390 319  C 390 322.36  387.36 325  384 325  C 380.64 325  378 322.36  378 319  C 378 315.64  380.64 313  384 313  Z " fill-rule="nonzero" fill="#ffffff" stroke="none" />
  <path d="M 384 313.5  C 387.08 313.5  389.5 315.92  389.5 319  C 389.5 322.08  387.08 324.5  384 324.5  C 380.92 324.5  378.5 322.08  378.5 319  C 378.5 315.92  380.92 313.5  384 313.5  Z " stroke-width="1" stroke="#797979" fill="none" />
  <path d="M 384 322  C 382.32 322  381 320.68  381 319  C 381 317.32  382.32 316  384 316  C 385.68 316  387 317.32  387 319  C 387 320.68  385.68 322  384 322  " fill-rule="nonzero" fill="#797979" stroke="none" />
</svg>