﻿<?xml version="1.0" encoding="utf-8"?>
<svg version="1.1" xmlns:xlink="http://www.w3.org/1999/xlink" width="10px" height="207px" preserveAspectRatio="xMidYMin meet" viewBox="430 749  8 207" xmlns="http://www.w3.org/2000/svg">
  <defs>
    <mask fill="white" id="clip375">
      <path d="M 374 822  L 494 822  L 494 877  L 374 877  Z M 374 749  L 494 749  L 494 968  L 374 968  Z " fill-rule="evenodd" />
    </mask>
  </defs>
  <path d="M 434 822  L 434 749  M 434 877  L 434 949  " stroke-width="2" stroke="#999999" fill="none" />
  <path d="M 426 941.6  L 434 951  L 442 941.6  L 434 945.2  L 426 941.6  Z " fill-rule="nonzero" fill="#999999" stroke="none" mask="url(#clip375)" />
</svg>