﻿<?xml version="1.0" encoding="utf-8"?>
<svg version="1.1" xmlns:xlink="http://www.w3.org/1999/xlink" width="150px" height="108px" xmlns="http://www.w3.org/2000/svg">
  <g transform="matrix(1 0 0 1 -359 -237 )">
    <path d="M 434 344.39188816818  L 359.844599766417 291  L 434 237.60811183182  L 508.155400233583 291  L 434 344.39188816818  Z " fill-rule="nonzero" fill="#ffffff" stroke="none" />
    <path d="M 434 345  L 359 291  L 434 237  L 509 291  L 434 345  Z M 360.689199532835 291  L 434 343.783776336359  L 507.310800467165 291  L 434 238.216223663641  L 360.689199532835 291  Z " fill-rule="nonzero" fill="#797979" stroke="none" />
  </g>
</svg>