﻿<?xml version="1.0" encoding="utf-8"?>
<svg version="1.1" xmlns:xlink="http://www.w3.org/1999/xlink" width="12px" height="12px" viewBox="7 158  12 12" xmlns="http://www.w3.org/2000/svg">
  <path d="M 13 158  C 16.36 158  19 160.64  19 164  C 19 167.36  16.36 170  13 170  C 9.64 170  7 167.36  7 164  C 7 160.64  9.64 158  13 158  Z " fill-rule="nonzero" fill="#f0f0f0" stroke="none" />
  <path d="M 13 158.5  C 16.08 158.5  18.5 160.92  18.5 164  C 18.5 167.08  16.08 169.5  13 169.5  C 9.92 169.5  7.5 167.08  7.5 164  C 7.5 160.92  9.92 158.5  13 158.5  Z " stroke-width="1" stroke="#797979" fill="none" />
</svg>