﻿<?xml version="1.0" encoding="utf-8"?>
<svg version="1.1" xmlns:xlink="http://www.w3.org/1999/xlink" width="12px" height="12px" viewBox="7 97  12 12" xmlns="http://www.w3.org/2000/svg">
  <path d="M 13 97  C 16.36 97  19 99.64  19 103  C 19 106.36  16.36 109  13 109  C 9.64 109  7 106.36  7 103  C 7 99.64  9.64 97  13 97  Z " fill-rule="nonzero" fill="#ffffff" stroke="none" />
  <path d="M 13 97.5  C 16.08 97.5  18.5 99.92  18.5 103  C 18.5 106.08  16.08 108.5  13 108.5  C 9.92 108.5  7.5 106.08  7.5 103  C 7.5 99.92  9.92 97.5  13 97.5  Z " stroke-width="1" stroke="#797979" fill="none" />
  <path d="M 13 106  C 11.32 106  10 104.68  10 103  C 10 101.32  11.32 100  13 100  C 14.68 100  16 101.32  16 103  C 16 104.68  14.68 106  13 106  " fill-rule="nonzero" fill="#797979" stroke="none" />
</svg>