﻿<?xml version="1.0" encoding="utf-8"?>
<svg version="1.1" xmlns:xlink="http://www.w3.org/1999/xlink" width="12px" height="12px" viewBox="7 68  12 12" xmlns="http://www.w3.org/2000/svg">
  <path d="M 13 68  C 16.36 68  19 70.64  19 74  C 19 77.36  16.36 80  13 80  C 9.64 80  7 77.36  7 74  C 7 70.64  9.64 68  13 68  Z " fill-rule="nonzero" fill="#ffffff" stroke="none" />
  <path d="M 13 68.5  C 16.08 68.5  18.5 70.92  18.5 74  C 18.5 77.08  16.08 79.5  13 79.5  C 9.92 79.5  7.5 77.08  7.5 74  C 7.5 70.92  9.92 68.5  13 68.5  Z " stroke-width="1" stroke="#797979" fill="none" />
  <path d="M 13 77  C 11.32 77  10 75.68  10 74  C 10 72.32  11.32 71  13 71  C 14.68 71  16 72.32  16 74  C 16 75.68  14.68 77  13 77  " fill-rule="nonzero" fill="#797979" stroke="none" />
</svg>