﻿<?xml version="1.0" encoding="utf-8"?>
<svg version="1.1" xmlns:xlink="http://www.w3.org/1999/xlink" width="12px" height="12px" viewBox="7 38  12 12" xmlns="http://www.w3.org/2000/svg">
  <path d="M 13 38  C 16.36 38  19 40.64  19 44  C 19 47.36  16.36 50  13 50  C 9.64 50  7 47.36  7 44  C 7 40.64  9.64 38  13 38  Z " fill-rule="nonzero" fill="#f0f0f0" stroke="none" />
  <path d="M 13 38.5  C 16.08 38.5  18.5 40.92  18.5 44  C 18.5 47.08  16.08 49.5  13 49.5  C 9.92 49.5  7.5 47.08  7.5 44  C 7.5 40.92  9.92 38.5  13 38.5  Z " stroke-width="1" stroke="#797979" fill="none" />
</svg>