﻿<?xml version="1.0" encoding="utf-8"?>
<svg version="1.1" xmlns:xlink="http://www.w3.org/1999/xlink" width="12px" height="12px" viewBox="7 128  12 12" xmlns="http://www.w3.org/2000/svg">
  <path d="M 13 128  C 16.36 128  19 130.64  19 134  C 19 137.36  16.36 140  13 140  C 9.64 140  7 137.36  7 134  C 7 130.64  9.64 128  13 128  Z " fill-rule="nonzero" fill="#f0f0f0" stroke="none" />
  <path d="M 13 128.5  C 16.08 128.5  18.5 130.92  18.5 134  C 18.5 137.08  16.08 139.5  13 139.5  C 9.92 139.5  7.5 137.08  7.5 134  C 7.5 130.92  9.92 128.5  13 128.5  Z " stroke-width="1" stroke="#797979" fill="none" />
</svg>