﻿<?xml version="1.0" encoding="utf-8"?>
<svg version="1.1" xmlns:xlink="http://www.w3.org/1999/xlink" width="2px" height="73px" xmlns="http://www.w3.org/2000/svg">
  <g transform="matrix(1 0 0 1 -31 -34 )">
    <path d="M 31.5 34  L 31.5 106  " stroke-width="1" stroke="#cccccc" fill="none" />
  </g>
</svg>