﻿<?xml version="1.0" encoding="utf-8"?>
<svg version="1.1" xmlns:xlink="http://www.w3.org/1999/xlink" width="44px" height="44px" xmlns="http://www.w3.org/2000/svg">
  <g transform="matrix(1 0 0 1 -177 -396 )">
    <path d="M 177.5 396.5  L 220.5 396.5  L 220.5 439.5  L 177.5 439.5  L 177.5 396.5  Z " fill-rule="nonzero" fill="#f2f2f2" stroke="none" />
    <path d="M 177.5 396.5  L 220.5 396.5  L 220.5 439.5  L 177.5 439.5  L 177.5 396.5  Z " stroke-width="1" stroke="#e5e5e5" fill="none" />
    <path d="M 177.353553390593 396.353553390593  L 220.646446609407 439.646446609407  M 220.646446609407 396.353553390593  L 177.353553390593 439.646446609407  " stroke-width="1" stroke="#e5e5e5" fill="none" />
  </g>
</svg>