﻿<?xml version="1.0" encoding="utf-8"?>
<svg version="1.1" xmlns:xlink="http://www.w3.org/1999/xlink" width="30px" height="26px" preserveAspectRatio="xMinYMid meet" viewBox="356 447  30 24" xmlns="http://www.w3.org/2000/svg">
  <g transform="matrix(0.999847695156391 0.0174524064372842 -0.0174524064372839 0.999847695156391 8.06715965169207 -6.40493486501595 )">
    <path d="M 373.7 453.4  L 368 458.5  L 373.7 463.6  L 379.1 458.5  L 373.7 453.4  Z M 435.3 463.6  L 441 458.5  L 435.3 453.4  L 429.9 458.5  L 435.3 463.6  Z " fill-rule="nonzero" fill="#ff0000" stroke="none" transform="matrix(0.999886677964692 -0.0150542760945706 0.0150542760945706 0.999886677964692 -6.85654682607867 6.14141283344242 )" />
    <path d="M 371 458.5  L 438 458.5  " stroke-width="3" stroke="#ff0000" fill="none" transform="matrix(0.999886677964692 -0.0150542760945706 0.0150542760945706 0.999886677964692 -6.85654682607867 6.14141283344242 )" />
  </g>
</svg>