﻿<?xml version="1.0" encoding="utf-8"?>
<svg version="1.1" xmlns:xlink="http://www.w3.org/1999/xlink" width="12px" height="12px" viewBox="28 305  12 12" xmlns="http://www.w3.org/2000/svg">
  <path d="M 34 305  C 37.36 305  40 307.64  40 311  C 40 314.36  37.36 317  34 317  C 30.64 317  28 314.36  28 311  C 28 307.64  30.64 305  34 305  Z " fill-rule="nonzero" fill="#ffffff" stroke="none" />
  <path d="M 34 305.5  C 37.08 305.5  39.5 307.92  39.5 311  C 39.5 314.08  37.08 316.5  34 316.5  C 30.92 316.5  28.5 314.08  28.5 311  C 28.5 307.92  30.92 305.5  34 305.5  Z " stroke-width="1" stroke="#797979" fill="none" />
</svg>