﻿<?xml version="1.0" encoding="utf-8"?>
<svg version="1.1" xmlns:xlink="http://www.w3.org/1999/xlink" width="12px" height="12px" viewBox="572 178.5  12 12" xmlns="http://www.w3.org/2000/svg">
  <path d="M 578 178.5  C 581.36 178.5  584 181.14  584 184.5  C 584 187.86  581.36 190.5  578 190.5  C 574.64 190.5  572 187.86  572 184.5  C 572 181.14  574.64 178.5  578 178.5  Z " fill-rule="nonzero" fill="#f0f0f0" stroke="none" />
  <path d="M 578 179  C 581.08 179  583.5 181.42  583.5 184.5  C 583.5 187.58  581.08 190  578 190  C 574.92 190  572.5 187.58  572.5 184.5  C 572.5 181.42  574.92 179  578 179  Z " stroke-width="1" stroke="#797979" fill="none" />
  <path d="M 578 187.5  C 576.32 187.5  575 186.18  575 184.5  C 575 182.82  576.32 181.5  578 181.5  C 579.68 181.5  581 182.82  581 184.5  C 581 186.18  579.68 187.5  578 187.5  " fill-rule="nonzero" fill="#797979" stroke="none" />
</svg>