﻿<?xml version="1.0" encoding="utf-8"?>
<svg version="1.1" xmlns:xlink="http://www.w3.org/1999/xlink" width="12px" height="12px" viewBox="13 218  12 12" xmlns="http://www.w3.org/2000/svg">
  <path d="M 19 218  C 22.36 218  25 220.64  25 224  C 25 227.36  22.36 230  19 230  C 15.64 230  13 227.36  13 224  C 13 220.64  15.64 218  19 218  Z " fill-rule="nonzero" fill="#f0f0f0" stroke="none" />
  <path d="M 19 218.5  C 22.08 218.5  24.5 220.92  24.5 224  C 24.5 227.08  22.08 229.5  19 229.5  C 15.92 229.5  13.5 227.08  13.5 224  C 13.5 220.92  15.92 218.5  19 218.5  Z " stroke-width="1" stroke="#797979" fill="none" />
  <path d="M 19 227  C 17.32 227  16 225.68  16 224  C 16 222.32  17.32 221  19 221  C 20.68 221  22 222.32  22 224  C 22 225.68  20.68 227  19 227  " fill-rule="nonzero" fill="#797979" stroke="none" />
</svg>