﻿<?xml version="1.0" encoding="utf-8"?>
<svg version="1.1" xmlns:xlink="http://www.w3.org/1999/xlink" width="12px" height="12px" viewBox="13 83  12 12" xmlns="http://www.w3.org/2000/svg">
  <path d="M 19 83  C 22.36 83  25 85.64  25 89  C 25 92.36  22.36 95  19 95  C 15.64 95  13 92.36  13 89  C 13 85.64  15.64 83  19 83  Z " fill-rule="nonzero" fill="#f0f0f0" stroke="none" />
  <path d="M 19 83.5  C 22.08 83.5  24.5 85.92  24.5 89  C 24.5 92.08  22.08 94.5  19 94.5  C 15.92 94.5  13.5 92.08  13.5 89  C 13.5 85.92  15.92 83.5  19 83.5  Z " stroke-width="1" stroke="#797979" fill="none" />
</svg>