﻿<?xml version="1.0" encoding="utf-8"?>
<svg version="1.1" xmlns:xlink="http://www.w3.org/1999/xlink" width="12px" height="12px" viewBox="95 822  12 12" xmlns="http://www.w3.org/2000/svg">
  <path d="M 101 822  C 104.36 822  107 824.64  107 828  C 107 831.36  104.36 834  101 834  C 97.64 834  95 831.36  95 828  C 95 824.64  97.64 822  101 822  Z " fill-rule="nonzero" fill="#ffffff" stroke="none" />
  <path d="M 101 822.5  C 104.08 822.5  106.5 824.92  106.5 828  C 106.5 831.08  104.08 833.5  101 833.5  C 97.92 833.5  95.5 831.08  95.5 828  C 95.5 824.92  97.92 822.5  101 822.5  Z " stroke-width="1" stroke="#797979" fill="none" />
  <path d="M 101 831  C 99.32 831  98 829.68  98 828  C 98 826.32  99.32 825  101 825  C 102.68 825  104 826.32  104 828  C 104 829.68  102.68 831  101 831  " fill-rule="nonzero" fill="#797979" stroke="none" />
</svg>