﻿<?xml version="1.0" encoding="utf-8"?>
<svg version="1.1" xmlns:xlink="http://www.w3.org/1999/xlink" width="12px" height="12px" viewBox="474 265  12 12" xmlns="http://www.w3.org/2000/svg">
  <path d="M 480 265  C 483.36 265  486 267.64  486 271  C 486 274.36  483.36 277  480 277  C 476.64 277  474 274.36  474 271  C 474 267.64  476.64 265  480 265  Z " fill-rule="nonzero" fill="#f0f0f0" stroke="none" />
  <path d="M 480 265.5  C 483.08 265.5  485.5 267.92  485.5 271  C 485.5 274.08  483.08 276.5  480 276.5  C 476.92 276.5  474.5 274.08  474.5 271  C 474.5 267.92  476.92 265.5  480 265.5  Z " stroke-width="1" stroke="#797979" fill="none" />
  <path d="M 480 274  C 478.32 274  477 272.68  477 271  C 477 269.32  478.32 268  480 268  C 481.68 268  483 269.32  483 271  C 483 272.68  481.68 274  480 274  " fill-rule="nonzero" fill="#797979" stroke="none" />
</svg>