﻿<?xml version="1.0" encoding="utf-8"?>
<svg version="1.1" xmlns:xlink="http://www.w3.org/1999/xlink" width="2px" height="34px" xmlns="http://www.w3.org/2000/svg">
  <g transform="matrix(1 0 0 1 -196 -613 )">
    <path d="M 196.5 613  L 196.5 646  " stroke-width="1" stroke="#e9e9e9" fill="none" />
  </g>
</svg>