﻿<?xml version="1.0" encoding="utf-8"?>
<svg version="1.1" xmlns:xlink="http://www.w3.org/1999/xlink" width="2px" height="48px" xmlns="http://www.w3.org/2000/svg">
  <g transform="matrix(1 0 0 1 -190 -390 )">
    <path d="M 190.5 390  L 190.5 437  " stroke-width="1" stroke="#e4e4e4" fill="none" />
  </g>
</svg>