﻿<?xml version="1.0" encoding="utf-8"?>
<svg version="1.1" xmlns:xlink="http://www.w3.org/1999/xlink" width="14px" height="14px" xmlns="http://www.w3.org/2000/svg">
  <g transform="matrix(1 0 0 1 -103 -86 )">
    <path d="M 110 90  C 111.68 90  113 91.32  113 93  C 113 94.68  111.68 96  110 96  C 108.32 96  107 94.68  107 93  C 107 91.32  108.32 90  110 90  Z " fill-rule="nonzero" fill="#ffffff" stroke="none" />
    <path d="M 110 88.5  C 112.52 88.5  114.5 90.48  114.5 93  C 114.5 95.52  112.52 97.5  110 97.5  C 107.48 97.5  105.5 95.52  105.5 93  C 105.5 90.48  107.48 88.5  110 88.5  Z " stroke-width="5" stroke="#2e8ff4" fill="none" />
  </g>
</svg>