﻿<?xml version="1.0" encoding="utf-8"?>
<svg version="1.1" xmlns:xlink="http://www.w3.org/1999/xlink" width="12px" height="12px" viewBox="36 283  12 12" xmlns="http://www.w3.org/2000/svg">
  <path d="M 42 283  C 45.36 283  48 285.64  48 289  C 48 292.36  45.36 295  42 295  C 38.64 295  36 292.36  36 289  C 36 285.64  38.64 283  42 283  Z " fill-rule="nonzero" fill="#f0f0f0" stroke="none" />
  <path d="M 42 283.5  C 45.08 283.5  47.5 285.92  47.5 289  C 47.5 292.08  45.08 294.5  42 294.5  C 38.92 294.5  36.5 292.08  36.5 289  C 36.5 285.92  38.92 283.5  42 283.5  Z " stroke-width="1" stroke="#797979" fill="none" />
  <path d="M 42 292  C 40.32 292  39 290.68  39 289  C 39 287.32  40.32 286  42 286  C 43.68 286  45 287.32  45 289  C 45 290.68  43.68 292  42 292  " fill-rule="nonzero" fill="#797979" stroke="none" />
</svg>