﻿<?xml version="1.0" encoding="utf-8"?>
<svg version="1.1" xmlns:xlink="http://www.w3.org/1999/xlink" width="12px" height="12px" viewBox="962 410  12 12" xmlns="http://www.w3.org/2000/svg">
  <path d="M 968 410  C 971.36 410  974 412.64  974 416  C 974 419.36  971.36 422  968 422  C 964.64 422  962 419.36  962 416  C 962 412.64  964.64 410  968 410  Z " fill-rule="nonzero" fill="#f0f0f0" stroke="none" />
  <path d="M 968 410.5  C 971.08 410.5  973.5 412.92  973.5 416  C 973.5 419.08  971.08 421.5  968 421.5  C 964.92 421.5  962.5 419.08  962.5 416  C 962.5 412.92  964.92 410.5  968 410.5  Z " stroke-width="1" stroke="#797979" fill="none" />
</svg>