﻿<?xml version="1.0" encoding="utf-8"?>
<svg version="1.1" xmlns:xlink="http://www.w3.org/1999/xlink" width="12px" height="12px" viewBox="949 435  12 12" xmlns="http://www.w3.org/2000/svg">
  <path d="M 955 435  C 958.36 435  961 437.64  961 441  C 961 444.36  958.36 447  955 447  C 951.64 447  949 444.36  949 441  C 949 437.64  951.64 435  955 435  Z " fill-rule="nonzero" fill="#ffffff" stroke="none" />
  <path d="M 955 435.5  C 958.08 435.5  960.5 437.92  960.5 441  C 960.5 444.08  958.08 446.5  955 446.5  C 951.92 446.5  949.5 444.08  949.5 441  C 949.5 437.92  951.92 435.5  955 435.5  Z " stroke-width="1" stroke="#797979" fill="none" />
</svg>