﻿<?xml version="1.0" encoding="utf-8"?>
<svg version="1.1" xmlns:xlink="http://www.w3.org/1999/xlink" width="12px" height="12px" viewBox="949 395  12 12" xmlns="http://www.w3.org/2000/svg">
  <path d="M 955 395  C 958.36 395  961 397.64  961 401  C 961 404.36  958.36 407  955 407  C 951.64 407  949 404.36  949 401  C 949 397.64  951.64 395  955 395  Z " fill-rule="nonzero" fill="#f0f0f0" stroke="none" />
  <path d="M 955 395.5  C 958.08 395.5  960.5 397.92  960.5 401  C 960.5 404.08  958.08 406.5  955 406.5  C 951.92 406.5  949.5 404.08  949.5 401  C 949.5 397.92  951.92 395.5  955 395.5  Z " stroke-width="1" stroke="#797979" fill="none" />
</svg>