﻿<?xml version="1.0" encoding="utf-8"?>
<svg version="1.1" xmlns:xlink="http://www.w3.org/1999/xlink" width="12px" height="12px" viewBox="962 521  12 12" xmlns="http://www.w3.org/2000/svg">
  <path d="M 968 521  C 971.36 521  974 523.64  974 527  C 974 530.36  971.36 533  968 533  C 964.64 533  962 530.36  962 527  C 962 523.64  964.64 521  968 521  Z " fill-rule="nonzero" fill="#ffffff" stroke="none" />
  <path d="M 968 521.5  C 971.08 521.5  973.5 523.92  973.5 527  C 973.5 530.08  971.08 532.5  968 532.5  C 964.92 532.5  962.5 530.08  962.5 527  C 962.5 523.92  964.92 521.5  968 521.5  Z " stroke-width="1" stroke="#797979" fill="none" />
  <path d="M 968 530  C 966.32 530  965 528.68  965 527  C 965 525.32  966.32 524  968 524  C 969.68 524  971 525.32  971 527  C 971 528.68  969.68 530  968 530  " fill-rule="nonzero" fill="#797979" stroke="none" />
</svg>