﻿<?xml version="1.0" encoding="utf-8"?>
<svg version="1.1" xmlns:xlink="http://www.w3.org/1999/xlink" width="12px" height="12px" viewBox="962 481  12 12" xmlns="http://www.w3.org/2000/svg">
  <path d="M 968 481  C 971.36 481  974 483.64  974 487  C 974 490.36  971.36 493  968 493  C 964.64 493  962 490.36  962 487  C 962 483.64  964.64 481  968 481  Z " fill-rule="nonzero" fill="#ffffff" stroke="none" />
  <path d="M 968 481.5  C 971.08 481.5  973.5 483.92  973.5 487  C 973.5 490.08  971.08 492.5  968 492.5  C 964.92 492.5  962.5 490.08  962.5 487  C 962.5 483.92  964.92 481.5  968 481.5  Z " stroke-width="1" stroke="#797979" fill="none" />
  <path d="M 968 490  C 966.32 490  965 488.68  965 487  C 965 485.32  966.32 484  968 484  C 969.68 484  971 485.32  971 487  C 971 488.68  969.68 490  968 490  " fill-rule="nonzero" fill="#797979" stroke="none" />
</svg>