﻿<?xml version="1.0" encoding="utf-8"?>
<svg version="1.1" xmlns:xlink="http://www.w3.org/1999/xlink" width="12px" height="12px" viewBox="962 449  12 12" xmlns="http://www.w3.org/2000/svg">
  <path d="M 968 449  C 971.36 449  974 451.64  974 455  C 974 458.36  971.36 461  968 461  C 964.64 461  962 458.36  962 455  C 962 451.64  964.64 449  968 449  Z " fill-rule="nonzero" fill="#ffffff" stroke="none" />
  <path d="M 968 449.5  C 971.08 449.5  973.5 451.92  973.5 455  C 973.5 458.08  971.08 460.5  968 460.5  C 964.92 460.5  962.5 458.08  962.5 455  C 962.5 451.92  964.92 449.5  968 449.5  Z " stroke-width="1" stroke="#797979" fill="none" />
</svg>