﻿<?xml version="1.0" encoding="utf-8"?>
<svg version="1.1" xmlns:xlink="http://www.w3.org/1999/xlink" width="12px" height="12px" viewBox="28 410  12 12" xmlns="http://www.w3.org/2000/svg">
  <path d="M 28.5 410.5  L 39.5 410.5  L 39.5 421.5  L 28.5 421.5  L 28.5 410.5  Z " fill-rule="nonzero" fill="#f0f0f0" stroke="none" />
  <path d="M 28.5 410.5  L 39.5 410.5  L 39.5 421.5  L 28.5 421.5  L 28.5 410.5  Z " stroke-width="1" stroke="#797979" fill="none" />
  <path d="M 30.5714285714286 416  L 33.1428571428571 418.571428571429  " stroke-width="2.57142857142857" stroke="#797979" fill="none" />
  <path d="M 33.1428571428571 418.571428571429  L 37.4285714285714 412.571428571429  " stroke-width="2.57142857142857" stroke="#797979" fill="none" />
</svg>