﻿<?xml version="1.0" encoding="utf-8"?>
<svg version="1.1" xmlns:xlink="http://www.w3.org/1999/xlink" width="12px" height="12px" viewBox="949 356  12 12" xmlns="http://www.w3.org/2000/svg">
  <path d="M 955 356  C 958.36 356  961 358.64  961 362  C 961 365.36  958.36 368  955 368  C 951.64 368  949 365.36  949 362  C 949 358.64  951.64 356  955 356  Z " fill-rule="nonzero" fill="#ffffff" stroke="none" />
  <path d="M 955 356.5  C 958.08 356.5  960.5 358.92  960.5 362  C 960.5 365.08  958.08 367.5  955 367.5  C 951.92 367.5  949.5 365.08  949.5 362  C 949.5 358.92  951.92 356.5  955 356.5  Z " stroke-width="1" stroke="#797979" fill="none" />
  <path d="M 955 365  C 953.32 365  952 363.68  952 362  C 952 360.32  953.32 359  955 359  C 956.68 359  958 360.32  958 362  C 958 363.68  956.68 365  955 365  " fill-rule="nonzero" fill="#797979" stroke="none" />
</svg>