﻿<?xml version="1.0" encoding="utf-8"?>
<svg version="1.1" xmlns:xlink="http://www.w3.org/1999/xlink" width="65px" height="35px" xmlns="http://www.w3.org/2000/svg">
  <defs>
    <linearGradient gradientUnits="userSpaceOnUse" x1="32.5" y1="0" x2="32.5" y2="35" id="LinearGradient514">
      <stop id="Stop515" stop-color="#dee0e7" stop-opacity="0.286274509803922" offset="0" />
      <stop id="Stop516" stop-color="#000000" stop-opacity="0" offset="1" />
    </linearGradient>
  </defs>
  <g transform="matrix(1 0 0 1 -297 -310 )">
    <path d="M 0 35  L 0 0  L 41.2698412698413 0  L 65 0  L 65 35  L 0 35  Z " fill-rule="nonzero" fill="url(#LinearGradient514)" stroke="none" transform="matrix(1 0 0 1 297 310 )" />
  </g>
</svg>