﻿<?xml version="1.0" encoding="utf-8"?>
<svg version="1.1" xmlns:xlink="http://www.w3.org/1999/xlink" width="88px" height="25px" xmlns="http://www.w3.org/2000/svg">
  <g transform="matrix(1 0 0 1 -1621 -58 )">
    <path d="M 1637.7 65.4  L 1632 70.5  L 1637.7 75.6  L 1643.1 70.5  L 1637.7 65.4  Z M 1692.3 75.6  L 1698 70.5  L 1692.3 65.4  L 1686.9 70.5  L 1692.3 75.6  Z " fill-rule="nonzero" fill="#ff0000" stroke="none" />
    <path d="M 1635 70.5  L 1695 70.5  " stroke-width="3" stroke="#ff0000" fill="none" />
  </g>
</svg>