﻿<?xml version="1.0" encoding="utf-8"?>
<svg version="1.1" xmlns:xlink="http://www.w3.org/1999/xlink" width="90px" height="6px" preserveAspectRatio="xMinYMid meet" viewBox="1212 105  90 4" xmlns="http://www.w3.org/2000/svg">
  <g transform="matrix(0 -1 1 0 1150 1364 )">
    <path d="M 1220.2 101.9  L 1214.5 107  L 1220.2 112.1  L 1225.6 107  L 1220.2 101.9  Z M 1292.8 112.1  L 1298.5 107  L 1292.8 101.9  L 1287.4 107  L 1292.8 112.1  Z " fill-rule="nonzero" fill="#ff0000" stroke="none" transform="matrix(6.12303176911189E-17 1 -1 6.12303176911189E-17 1363.5 -1150.5 )" />
    <path d="M 1217.5 107  L 1295.5 107  " stroke-width="3" stroke="#ff0000" fill="none" transform="matrix(6.12303176911189E-17 1 -1 6.12303176911189E-17 1363.5 -1150.5 )" />
  </g>
</svg>