﻿<?xml version="1.0" encoding="utf-8"?>
<svg version="1.1" xmlns:xlink="http://www.w3.org/1999/xlink" width="81px" height="30px" xmlns="http://www.w3.org/2000/svg">
  <defs>
    <filter x="15px" y="585px" width="81px" height="30px" filterUnits="userSpaceOnUse" id="filter379">
      <feOffset dx="0" dy="0" in="SourceAlpha" result="shadowOffsetInner" />
      <feGaussianBlur stdDeviation="2.5" in="shadowOffsetInner" result="shadowGaussian" />
      <feComposite in2="shadowGaussian" operator="atop" in="SourceAlpha" result="shadowComposite" />
      <feColorMatrix type="matrix" values="0 0 0 0 0  0 0 0 0 0  0 0 0 0 0  0 0 0 0.349019607843137 0  " in="shadowComposite" />
    </filter>
    <g id="widget380">
      <path d="M 20 590  L 91 590  L 91 610  L 20 610  L 20 590  Z " fill-rule="nonzero" fill="#ffffff" stroke="none" fill-opacity="0" />
    </g>
  </defs>
  <g transform="matrix(1 0 0 1 -15 -585 )">
    <use xlink:href="#widget380" filter="url(#filter379)" />
    <use xlink:href="#widget380" />
  </g>
</svg>