﻿<?xml version="1.0" encoding="utf-8"?>
<svg version="1.1" xmlns:xlink="http://www.w3.org/1999/xlink" width="179px" height="27px" xmlns="http://www.w3.org/2000/svg">
  <defs>
    <filter x="15px" y="94px" width="179px" height="27px" filterUnits="userSpaceOnUse" id="filter371">
      <feOffset dx="0" dy="0" in="SourceAlpha" result="shadowOffsetInner" />
      <feGaussianBlur stdDeviation="2.5" in="shadowOffsetInner" result="shadowGaussian" />
      <feComposite in2="shadowGaussian" operator="atop" in="SourceAlpha" result="shadowComposite" />
      <feColorMatrix type="matrix" values="0 0 0 0 0  0 0 0 0 0  0 0 0 0 0  0 0 0 0.349019607843137 0  " in="shadowComposite" />
    </filter>
    <g id="widget372">
      <path d="M 20 99  L 189 99  L 189 116  L 20 116  L 20 99  Z " fill-rule="nonzero" fill="#ffffff" stroke="none" fill-opacity="0" />
    </g>
  </defs>
  <g transform="matrix(1 0 0 1 -15 -94 )">
    <use xlink:href="#widget372" filter="url(#filter371)" />
    <use xlink:href="#widget372" />
  </g>
</svg>