﻿<?xml version="1.0" encoding="utf-8"?>
<svg version="1.1" xmlns:xlink="http://www.w3.org/1999/xlink" width="12px" height="12px" viewBox="840 162  12 12" xmlns="http://www.w3.org/2000/svg">
  <path d="M 846 162  C 849.36 162  852 164.64  852 168  C 852 171.36  849.36 174  846 174  C 842.64 174  840 171.36  840 168  C 840 164.64  842.64 162  846 162  Z " fill-rule="nonzero" fill="#ffffff" stroke="none" />
  <path d="M 846 162.5  C 849.08 162.5  851.5 164.92  851.5 168  C 851.5 171.08  849.08 173.5  846 173.5  C 842.92 173.5  840.5 171.08  840.5 168  C 840.5 164.92  842.92 162.5  846 162.5  Z " stroke-width="1" stroke="#797979" fill="none" />
</svg>