﻿<?xml version="1.0" encoding="utf-8"?>
<svg version="1.1" xmlns:xlink="http://www.w3.org/1999/xlink" width="12px" height="12px" viewBox="797 162  12 12" xmlns="http://www.w3.org/2000/svg">
  <path d="M 803 162  C 806.36 162  809 164.64  809 168  C 809 171.36  806.36 174  803 174  C 799.64 174  797 171.36  797 168  C 797 164.64  799.64 162  803 162  Z " fill-rule="nonzero" fill="#ffffff" stroke="none" />
  <path d="M 803 162.5  C 806.08 162.5  808.5 164.92  808.5 168  C 808.5 171.08  806.08 173.5  803 173.5  C 799.92 173.5  797.5 171.08  797.5 168  C 797.5 164.92  799.92 162.5  803 162.5  Z " stroke-width="1" stroke="#797979" fill="none" />
</svg>