﻿<?xml version="1.0" encoding="utf-8"?>
<svg version="1.1" xmlns:xlink="http://www.w3.org/1999/xlink" width="66px" height="6px" preserveAspectRatio="xMinYMid meet" viewBox="1264 665  66 4" xmlns="http://www.w3.org/2000/svg">
  <g transform="matrix(0 -1 1 0 630 1964 )">
    <path d="M 1314 676.5  L 1328 667  L 1314 657.5  L 1314 676.5  Z " fill-rule="nonzero" fill="#0000ff" stroke="none" transform="matrix(6.12303176911189E-17 1 -1 6.12303176911189E-17 1964 -630 )" />
    <path d="M 1266 667  L 1316 667  " stroke-width="2" stroke="#0000ff" fill="none" transform="matrix(6.12303176911189E-17 1 -1 6.12303176911189E-17 1964 -630 )" />
  </g>
</svg>