﻿<?xml version="1.0" encoding="utf-8"?>
<svg version="1.1" xmlns:xlink="http://www.w3.org/1999/xlink" width="38px" height="38px" preserveAspectRatio="xMinYMid meet" viewBox="1278 1975  38 36" xmlns="http://www.w3.org/2000/svg">
  <g transform="matrix(0 1 -1 0 3290 696 )">
    <path d="M 1314 1977.5  L 1328 1968  L 1314 1958.5  L 1314 1977.5  Z " fill-rule="nonzero" fill="#0000ff" stroke="none" transform="matrix(6.12303176911189E-17 1 -1 6.12303176911189E-17 3265 671 )" />
    <path d="M 1266 1968  L 1316 1968  " stroke-width="2" stroke="#0000ff" fill="none" transform="matrix(6.12303176911189E-17 1 -1 6.12303176911189E-17 3265 671 )" />
  </g>
</svg>