﻿<?xml version="1.0" encoding="utf-8"?>
<svg version="1.1" xmlns:xlink="http://www.w3.org/1999/xlink" width="40px" height="38px" preserveAspectRatio="xMinYMid meet" viewBox="1412 2419  40 36" xmlns="http://www.w3.org/2000/svg">
  <g transform="matrix(-0.85716730070211 0.515038074910055 -0.515038074910048 -0.857167300702112 3914.61136316121 3788.38218853985 )">
    <path d="M 1465 2300.5  L 1479 2291  L 1465 2281.5  L 1465 2300.5  Z " fill-rule="nonzero" fill="#0000ff" stroke="none" transform="matrix(0.857515175573867 0.514458670507671 -0.514458670507671 0.857515175573867 1347.82554313911 -284.486938467588 )" />
    <path d="M 896 2291  L 1467 2291  " stroke-width="2" stroke="#0000ff" fill="none" transform="matrix(0.857515175573867 0.514458670507671 -0.514458670507671 0.857515175573867 1347.82554313911 -284.486938467588 )" />
  </g>
</svg>