﻿<?xml version="1.0" encoding="utf-8"?>
<svg version="1.1" xmlns:xlink="http://www.w3.org/1999/xlink" width="12px" height="12px" viewBox="48 2201  12 12" xmlns="http://www.w3.org/2000/svg">
  <path d="M 48.5 2201.5  L 59.5 2201.5  L 59.5 2212.5  L 48.5 2212.5  L 48.5 2201.5  Z " fill-rule="nonzero" fill="#ffffff" stroke="none" />
  <path d="M 48.5 2201.5  L 59.5 2201.5  L 59.5 2212.5  L 48.5 2212.5  L 48.5 2201.5  Z " stroke-width="1" stroke="#797979" fill="none" />
  <path d="M 50.5714285714286 2207  L 53.1428571428571 2209.57142857143  L 57.4285714285714 2203.57142857143  " stroke-width="2.57142857142857" stroke="#797979" fill="none" />
</svg>