﻿<?xml version="1.0" encoding="utf-8"?>
<svg version="1.1" xmlns:xlink="http://www.w3.org/1999/xlink" width="38px" height="38px" preserveAspectRatio="xMinYMid meet" viewBox="2418 971  38 36" xmlns="http://www.w3.org/2000/svg">
  <g transform="matrix(-1 0 0 -1 4874 1978 )">
    <path d="M 2430 998.5  L 2444 989  L 2430 979.5  L 2430 998.5  Z " fill-rule="nonzero" fill="#0000ff" stroke="none" />
    <path d="M 1561 989  L 2432 989  " stroke-width="2" stroke="#0000ff" fill="none" />
  </g>
</svg>