﻿<?xml version="1.0" encoding="utf-8"?>
<svg version="1.1" xmlns:xlink="http://www.w3.org/1999/xlink" width="38px" height="38px" preserveAspectRatio="xMinYMid meet" viewBox="1610 3181  38 36" xmlns="http://www.w3.org/2000/svg">
  <g transform="matrix(-1 0 0 -1 3258 6398 )">
    <path d="M 1622 3208.5  L 1636 3199  L 1622 3189.5  L 1622 3208.5  Z " fill-rule="nonzero" fill="#0000ff" stroke="none" />
    <path d="M 1419 3199  L 1624 3199  " stroke-width="2" stroke="#0000ff" fill="none" />
  </g>
</svg>