﻿<?xml version="1.0" encoding="utf-8"?>
<svg version="1.1" xmlns:xlink="http://www.w3.org/1999/xlink" width="988px" height="2px" xmlns="http://www.w3.org/2000/svg">
  <g transform="matrix(1 0 0 1 -10 -401 )">
    <path d="M 10 401.5  L 997 401.5  " stroke-width="1" stroke="#bcbcbc" fill="none" />
  </g>
</svg>