﻿<?xml version="1.0" encoding="utf-8"?>
<svg version="1.1" xmlns:xlink="http://www.w3.org/1999/xlink" width="12px" height="12px" viewBox="824 185  12 12" xmlns="http://www.w3.org/2000/svg">
  <path d="M 824.5 185.5  L 835.5 185.5  L 835.5 196.5  L 824.5 196.5  L 824.5 185.5  Z " fill-rule="nonzero" fill="#f0f0f0" stroke="none" />
  <path d="M 824.5 185.5  L 835.5 185.5  L 835.5 196.5  L 824.5 196.5  L 824.5 185.5  Z " stroke-width="1" stroke="#797979" fill="none" />
  <path d="M 826.571428571429 191  L 829.142857142857 193.571428571429  " stroke-width="2.57142857142857" stroke="#797979" fill="none" />
  <path d="M 829.142857142857 193.571428571429  L 833.428571428571 187.571428571429  " stroke-width="2.57142857142857" stroke="#797979" fill="none" />
</svg>