﻿<?xml version="1.0" encoding="utf-8"?>
<svg version="1.1" xmlns:xlink="http://www.w3.org/1999/xlink" width="12px" height="12px" viewBox="107 150  12 12" xmlns="http://www.w3.org/2000/svg">
  <path d="M 113 150  C 116.36 150  119 152.64  119 156  C 119 159.36  116.36 162  113 162  C 109.64 162  107 159.36  107 156  C 107 152.64  109.64 150  113 150  Z " fill-rule="nonzero" fill="#ffffff" stroke="none" />
  <path d="M 113 150.5  C 116.08 150.5  118.5 152.92  118.5 156  C 118.5 159.08  116.08 161.5  113 161.5  C 109.92 161.5  107.5 159.08  107.5 156  C 107.5 152.92  109.92 150.5  113 150.5  Z " stroke-width="1" stroke="#797979" fill="none" />
</svg>