﻿<?xml version="1.0" encoding="utf-8"?>
<svg version="1.1" xmlns:xlink="http://www.w3.org/1999/xlink" width="12px" height="12px" viewBox="294 198  12 12" xmlns="http://www.w3.org/2000/svg">
  <path d="M 300 198  C 303.36 198  306 200.64  306 204  C 306 207.36  303.36 210  300 210  C 296.64 210  294 207.36  294 204  C 294 200.64  296.64 198  300 198  Z " fill-rule="nonzero" fill="#f0f0f0" stroke="none" />
  <path d="M 300 198.5  C 303.08 198.5  305.5 200.92  305.5 204  C 305.5 207.08  303.08 209.5  300 209.5  C 296.92 209.5  294.5 207.08  294.5 204  C 294.5 200.92  296.92 198.5  300 198.5  Z " stroke-width="1" stroke="#797979" fill="none" />
  <path d="M 300 207  C 298.32 207  297 205.68  297 204  C 297 202.32  298.32 201  300 201  C 301.68 201  303 202.32  303 204  C 303 205.68  301.68 207  300 207  " fill-rule="nonzero" fill="#797979" stroke="none" />
</svg>