﻿<?xml version="1.0" encoding="utf-8"?>
<svg version="1.1" xmlns:xlink="http://www.w3.org/1999/xlink" width="12px" height="12px" viewBox="294 241  12 12" xmlns="http://www.w3.org/2000/svg">
  <path d="M 300 241  C 303.36 241  306 243.64  306 247  C 306 250.36  303.36 253  300 253  C 296.64 253  294 250.36  294 247  C 294 243.64  296.64 241  300 241  Z " fill-rule="nonzero" fill="#ffffff" stroke="none" />
  <path d="M 300 241.5  C 303.08 241.5  305.5 243.92  305.5 247  C 305.5 250.08  303.08 252.5  300 252.5  C 296.92 252.5  294.5 250.08  294.5 247  C 294.5 243.92  296.92 241.5  300 241.5  Z " stroke-width="1" stroke="#797979" fill="none" />
  <path d="M 300 250  C 298.32 250  297 248.68  297 247  C 297 245.32  298.32 244  300 244  C 301.68 244  303 245.32  303 247  C 303 248.68  301.68 250  300 250  " fill-rule="nonzero" fill="#797979" stroke="none" />
</svg>