﻿<?xml version="1.0" encoding="utf-8"?>
<svg version="1.1" xmlns:xlink="http://www.w3.org/1999/xlink" width="12px" height="12px" viewBox="294 158  12 12" xmlns="http://www.w3.org/2000/svg">
  <path d="M 300 158  C 303.36 158  306 160.64  306 164  C 306 167.36  303.36 170  300 170  C 296.64 170  294 167.36  294 164  C 294 160.64  296.64 158  300 158  Z " fill-rule="nonzero" fill="#f0f0f0" stroke="none" />
  <path d="M 300 158.5  C 303.08 158.5  305.5 160.92  305.5 164  C 305.5 167.08  303.08 169.5  300 169.5  C 296.92 169.5  294.5 167.08  294.5 164  C 294.5 160.92  296.92 158.5  300 158.5  Z " stroke-width="1" stroke="#797979" fill="none" />
</svg>