﻿<?xml version="1.0" encoding="utf-8"?>
<svg version="1.1" xmlns:xlink="http://www.w3.org/1999/xlink" width="12px" height="12px" viewBox="294 164  12 12" xmlns="http://www.w3.org/2000/svg">
  <path d="M 300 164  C 303.36 164  306 166.64  306 170  C 306 173.36  303.36 176  300 176  C 296.64 176  294 173.36  294 170  C 294 166.64  296.64 164  300 164  Z " fill-rule="nonzero" fill="#ffffff" stroke="none" />
  <path d="M 300 164.5  C 303.08 164.5  305.5 166.92  305.5 170  C 305.5 173.08  303.08 175.5  300 175.5  C 296.92 175.5  294.5 173.08  294.5 170  C 294.5 166.92  296.92 164.5  300 164.5  Z " stroke-width="1" stroke="#797979" fill="none" />
  <path d="M 300 173  C 298.32 173  297 171.68  297 170  C 297 168.32  298.32 167  300 167  C 301.68 167  303 168.32  303 170  C 303 171.68  301.68 173  300 173  " fill-rule="nonzero" fill="#797979" stroke="none" />
</svg>