﻿<?xml version="1.0" encoding="utf-8"?>
<svg version="1.1" xmlns:xlink="http://www.w3.org/1999/xlink" width="11px" height="16px" xmlns="http://www.w3.org/2000/svg">
  <g transform="matrix(1 0 0 1 -123 -410 )">
    <path d="M 2.8896484375 7.53246753246754  L 10.5166015625 0.155844155844136  C 10.6526692708333 0.0242424242424022  10.7672526041667 -0.0207792207792181  10.8603515625 0.0207792207792181  C 10.9534505208333 0.0623376623376544  11 0.17316017316017  11 0.353246753246765  L 11 15.6467532467532  C 11 15.8268398268398  10.9534505208333 15.9376623376623  10.8603515625 15.9792207792208  C 10.7672526041667 16.0207792207792  10.6526692708333 15.9757575757576  10.5166015625 15.8441558441559  L 2.8896484375 8.46753246753246  C 2.8251953125 8.40519480519481  2.77864583333331 8.33939393939397  2.75 8.27012987012989  L 2.75 15.3142857142857  C 2.75 15.4943722943723  2.68196614583331 15.6502164502165  2.5458984375 15.7818181818182  C 2.40983072916669 15.9134199134199  2.24869791666669 15.9792207792208  2.0625 15.9792207792208  L 0.6875 15.9792207792208  C 0.501302083333314 15.9792207792208  0.340169270833314 15.9134199134199  0.2041015625 15.7818181818182  C 0.0680338541666856 15.6502164502165  0 15.4943722943723  0 15.3142857142857  L 0 0.685714285714312  C 0 0.505627705627717  0.0680338541666856 0.349783549783524  0.2041015625 0.218181818181847  C 0.340169270833314 0.0865800865800566  0.501302083333314 0.0207792207792181  0.6875 0.0207792207792181  L 2.0625 0.0207792207792181  C 2.24869791666669 0.0207792207792181  2.40983072916669 0.0865800865800566  2.5458984375 0.218181818181847  C 2.68196614583331 0.349783549783524  2.75 0.505627705627717  2.75 0.685714285714312  L 2.75 7.72987012987011  C 2.77864583333331 7.65367965367966  2.8251953125 7.58787878787876  2.8896484375 7.53246753246754  Z " fill-rule="nonzero" fill="#0099ff" stroke="none" transform="matrix(1 0 0 1 123 410 )" />
  </g>
</svg>