﻿<?xml version="1.0" encoding="utf-8"?>
<svg version="1.1" xmlns:xlink="http://www.w3.org/1999/xlink" width="12px" height="12px" viewBox="23 260  12 12" xmlns="http://www.w3.org/2000/svg">
  <path d="M 29 260  C 32.36 260  35 262.64  35 266  C 35 269.36  32.36 272  29 272  C 25.64 272  23 269.36  23 266  C 23 262.64  25.64 260  29 260  Z " fill-rule="nonzero" fill="#f0f0f0" stroke="none" />
  <path d="M 29 260.5  C 32.08 260.5  34.5 262.92  34.5 266  C 34.5 269.08  32.08 271.5  29 271.5  C 25.92 271.5  23.5 269.08  23.5 266  C 23.5 262.92  25.92 260.5  29 260.5  Z " stroke-width="1" stroke="#797979" fill="none" />
</svg>