﻿<?xml version="1.0" encoding="utf-8"?>
<svg version="1.1" xmlns:xlink="http://www.w3.org/1999/xlink" width="10px" height="65px" preserveAspectRatio="xMidYMin meet" viewBox="288 413  8 65" xmlns="http://www.w3.org/2000/svg">
  <defs>
    <mask fill="white" id="clip330">
      <path d="M 243 430  L 341 430  L 341 455  L 243 455  Z M 243 413  L 341 413  L 341 490  L 243 490  Z " fill-rule="evenodd" />
    </mask>
  </defs>
  <path d="M 292 430  L 292 413  M 292 455  L 292 471  " stroke-width="2" stroke="#999999" fill="none" />
  <path d="M 284 463.6  L 292 473  L 300 463.6  L 292 467.2  L 284 463.6  Z " fill-rule="nonzero" fill="#999999" stroke="none" mask="url(#clip330)" />
</svg>