﻿<?xml version="1.0" encoding="utf-8"?>
<svg version="1.1" xmlns:xlink="http://www.w3.org/1999/xlink" width="34px" height="34px" preserveAspectRatio="xMinYMid meet" viewBox="275 219  34 32" xmlns="http://www.w3.org/2000/svg">
  <path d="M 292 209  L 292 235  " stroke-width="2" stroke="#999999" fill="none" />
  <path d="M 284 227.6  L 292 237  L 300 227.6  L 292 231.2  L 284 227.6  Z " fill-rule="nonzero" fill="#999999" stroke="none" />
</svg>