﻿<?xml version="1.0" encoding="utf-8"?>
<svg version="1.1" xmlns:xlink="http://www.w3.org/1999/xlink" width="592px" height="285px" xmlns="http://www.w3.org/2000/svg">
  <defs>
    <mask fill="white" id="clip4">
      <path d="M 0 285  L 0 0  L 281.356425970335 0  L 592 0  L 592 285  L 0 285  Z " fill-rule="evenodd" />
    </mask>
  </defs>
  <g transform="matrix(1 0 0 1 -106 1 )">
    <path d="M 0 285  L 0 0  L 281.356425970335 0  L 592 0  L 592 285  L 0 285  Z " fill-rule="nonzero" fill="#ffffff" stroke="none" transform="matrix(1 0 0 1 106 -1 )" />
    <path d="M 0 285  L 0 0  L 281.356425970335 0  L 592 0  L 592 285  L 0 285  Z " stroke-width="2" stroke="#cccccc" fill="none" transform="matrix(1 0 0 1 106 -1 )" mask="url(#clip4)" />
  </g>
</svg>