﻿<?xml version="1.0" encoding="utf-8"?>
<svg version="1.1" xmlns:xlink="http://www.w3.org/1999/xlink" width="12px" height="12px" viewBox="9 93  12 12" xmlns="http://www.w3.org/2000/svg">
  <path d="M 9.5 93.5  L 20.5 93.5  L 20.5 104.5  L 9.5 104.5  L 9.5 93.5  Z " fill-rule="nonzero" fill="#f2f2f2" stroke="none" />
  <path d="M 9.5 93.5  L 20.5 93.5  L 20.5 104.5  L 9.5 104.5  L 9.5 93.5  Z " stroke-width="1" stroke="#797979" fill="none" />
  <path d="M 11.5714285714286 99  L 14.1428571428571 101.571428571429  L 18.4285714285714 95.5714285714286  " stroke-width="2.57142857142857" stroke="#797979" fill="none" />
</svg>