﻿<?xml version="1.0" encoding="utf-8"?>
<svg version="1.1" xmlns:xlink="http://www.w3.org/1999/xlink" width="36px" height="6px" preserveAspectRatio="xMinYMid meet" viewBox="2338 2503  36 4" xmlns="http://www.w3.org/2000/svg">
  <g transform="matrix(0 -1 1 0 -149 4861 )">
    <path d="M 2350.2 2515  L 2356.5 2521  L 2362.8 2515  L 2350.2 2515  Z " fill-rule="nonzero" fill="#797979" stroke="none" />
    <path d="M 2356.5 2490  L 2356.5 2516  " stroke-width="1" stroke-dasharray="3,1" stroke="#797979" fill="none" />
  </g>
</svg>