﻿<?xml version="1.0" encoding="utf-8"?>
<svg version="1.1" xmlns:xlink="http://www.w3.org/1999/xlink" width="398px" height="10px" preserveAspectRatio="xMinYMid meet" viewBox="2005 1730  398 8" xmlns="http://www.w3.org/2000/svg">
  <path d="M 2010 1752  L 2010 1739  A 5 5 0 0 1 2015 1734 L 2397 1734  " stroke-width="2" stroke="#0000ff" fill="none" />
  <path d="M 2396 1741.6  L 2403 1734  L 2396 1726.4  L 2396 1741.6  Z " fill-rule="nonzero" fill="#0000ff" stroke="none" />
</svg>