﻿<?xml version="1.0" encoding="utf-8"?>
<svg version="1.1" xmlns:xlink="http://www.w3.org/1999/xlink" width="135.5px" height="31px" xmlns="http://www.w3.org/2000/svg">
  <g transform="matrix(1 0 0 1 -1891.5 -2121 )">
    <path d="M 2002 2148  L 2014 2136.5  L 2002 2125  L 2002 2148  Z " fill-rule="nonzero" fill="#0000ff" stroke="none" />
    <path d="M 1894 2136.5  L 2005 2136.5  " stroke-width="5" stroke="#0000ff" fill="none" />
  </g>
</svg>