﻿<?xml version="1.0" encoding="utf-8"?>
<svg version="1.1" xmlns:xlink="http://www.w3.org/1999/xlink" width="10px" height="18px" preserveAspectRatio="xMidYMin meet" viewBox="2109 1780  8 18" xmlns="http://www.w3.org/2000/svg">
  <path d="M 2113 1780  L 2113 1788  A 5 5 0 0 0 2118 1793 L 2397 1793  " stroke-width="2" stroke="#0000ff" fill="none" />
  <path d="M 2396 1800.6  L 2403 1793  L 2396 1785.4  L 2396 1800.6  Z " fill-rule="nonzero" fill="#0000ff" stroke="none" />
</svg>