﻿<?xml version="1.0" encoding="utf-8"?>
<svg version="1.1" xmlns:xlink="http://www.w3.org/1999/xlink" width="5px" height="5px" xmlns="http://www.w3.org/2000/svg">
  <g transform="matrix(1 0 0 1 -62 -82 )">
    <path d="M 64.5 82  C 65.9 82  67 83.1  67 84.5  C 67 85.9  65.9 87  64.5 87  C 63.1 87  62 85.9  62 84.5  C 62 83.1  63.1 82  64.5 82  Z " fill-rule="nonzero" fill="#ffffff" stroke="none" fill-opacity="0" />
    <path d="M 64.5 82.5  C 65.62 82.5  66.5 83.38  66.5 84.5  C 66.5 85.62  65.62 86.5  64.5 86.5  C 63.38 86.5  62.5 85.62  62.5 84.5  C 62.5 83.38  63.38 82.5  64.5 82.5  Z " stroke-width="1" stroke="#333333" fill="none" />
  </g>
</svg>