﻿<?xml version="1.0" encoding="utf-8"?>
<svg version="1.1" xmlns:xlink="http://www.w3.org/1999/xlink" width="12px" height="12px" viewBox="11 189  12 12" xmlns="http://www.w3.org/2000/svg">
  <path d="M 11.5 189.5  L 22.5 189.5  L 22.5 200.5  L 11.5 200.5  L 11.5 189.5  Z " fill-rule="nonzero" fill="#ffffff" stroke="none" />
  <path d="M 11.5 189.5  L 22.5 189.5  L 22.5 200.5  L 11.5 200.5  L 11.5 189.5  Z " stroke-width="1" stroke="#797979" fill="none" />
  <path d="M 13.5714285714286 195  L 16.1428571428571 197.571428571429  L 20.4285714285714 191.571428571429  " stroke-width="2.57142857142857" stroke="#797979" fill="none" />
</svg>