﻿<?xml version="1.0" encoding="utf-8"?>
<svg version="1.1" xmlns:xlink="http://www.w3.org/1999/xlink" width="12px" height="12px" viewBox="111 693  12 12" xmlns="http://www.w3.org/2000/svg">
  <path d="M 111.5 693.5  L 122.5 693.5  L 122.5 704.5  L 111.5 704.5  L 111.5 693.5  Z " fill-rule="nonzero" fill="#ffffff" stroke="none" />
  <path d="M 111.5 693.5  L 122.5 693.5  L 122.5 704.5  L 111.5 704.5  L 111.5 693.5  Z " stroke-width="1" stroke="#797979" fill="none" />
  <path d="M 113.571428571429 699  L 116.142857142857 701.571428571429  L 120.428571428571 695.571428571429  " stroke-width="2.57142857142857" stroke="#797979" fill="none" />
</svg>