﻿<?xml version="1.0" encoding="utf-8"?>
<svg version="1.1" xmlns:xlink="http://www.w3.org/1999/xlink" width="65px" height="26px" xmlns="http://www.w3.org/2000/svg">
  <defs>
    <mask fill="white" id="clip594">
      <path d="M 0 21.1851851851852  L 0 4.81481481481481  C 0 2.11851851851856  0.798882681564242 0  1.81564245810056 0  L 63.1843575418994 0  C 64.2011173184357 0  65 2.11851851851856  65 4.81481481481481  L 65 21.1851851851852  C 65 23.8814814814814  64.2011173184357 26  63.1843575418994 26  L 29.9186300704396 26  L 1.81564245810056 26  C 0.798882681564242 26  0 23.8814814814814  0 21.1851851851852  Z " fill-rule="evenodd" />
    </mask>
  </defs>
  <g transform="matrix(1 0 0 1 -317 -757 )">
    <path d="M 0 21.1851851851852  L 0 4.81481481481481  C 0 2.11851851851856  0.798882681564242 0  1.81564245810056 0  L 63.1843575418994 0  C 64.2011173184357 0  65 2.11851851851856  65 4.81481481481481  L 65 21.1851851851852  C 65 23.8814814814814  64.2011173184357 26  63.1843575418994 26  L 29.9186300704396 26  L 1.81564245810056 26  C 0.798882681564242 26  0 23.8814814814814  0 21.1851851851852  Z " fill-rule="nonzero" fill="#ffffff" stroke="none" transform="matrix(1 0 0 1 317 757 )" />
    <path d="M 0 21.1851851851852  L 0 4.81481481481481  C 0 2.11851851851856  0.798882681564242 0  1.81564245810056 0  L 63.1843575418994 0  C 64.2011173184357 0  65 2.11851851851856  65 4.81481481481481  L 65 21.1851851851852  C 65 23.8814814814814  64.2011173184357 26  63.1843575418994 26  L 29.9186300704396 26  L 1.81564245810056 26  C 0.798882681564242 26  0 23.8814814814814  0 21.1851851851852  Z " stroke-width="2" stroke="#02a7f0" fill="none" transform="matrix(1 0 0 1 317 757 )" mask="url(#clip594)" />
  </g>
</svg>