﻿<?xml version="1.0" encoding="utf-8"?>
<svg version="1.1" xmlns:xlink="http://www.w3.org/1999/xlink" width="12px" height="12px" viewBox="70 764  12 12" xmlns="http://www.w3.org/2000/svg">
  <path d="M 70.5 764.5  L 81.5 764.5  L 81.5 775.5  L 70.5 775.5  L 70.5 764.5  Z " fill-rule="nonzero" fill="#f0f0f0" stroke="none" />
  <path d="M 70.5 764.5  L 81.5 764.5  L 81.5 775.5  L 70.5 775.5  L 70.5 764.5  Z " stroke-width="1" stroke="#797979" fill="none" />
  <path d="M 72.5714285714286 770  L 75.1428571428571 772.571428571429  " stroke-width="2.57142857142857" stroke="#797979" fill="none" />
  <path d="M 75.1428571428571 772.571428571429  L 79.4285714285714 766.571428571429  " stroke-width="2.57142857142857" stroke="#797979" fill="none" />
</svg>