﻿<?xml version="1.0" encoding="utf-8"?>
<svg version="1.1" xmlns:xlink="http://www.w3.org/1999/xlink" width="12px" height="12px" viewBox="10 127  12 12" xmlns="http://www.w3.org/2000/svg">
  <path d="M 10.5 127.5  L 21.5 127.5  L 21.5 138.5  L 10.5 138.5  L 10.5 127.5  Z " fill-rule="nonzero" fill="#f0f0f0" stroke="none" />
  <path d="M 10.5 127.5  L 21.5 127.5  L 21.5 138.5  L 10.5 138.5  L 10.5 127.5  Z " stroke-width="1" stroke="#797979" fill="none" />
  <path d="M 12.5714285714286 133  L 15.1428571428571 135.571428571429  " stroke-width="2.57142857142857" stroke="#797979" fill="none" />
  <path d="M 15.1428571428571 135.571428571429  L 19.4285714285714 129.571428571429  " stroke-width="2.57142857142857" stroke="#797979" fill="none" />
</svg>