﻿<?xml version="1.0" encoding="utf-8"?>
<svg version="1.1" xmlns:xlink="http://www.w3.org/1999/xlink" width="1025px" height="2px" xmlns="http://www.w3.org/2000/svg">
  <g transform="matrix(1 0 0 1 -20 -590 )">
    <path d="M 20 590.5  L 1044 590.5  " stroke-width="1" stroke="#bcbcbc" fill="none" />
  </g>
</svg>