﻿<?xml version="1.0" encoding="utf-8"?>
<svg version="1.1" xmlns:xlink="http://www.w3.org/1999/xlink" width="12px" height="12px" viewBox="12 162  12 12" xmlns="http://www.w3.org/2000/svg">
  <path d="M 18 162  C 21.36 162  24 164.64  24 168  C 24 171.36  21.36 174  18 174  C 14.64 174  12 171.36  12 168  C 12 164.64  14.64 162  18 162  Z " fill-rule="nonzero" fill="#ffffff" stroke="none" />
  <path d="M 18 162.5  C 21.08 162.5  23.5 164.92  23.5 168  C 23.5 171.08  21.08 173.5  18 173.5  C 14.92 173.5  12.5 171.08  12.5 168  C 12.5 164.92  14.92 162.5  18 162.5  Z " stroke-width="1" stroke="#797979" fill="none" />
  <path d="M 18 171  C 16.32 171  15 169.68  15 168  C 15 166.32  16.32 165  18 165  C 19.68 165  21 166.32  21 168  C 21 169.68  19.68 171  18 171  " fill-rule="nonzero" fill="#797979" stroke="none" />
</svg>