﻿<?xml version="1.0" encoding="utf-8"?>
<svg version="1.1" xmlns:xlink="http://www.w3.org/1999/xlink" width="12px" height="12px" viewBox="12 122  12 12" xmlns="http://www.w3.org/2000/svg">
  <path d="M 18 122  C 21.36 122  24 124.64  24 128  C 24 131.36  21.36 134  18 134  C 14.64 134  12 131.36  12 128  C 12 124.64  14.64 122  18 122  Z " fill-rule="nonzero" fill="#ffffff" stroke="none" />
  <path d="M 18 122.5  C 21.08 122.5  23.5 124.92  23.5 128  C 23.5 131.08  21.08 133.5  18 133.5  C 14.92 133.5  12.5 131.08  12.5 128  C 12.5 124.92  14.92 122.5  18 122.5  Z " stroke-width="1" stroke="#797979" fill="none" />
</svg>