﻿<?xml version="1.0" encoding="utf-8"?>
<svg version="1.1" xmlns:xlink="http://www.w3.org/1999/xlink" width="12px" height="12px" viewBox="12 97  12 12" xmlns="http://www.w3.org/2000/svg">
  <path d="M 18 97  C 21.36 97  24 99.64  24 103  C 24 106.36  21.36 109  18 109  C 14.64 109  12 106.36  12 103  C 12 99.64  14.64 97  18 97  Z " fill-rule="nonzero" fill="#ffffff" stroke="none" />
  <path d="M 18 97.5  C 21.08 97.5  23.5 99.92  23.5 103  C 23.5 106.08  21.08 108.5  18 108.5  C 14.92 108.5  12.5 106.08  12.5 103  C 12.5 99.92  14.92 97.5  18 97.5  Z " stroke-width="1" stroke="#797979" fill="none" />
</svg>