﻿<?xml version="1.0" encoding="utf-8"?>
<svg version="1.1" xmlns:xlink="http://www.w3.org/1999/xlink" width="2px" height="119px" xmlns="http://www.w3.org/2000/svg">
  <g transform="matrix(1 0 0 1 -442 -2850 )">
    <path d="M 442.5 2850  L 442.5 2968  " stroke-width="1" stroke="#cccccc" fill="none" />
  </g>
</svg>