﻿<?xml version="1.0" encoding="utf-8"?>
<svg version="1.1" xmlns:xlink="http://www.w3.org/1999/xlink" width="225px" height="44px" xmlns="http://www.w3.org/2000/svg">
  <defs>
    <filter x="46px" y="309px" width="225px" height="44px" filterUnits="userSpaceOnUse" id="filter214">
      <feOffset dx="0" dy="0" in="SourceAlpha" result="shadowOffsetInner" />
      <feGaussianBlur stdDeviation="2.5" in="shadowOffsetInner" result="shadowGaussian" />
      <feComposite in2="shadowGaussian" operator="atop" in="SourceAlpha" result="shadowComposite" />
      <feColorMatrix type="matrix" values="0 0 0 0 0  0 0 0 0 0  0 0 0 0 0  0 0 0 0.349019607843137 0  " in="shadowComposite" />
    </filter>
    <g id="widget215">
      <path d="M 51 314  L 266 314  L 266 348  L 51 348  L 51 314  Z " fill-rule="nonzero" fill="#ffffff" stroke="none" fill-opacity="0" />
    </g>
  </defs>
  <g transform="matrix(1 0 0 1 -46 -309 )">
    <use xlink:href="#widget215" filter="url(#filter214)" />
    <use xlink:href="#widget215" />
  </g>
</svg>