﻿<?xml version="1.0" encoding="utf-8"?>
<svg version="1.1" xmlns:xlink="http://www.w3.org/1999/xlink" width="224px" height="27px" xmlns="http://www.w3.org/2000/svg">
  <defs>
    <filter x="46px" y="230px" width="224px" height="27px" filterUnits="userSpaceOnUse" id="filter479">
      <feOffset dx="0" dy="0" in="SourceAlpha" result="shadowOffsetInner" />
      <feGaussianBlur stdDeviation="2.5" in="shadowOffsetInner" result="shadowGaussian" />
      <feComposite in2="shadowGaussian" operator="atop" in="SourceAlpha" result="shadowComposite" />
      <feColorMatrix type="matrix" values="0 0 0 0 0  0 0 0 0 0  0 0 0 0 0  0 0 0 0.349019607843137 0  " in="shadowComposite" />
    </filter>
    <g id="widget480">
      <path d="M 51 235  L 265 235  L 265 252  L 51 252  L 51 235  Z " fill-rule="nonzero" fill="#ffffff" stroke="none" fill-opacity="0" />
    </g>
  </defs>
  <g transform="matrix(1 0 0 1 -46 -230 )">
    <use xlink:href="#widget480" filter="url(#filter479)" />
    <use xlink:href="#widget480" />
  </g>
</svg>