﻿<?xml version="1.0" encoding="utf-8"?>
<svg version="1.1" xmlns:xlink="http://www.w3.org/1999/xlink" width="128px" height="27px" xmlns="http://www.w3.org/2000/svg">
  <defs>
    <filter x="46px" y="190px" width="128px" height="27px" filterUnits="userSpaceOnUse" id="filter481">
      <feOffset dx="0" dy="0" in="SourceAlpha" result="shadowOffsetInner" />
      <feGaussianBlur stdDeviation="2.5" in="shadowOffsetInner" result="shadowGaussian" />
      <feComposite in2="shadowGaussian" operator="atop" in="SourceAlpha" result="shadowComposite" />
      <feColorMatrix type="matrix" values="0 0 0 0 0  0 0 0 0 0  0 0 0 0 0  0 0 0 0.349019607843137 0  " in="shadowComposite" />
    </filter>
    <g id="widget482">
      <path d="M 51 195  L 169 195  L 169 212  L 51 212  L 51 195  Z " fill-rule="nonzero" fill="#ffffff" stroke="none" fill-opacity="0" />
    </g>
  </defs>
  <g transform="matrix(1 0 0 1 -46 -190 )">
    <use xlink:href="#widget482" filter="url(#filter481)" />
    <use xlink:href="#widget482" />
  </g>
</svg>