﻿<?xml version="1.0" encoding="utf-8"?>
<svg version="1.1" xmlns:xlink="http://www.w3.org/1999/xlink" width="124px" height="27px" xmlns="http://www.w3.org/2000/svg">
  <defs>
    <filter x="46px" y="270px" width="124px" height="27px" filterUnits="userSpaceOnUse" id="filter317">
      <feOffset dx="0" dy="0" in="SourceAlpha" result="shadowOffsetInner" />
      <feGaussianBlur stdDeviation="2.5" in="shadowOffsetInner" result="shadowGaussian" />
      <feComposite in2="shadowGaussian" operator="atop" in="SourceAlpha" result="shadowComposite" />
      <feColorMatrix type="matrix" values="0 0 0 0 0  0 0 0 0 0  0 0 0 0 0  0 0 0 0.349019607843137 0  " in="shadowComposite" />
    </filter>
    <g id="widget318">
      <path d="M 51 275  L 165 275  L 165 292  L 51 292  L 51 275  Z " fill-rule="nonzero" fill="#ffffff" stroke="none" fill-opacity="0" />
    </g>
  </defs>
  <g transform="matrix(1 0 0 1 -46 -270 )">
    <use xlink:href="#widget318" filter="url(#filter317)" />
    <use xlink:href="#widget318" />
  </g>
</svg>