<?xml version="1.0" encoding="UTF-8"?>
<svg width="20px" height="13px" viewBox="0 0 20 13" version="1.1" xmlns="http://www.w3.org/2000/svg" xmlns:xlink="http://www.w3.org/1999/xlink">
    <!-- Generator: Sketch 58 (84663) - https://sketch.com -->
    <title>icn/back@2x</title>
    <desc>Created with Sketch.</desc>
    <g id="页面1" stroke="none" stroke-width="1" fill="none" fill-rule="evenodd">
        <g id="资产管理-扫描资产标签" transform="translate(-19.000000, -37.000000)" fill="#FFFFFF">
            <g id="Bars/Navigation/Navigation-Bar" transform="translate(6.000000, 3.000000)">
                <g id="icn/back" transform="translate(10.000000, 28.000000)">
                    <path d="M9.36396103,6 L10.7781746,7.41421356 L6.828,11.363 L22.863961,11.363961 L22.863961,13.363961 L6.828,13.363 L10.7781746,17.3137085 L9.36396103,18.7279221 L3,12.363961 L9.36396103,6 Z"></path>
                </g>
            </g>
        </g>
    </g>
</svg>