﻿<?xml version="1.0" encoding="utf-8"?>
<svg version="1.1" xmlns:xlink="http://www.w3.org/1999/xlink" width="106px" height="25px" xmlns="http://www.w3.org/2000/svg">
  <g transform="matrix(1 0 0 1 -708 -84 )">
    <path d="M 724.7 91.4  L 719 96.5  L 724.7 101.6  L 730.1 96.5  L 724.7 91.4  Z M 797.3 101.6  L 803 96.5  L 797.3 91.4  L 791.9 96.5  L 797.3 101.6  Z " fill-rule="nonzero" fill="#ff0000" stroke="none" />
    <path d="M 722 96.5  L 800 96.5  " stroke-width="3" stroke="#ff0000" fill="none" />
  </g>
</svg>