﻿<?xml version="1.0" encoding="utf-8"?>
<svg version="1.1" xmlns:xlink="http://www.w3.org/1999/xlink" width="13px" height="8px" xmlns="http://www.w3.org/2000/svg">
  <g transform="matrix(1 0 0 1 -317 -116 )">
    <path d="M 317 116  L 323.5 124  L 330 116  L 317 116  Z " fill-rule="nonzero" fill="#bcbcbc" stroke="none" />
  </g>
</svg>