﻿<?xml version="1.0" encoding="utf-8"?>
<svg version="1.1" xmlns:xlink="http://www.w3.org/1999/xlink" width="29px" height="32px" xmlns="http://www.w3.org/2000/svg">
  <defs>
    <filter x="254px" y="427px" width="29px" height="32px" filterUnits="userSpaceOnUse" id="filter3">
      <feOffset dx="1" dy="1" in="SourceAlpha" result="shadowOffsetInner" />
      <feGaussianBlur stdDeviation="2.5" in="shadowOffsetInner" result="shadowGaussian" />
      <feComposite in2="shadowGaussian" operator="atop" in="SourceAlpha" result="shadowComposite" />
      <feColorMatrix type="matrix" values="0 0 0 0 0  0 0 0 0 0  0 0 0 0 0  0 0 0 0.698039215686274 0  " in="shadowComposite" />
    </filter>
    <g id="widget4">
      <path d="M 267.5 452.122550048336  C 263.9 446.960030798976  258.5 443.86251924936  258.5 438.7  C 258.5 436.025714285714  260.3 431.5  267.5 431.5  C 274.7 431.5  276.5 436.025714285714  276.5 438.7  C 276.5 443.86251924936  271.1 446.960030798976  267.5 452.122550048336  Z " fill-rule="nonzero" fill="#c280ff" stroke="none" />
      <path d="M 267.5 453  C 263.7 447.5  258 444.2  258 438.7  C 258 435.84  259.9 431  267.5 431  C 275.1 431  277 435.84  277 438.7  C 277 444.2  271.3 447.5  267.5 453  Z M 267.5 451.245100096673  C 270.9 446.420061597953  276 443.52503849872  276 438.7  C 276 436.211428571429  274.3 432  267.5 432  C 260.7 432  259 436.211428571429  259 438.7  C 259 443.52503849872  264.1 446.420061597953  267.5 451.245100096673  Z " fill-rule="nonzero" fill="#ffffff" stroke="none" />
    </g>
  </defs>
  <g transform="matrix(1 0 0 1 -254 -427 )">
    <use xlink:href="#widget4" filter="url(#filter3)" />
    <use xlink:href="#widget4" />
  </g>
</svg>