﻿<?xml version="1.0" encoding="utf-8"?>
<svg version="1.1" xmlns:xlink="http://www.w3.org/1999/xlink" width="12px" height="12px" viewBox="10 39  12 12" xmlns="http://www.w3.org/2000/svg">
  <path d="M 16 39  C 19.36 39  22 41.64  22 45  C 22 48.36  19.36 51  16 51  C 12.64 51  10 48.36  10 45  C 10 41.64  12.64 39  16 39  Z " fill-rule="nonzero" fill="#ffffff" stroke="none" />
  <path d="M 16 39.5  C 19.08 39.5  21.5 41.92  21.5 45  C 21.5 48.08  19.08 50.5  16 50.5  C 12.92 50.5  10.5 48.08  10.5 45  C 10.5 41.92  12.92 39.5  16 39.5  Z " stroke-width="1" stroke="#797979" fill="none" />
</svg>