﻿<?xml version="1.0" encoding="utf-8"?>
<svg version="1.1" xmlns:xlink="http://www.w3.org/1999/xlink" width="12px" height="12px" viewBox="10 69  12 12" xmlns="http://www.w3.org/2000/svg">
  <path d="M 16 69  C 19.36 69  22 71.64  22 75  C 22 78.36  19.36 81  16 81  C 12.64 81  10 78.36  10 75  C 10 71.64  12.64 69  16 69  Z " fill-rule="nonzero" fill="#ffffff" stroke="none" />
  <path d="M 16 69.5  C 19.08 69.5  21.5 71.92  21.5 75  C 21.5 78.08  19.08 80.5  16 80.5  C 12.92 80.5  10.5 78.08  10.5 75  C 10.5 71.92  12.92 69.5  16 69.5  Z " stroke-width="1" stroke="#797979" fill="none" />
  <path d="M 16 78  C 14.32 78  13 76.68  13 75  C 13 73.32  14.32 72  16 72  C 17.68 72  19 73.32  19 75  C 19 76.68  17.68 78  16 78  " fill-rule="nonzero" fill="#797979" stroke="none" />
</svg>