﻿<?xml version="1.0" encoding="utf-8"?>
<svg version="1.1" xmlns:xlink="http://www.w3.org/1999/xlink" width="12px" height="12px" viewBox="9 37  12 12" xmlns="http://www.w3.org/2000/svg">
  <path d="M 15 37  C 18.36 37  21 39.64  21 43  C 21 46.36  18.36 49  15 49  C 11.64 49  9 46.36  9 43  C 9 39.64  11.64 37  15 37  Z " fill-rule="nonzero" fill="#ffffff" stroke="none" />
  <path d="M 15 37.5  C 18.08 37.5  20.5 39.92  20.5 43  C 20.5 46.08  18.08 48.5  15 48.5  C 11.92 48.5  9.5 46.08  9.5 43  C 9.5 39.92  11.92 37.5  15 37.5  Z " stroke-width="1" stroke="#797979" fill="none" />
  <path d="M 15 46  C 13.32 46  12 44.68  12 43  C 12 41.32  13.32 40  15 40  C 16.68 40  18 41.32  18 43  C 18 44.68  16.68 46  15 46  " fill-rule="nonzero" fill="#797979" stroke="none" />
</svg>