﻿<?xml version="1.0" encoding="utf-8"?>
<svg version="1.1" xmlns:xlink="http://www.w3.org/1999/xlink" width="12px" height="12px" viewBox="9 187  12 12" xmlns="http://www.w3.org/2000/svg">
  <path d="M 15 187  C 18.36 187  21 189.64  21 193  C 21 196.36  18.36 199  15 199  C 11.64 199  9 196.36  9 193  C 9 189.64  11.64 187  15 187  Z " fill-rule="nonzero" fill="#ffffff" stroke="none" />
  <path d="M 15 187.5  C 18.08 187.5  20.5 189.92  20.5 193  C 20.5 196.08  18.08 198.5  15 198.5  C 11.92 198.5  9.5 196.08  9.5 193  C 9.5 189.92  11.92 187.5  15 187.5  Z " stroke-width="1" stroke="#797979" fill="none" />
</svg>