﻿<?xml version="1.0" encoding="utf-8"?>
<svg version="1.1" xmlns:xlink="http://www.w3.org/1999/xlink" width="12px" height="12px" viewBox="9 97  12 12" xmlns="http://www.w3.org/2000/svg">
  <path d="M 15 97  C 18.36 97  21 99.64  21 103  C 21 106.36  18.36 109  15 109  C 11.64 109  9 106.36  9 103  C 9 99.64  11.64 97  15 97  Z " fill-rule="nonzero" fill="#ffffff" stroke="none" />
  <path d="M 15 97.5  C 18.08 97.5  20.5 99.92  20.5 103  C 20.5 106.08  18.08 108.5  15 108.5  C 11.92 108.5  9.5 106.08  9.5 103  C 9.5 99.92  11.92 97.5  15 97.5  Z " stroke-width="1" stroke="#797979" fill="none" />
</svg>