﻿<?xml version="1.0" encoding="utf-8"?>
<svg version="1.1" xmlns:xlink="http://www.w3.org/1999/xlink" width="12px" height="12px" viewBox="9 67  12 12" xmlns="http://www.w3.org/2000/svg">
  <path d="M 15 67  C 18.36 67  21 69.64  21 73  C 21 76.36  18.36 79  15 79  C 11.64 79  9 76.36  9 73  C 9 69.64  11.64 67  15 67  Z " fill-rule="nonzero" fill="#f0f0f0" stroke="none" />
  <path d="M 15 67.5  C 18.08 67.5  20.5 69.92  20.5 73  C 20.5 76.08  18.08 78.5  15 78.5  C 11.92 78.5  9.5 76.08  9.5 73  C 9.5 69.92  11.92 67.5  15 67.5  Z " stroke-width="1" stroke="#797979" fill="none" />
</svg>