﻿<?xml version="1.0" encoding="utf-8"?>
<svg version="1.1" xmlns:xlink="http://www.w3.org/1999/xlink" width="12px" height="12px" viewBox="14 37  12 12" xmlns="http://www.w3.org/2000/svg">
  <path d="M 20 37  C 23.36 37  26 39.64  26 43  C 26 46.36  23.36 49  20 49  C 16.64 49  14 46.36  14 43  C 14 39.64  16.64 37  20 37  Z " fill-rule="nonzero" fill="#ffffff" stroke="none" />
  <path d="M 20 37.5  C 23.08 37.5  25.5 39.92  25.5 43  C 25.5 46.08  23.08 48.5  20 48.5  C 16.92 48.5  14.5 46.08  14.5 43  C 14.5 39.92  16.92 37.5  20 37.5  Z " stroke-width="1" stroke="#797979" fill="none" />
</svg>