﻿<?xml version="1.0" encoding="utf-8"?>
<svg version="1.1" xmlns:xlink="http://www.w3.org/1999/xlink" width="83px" height="24px" xmlns="http://www.w3.org/2000/svg">
  <defs>
    <filter x="217px" y="424px" width="83px" height="24px" filterUnits="userSpaceOnUse" id="filter204">
      <feOffset dx="0" dy="0" in="SourceAlpha" result="shadowOffsetInner" />
      <feGaussianBlur stdDeviation="2.5" in="shadowOffsetInner" result="shadowGaussian" />
      <feComposite in2="shadowGaussian" operator="atop" in="SourceAlpha" result="shadowComposite" />
      <feColorMatrix type="matrix" values="0 0 0 0 0  0 0 0 0 0  0 0 0 0 0  0 0 0 0.349019607843137 0  " in="shadowComposite" />
    </filter>
    <g id="widget205">
      <path d="M 222 429  L 295 429  L 295 443  L 222 443  L 222 429  Z " fill-rule="nonzero" fill="#ffffff" stroke="none" fill-opacity="0" />
    </g>
  </defs>
  <g transform="matrix(1 0 0 1 -217 -424 )">
    <use xlink:href="#widget205" filter="url(#filter204)" />
    <use xlink:href="#widget205" />
  </g>
</svg>