﻿<?xml version="1.0" encoding="utf-8"?>
<svg version="1.1" xmlns:xlink="http://www.w3.org/1999/xlink" width="71px" height="24px" xmlns="http://www.w3.org/2000/svg">
  <defs>
    <filter x="214px" y="17px" width="71px" height="24px" filterUnits="userSpaceOnUse" id="filter249">
      <feOffset dx="0" dy="0" in="SourceAlpha" result="shadowOffsetInner" />
      <feGaussianBlur stdDeviation="2.5" in="shadowOffsetInner" result="shadowGaussian" />
      <feComposite in2="shadowGaussian" operator="atop" in="SourceAlpha" result="shadowComposite" />
      <feColorMatrix type="matrix" values="0 0 0 0 0  0 0 0 0 0  0 0 0 0 0  0 0 0 0.349019607843137 0  " in="shadowComposite" />
    </filter>
    <g id="widget250">
      <path d="M 219 22  L 280 22  L 280 36  L 219 36  L 219 22  Z " fill-rule="nonzero" fill="#ffffff" stroke="none" fill-opacity="0" />
    </g>
  </defs>
  <g transform="matrix(1 0 0 1 -214 -17 )">
    <use xlink:href="#widget250" filter="url(#filter249)" />
    <use xlink:href="#widget250" />
  </g>
</svg>