﻿<?xml version="1.0" encoding="utf-8"?>
<svg version="1.1" xmlns:xlink="http://www.w3.org/1999/xlink" width="12px" height="12px" viewBox="13 187  12 12" xmlns="http://www.w3.org/2000/svg">
  <path d="M 13.5 187.5  L 24.5 187.5  L 24.5 198.5  L 13.5 198.5  L 13.5 187.5  Z " fill-rule="nonzero" fill="#ffffff" stroke="none" />
  <path d="M 13.5 187.5  L 24.5 187.5  L 24.5 198.5  L 13.5 198.5  L 13.5 187.5  Z " stroke-width="1" stroke="#797979" fill="none" />
  <path d="M 15.5714285714286 193  L 18.1428571428571 195.571428571429  " stroke-width="2.57142857142857" stroke="#797979" fill="none" />
  <path d="M 18.1428571428571 195.571428571429  L 22.4285714285714 189.571428571429  " stroke-width="2.57142857142857" stroke="#797979" fill="none" />
</svg>