﻿<?xml version="1.0" encoding="utf-8"?>
<svg version="1.1" xmlns:xlink="http://www.w3.org/1999/xlink" width="4px" height="4px" preserveAspectRatio="xMinYMid meet" viewBox="1252 853  4 2" xmlns="http://www.w3.org/2000/svg">
  <path d="M 1316 862.5  L 1330 853  L 1316 843.5  L 1316 862.5  Z M 1318 858.9  L 1318 847.1  L 1326.9 853  L 1318 858.9  Z " fill-rule="nonzero" fill="#d9001b" stroke="none" />
  <path d="M 1253 853  L 1318 853  " stroke-width="2" stroke="#d9001b" fill="none" />
</svg>