﻿<?xml version="1.0" encoding="utf-8"?>
<svg version="1.1" xmlns:xlink="http://www.w3.org/1999/xlink" width="12px" height="12px" viewBox="11 67  12 12" xmlns="http://www.w3.org/2000/svg">
  <path d="M 17 67  C 20.36 67  23 69.64  23 73  C 23 76.36  20.36 79  17 79  C 13.64 79  11 76.36  11 73  C 11 69.64  13.64 67  17 67  Z " fill-rule="nonzero" fill="#ffffff" stroke="none" />
  <path d="M 17 67.5  C 20.08 67.5  22.5 69.92  22.5 73  C 22.5 76.08  20.08 78.5  17 78.5  C 13.92 78.5  11.5 76.08  11.5 73  C 11.5 69.92  13.92 67.5  17 67.5  Z " stroke-width="1" stroke="#797979" fill="none" />
  <path d="M 17 76  C 15.32 76  14 74.68  14 73  C 14 71.32  15.32 70  17 70  C 18.68 70  20 71.32  20 73  C 20 74.68  18.68 76  17 76  " fill-rule="nonzero" fill="#797979" stroke="none" />
</svg>