﻿<?xml version="1.0" encoding="utf-8"?>
<svg version="1.1" xmlns:xlink="http://www.w3.org/1999/xlink" width="12px" height="12px" viewBox="36 313  12 12" xmlns="http://www.w3.org/2000/svg">
  <path d="M 42 313  C 45.36 313  48 315.64  48 319  C 48 322.36  45.36 325  42 325  C 38.64 325  36 322.36  36 319  C 36 315.64  38.64 313  42 313  Z " fill-rule="nonzero" fill="#f0f0f0" stroke="none" />
  <path d="M 42 313.5  C 45.08 313.5  47.5 315.92  47.5 319  C 47.5 322.08  45.08 324.5  42 324.5  C 38.92 324.5  36.5 322.08  36.5 319  C 36.5 315.92  38.92 313.5  42 313.5  Z " stroke-width="1" stroke="#797979" fill="none" />
</svg>