﻿<?xml version="1.0" encoding="utf-8"?>
<svg version="1.1" xmlns:xlink="http://www.w3.org/1999/xlink" width="98px" height="24px" xmlns="http://www.w3.org/2000/svg">
  <defs>
    <filter x="113px" y="348px" width="98px" height="24px" filterUnits="userSpaceOnUse" id="filter460">
      <feOffset dx="0" dy="0" in="SourceAlpha" result="shadowOffsetInner" />
      <feGaussianBlur stdDeviation="2.5" in="shadowOffsetInner" result="shadowGaussian" />
      <feComposite in2="shadowGaussian" operator="atop" in="SourceAlpha" result="shadowComposite" />
      <feColorMatrix type="matrix" values="0 0 0 0 0  0 0 0 0 0  0 0 0 0 0  0 0 0 0.349019607843137 0  " in="shadowComposite" />
    </filter>
    <g id="widget461">
      <path d="M 118 353  L 206 353  L 206 367  L 118 367  L 118 353  Z " fill-rule="nonzero" fill="#ffffff" stroke="none" fill-opacity="0" />
    </g>
  </defs>
  <g transform="matrix(1 0 0 1 -113 -348 )">
    <use xlink:href="#widget461" filter="url(#filter460)" />
    <use xlink:href="#widget461" />
  </g>
</svg>