﻿<?xml version="1.0" encoding="utf-8"?>
<svg version="1.1" xmlns:xlink="http://www.w3.org/1999/xlink" width="135px" height="27px" xmlns="http://www.w3.org/2000/svg">
  <g transform="matrix(1 0 0 1 -92 -367 )">
    <path d="M 93 375  A 7 7 0 0 1 100 368 L 219 368  A 7 7 0 0 1 226 375 L 226 386  A 7 7 0 0 1 219 393 L 100 393  A 7 7 0 0 1 93 386 L 93 375  Z " fill-rule="nonzero" fill="#d7d7d7" stroke="none" fill-opacity="0.694117647058824" />
  </g>
</svg>