﻿<?xml version="1.0" encoding="utf-8"?>
<svg version="1.1" xmlns:xlink="http://www.w3.org/1999/xlink" width="251.5px" height="31px" xmlns="http://www.w3.org/2000/svg">
  <g transform="matrix(1 0 0 1 -313.5 -188 )">
    <path d="M 540 215  L 552 203.5  L 540 192  L 540 215  Z " fill-rule="nonzero" fill="#d9001b" stroke="none" />
    <path d="M 316 203.5  L 543 203.5  " stroke-width="5" stroke="#d9001b" fill="none" />
  </g>
</svg>