﻿<?xml version="1.0" encoding="utf-8"?>
<svg version="1.1" xmlns:xlink="http://www.w3.org/1999/xlink" width="12px" height="12px" viewBox="92 405  12 12" xmlns="http://www.w3.org/2000/svg">
  <path d="M 98 405  C 101.36 405  104 407.64  104 411  C 104 414.36  101.36 417  98 417  C 94.64 417  92 414.36  92 411  C 92 407.64  94.64 405  98 405  Z " fill-rule="nonzero" fill="#ffffff" stroke="none" />
  <path d="M 98 405.5  C 101.08 405.5  103.5 407.92  103.5 411  C 103.5 414.08  101.08 416.5  98 416.5  C 94.92 416.5  92.5 414.08  92.5 411  C 92.5 407.92  94.92 405.5  98 405.5  Z " stroke-width="1" stroke="#797979" fill="none" />
</svg>