﻿<?xml version="1.0" encoding="utf-8"?>
<svg version="1.1" xmlns:xlink="http://www.w3.org/1999/xlink" width="12px" height="12px" viewBox="151 405  12 12" xmlns="http://www.w3.org/2000/svg">
  <path d="M 157 405  C 160.36 405  163 407.64  163 411  C 163 414.36  160.36 417  157 417  C 153.64 417  151 414.36  151 411  C 151 407.64  153.64 405  157 405  Z " fill-rule="nonzero" fill="#f0f0f0" stroke="none" />
  <path d="M 157 405.5  C 160.08 405.5  162.5 407.92  162.5 411  C 162.5 414.08  160.08 416.5  157 416.5  C 153.92 416.5  151.5 414.08  151.5 411  C 151.5 407.92  153.92 405.5  157 405.5  Z " stroke-width="1" stroke="#797979" fill="none" />
  <path d="M 157 414  C 155.32 414  154 412.68  154 411  C 154 409.32  155.32 408  157 408  C 158.68 408  160 409.32  160 411  C 160 412.68  158.68 414  157 414  " fill-rule="nonzero" fill="#797979" stroke="none" />
</svg>