﻿<?xml version="1.0" encoding="utf-8"?>
<svg version="1.1" xmlns:xlink="http://www.w3.org/1999/xlink" width="12px" height="12px" viewBox="358 363.5  12 12" xmlns="http://www.w3.org/2000/svg">
  <path d="M 364 363.5  C 367.36 363.5  370 366.14  370 369.5  C 370 372.86  367.36 375.5  364 375.5  C 360.64 375.5  358 372.86  358 369.5  C 358 366.14  360.64 363.5  364 363.5  Z " fill-rule="nonzero" fill="#ffffff" stroke="none" />
  <path d="M 364 364  C 367.08 364  369.5 366.42  369.5 369.5  C 369.5 372.58  367.08 375  364 375  C 360.92 375  358.5 372.58  358.5 369.5  C 358.5 366.42  360.92 364  364 364  Z " stroke-width="1" stroke="#797979" fill="none" />
  <path d="M 364 372.5  C 362.32 372.5  361 371.18  361 369.5  C 361 367.82  362.32 366.5  364 366.5  C 365.68 366.5  367 367.82  367 369.5  C 367 371.18  365.68 372.5  364 372.5  " fill-rule="nonzero" fill="#797979" stroke="none" />
</svg>