﻿<?xml version="1.0" encoding="utf-8"?>
<svg version="1.1" xmlns:xlink="http://www.w3.org/1999/xlink" width="124px" height="24px" xmlns="http://www.w3.org/2000/svg">
  <defs>
    <filter x="46px" y="308px" width="124px" height="24px" filterUnits="userSpaceOnUse" id="filter230">
      <feOffset dx="0" dy="0" in="SourceAlpha" result="shadowOffsetInner" />
      <feGaussianBlur stdDeviation="2.5" in="shadowOffsetInner" result="shadowGaussian" />
      <feComposite in2="shadowGaussian" operator="atop" in="SourceAlpha" result="shadowComposite" />
      <feColorMatrix type="matrix" values="0 0 0 0 0  0 0 0 0 0  0 0 0 0 0  0 0 0 0.349019607843137 0  " in="shadowComposite" />
    </filter>
    <g id="widget231">
      <path d="M 51 313  L 165 313  L 165 327  L 51 327  L 51 313  Z " fill-rule="nonzero" fill="#ffffff" stroke="none" fill-opacity="0" />
    </g>
  </defs>
  <g transform="matrix(1 0 0 1 -46 -308 )">
    <use xlink:href="#widget231" filter="url(#filter230)" />
    <use xlink:href="#widget231" />
  </g>
</svg>