﻿<?xml version="1.0" encoding="utf-8"?>
<svg version="1.1" xmlns:xlink="http://www.w3.org/1999/xlink" width="148.5px" height="31px" xmlns="http://www.w3.org/2000/svg">
  <g transform="matrix(1 0 0 1 -299.5 -180 )">
    <path d="M 423 207  L 435 195.5  L 423 184  L 423 207  Z " fill-rule="nonzero" fill="#d9001b" stroke="none" />
    <path d="M 302 195.5  L 426 195.5  " stroke-width="5" stroke="#d9001b" fill="none" />
  </g>
</svg>