﻿<?xml version="1.0" encoding="utf-8"?>
<svg version="1.1" xmlns:xlink="http://www.w3.org/1999/xlink" width="145px" height="24px" xmlns="http://www.w3.org/2000/svg">
  <defs>
    <filter x="49px" y="564px" width="145px" height="24px" filterUnits="userSpaceOnUse" id="filter410">
      <feOffset dx="0" dy="0" in="SourceAlpha" result="shadowOffsetInner" />
      <feGaussianBlur stdDeviation="2.5" in="shadowOffsetInner" result="shadowGaussian" />
      <feComposite in2="shadowGaussian" operator="atop" in="SourceAlpha" result="shadowComposite" />
      <feColorMatrix type="matrix" values="0 0 0 0 0  0 0 0 0 0  0 0 0 0 0  0 0 0 0.349019607843137 0  " in="shadowComposite" />
    </filter>
    <g id="widget411">
      <path d="M 54 569  L 189 569  L 189 583  L 54 583  L 54 569  Z " fill-rule="nonzero" fill="#ffffff" stroke="none" fill-opacity="0" />
    </g>
  </defs>
  <g transform="matrix(1 0 0 1 -49 -564 )">
    <use xlink:href="#widget411" filter="url(#filter410)" />
    <use xlink:href="#widget411" />
  </g>
</svg>