﻿<?xml version="1.0" encoding="utf-8"?>
<svg version="1.1" xmlns:xlink="http://www.w3.org/1999/xlink" width="69px" height="26px" xmlns="http://www.w3.org/2000/svg">
  <defs>
    <filter x="49px" y="15px" width="69px" height="26px" filterUnits="userSpaceOnUse" id="filter394">
      <feOffset dx="0" dy="0" in="SourceAlpha" result="shadowOffsetInner" />
      <feGaussianBlur stdDeviation="2.5" in="shadowOffsetInner" result="shadowGaussian" />
      <feComposite in2="shadowGaussian" operator="atop" in="SourceAlpha" result="shadowComposite" />
      <feColorMatrix type="matrix" values="0 0 0 0 0  0 0 0 0 0  0 0 0 0 0  0 0 0 0.349019607843137 0  " in="shadowComposite" />
    </filter>
    <g id="widget395">
      <path d="M 54 20  L 113 20  L 113 36  L 54 36  L 54 20  Z " fill-rule="nonzero" fill="#ffffff" stroke="none" fill-opacity="0" />
    </g>
  </defs>
  <g transform="matrix(1 0 0 1 -49 -15 )">
    <use xlink:href="#widget395" filter="url(#filter394)" />
    <use xlink:href="#widget395" />
  </g>
</svg>