﻿<?xml version="1.0" encoding="utf-8"?>
<svg version="1.1" xmlns:xlink="http://www.w3.org/1999/xlink" width="87px" height="26px" xmlns="http://www.w3.org/2000/svg">
  <defs>
    <filter x="49px" y="313px" width="87px" height="26px" filterUnits="userSpaceOnUse" id="filter416">
      <feOffset dx="0" dy="0" in="SourceAlpha" result="shadowOffsetInner" />
      <feGaussianBlur stdDeviation="2.5" in="shadowOffsetInner" result="shadowGaussian" />
      <feComposite in2="shadowGaussian" operator="atop" in="SourceAlpha" result="shadowComposite" />
      <feColorMatrix type="matrix" values="0 0 0 0 0  0 0 0 0 0  0 0 0 0 0  0 0 0 0.349019607843137 0  " in="shadowComposite" />
    </filter>
    <g id="widget417">
      <path d="M 54 318  L 131 318  L 131 334  L 54 334  L 54 318  Z " fill-rule="nonzero" fill="#ffffff" stroke="none" fill-opacity="0" />
    </g>
  </defs>
  <g transform="matrix(1 0 0 1 -49 -313 )">
    <use xlink:href="#widget417" filter="url(#filter416)" />
    <use xlink:href="#widget417" />
  </g>
</svg>