﻿<?xml version="1.0" encoding="utf-8"?>
<svg version="1.1" xmlns:xlink="http://www.w3.org/1999/xlink" width="12px" height="12px" viewBox="358 513.5  12 12" xmlns="http://www.w3.org/2000/svg">
  <path d="M 364 513.5  C 367.36 513.5  370 516.14  370 519.5  C 370 522.86  367.36 525.5  364 525.5  C 360.64 525.5  358 522.86  358 519.5  C 358 516.14  360.64 513.5  364 513.5  Z " fill-rule="nonzero" fill="#f0f0f0" stroke="none" />
  <path d="M 364 514  C 367.08 514  369.5 516.42  369.5 519.5  C 369.5 522.58  367.08 525  364 525  C 360.92 525  358.5 522.58  358.5 519.5  C 358.5 516.42  360.92 514  364 514  Z " stroke-width="1" stroke="#797979" fill="none" />
  <path d="M 364 522.5  C 362.32 522.5  361 521.18  361 519.5  C 361 517.82  362.32 516.5  364 516.5  C 365.68 516.5  367 517.82  367 519.5  C 367 521.18  365.68 522.5  364 522.5  " fill-rule="nonzero" fill="#797979" stroke="none" />
</svg>