﻿<?xml version="1.0" encoding="utf-8"?>
<svg version="1.1" xmlns:xlink="http://www.w3.org/1999/xlink" width="163px" height="10px" preserveAspectRatio="xMinYMid meet" viewBox="342 379  163 8" xmlns="http://www.w3.org/2000/svg">
  <defs>
    <mask fill="white" id="clip1148">
      <path d="M 464 295  L 536 295  L 536 320  L 464 320  Z M 325 207  L 667 207  L 667 400  L 325 400  Z " fill-rule="evenodd" />
    </mask>
  </defs>
  <path d="M 344 383  L 495 383  A 5 5 0 0 0 500 378 L 500 229  A 5 5 0 0 1 505 224 L 648 224  " stroke-width="2" stroke="#999999" fill="none" mask="url(#clip1148)" />
  <path d="M 351.4 375  L 342 383  L 351.4 391  L 347.8 383  L 351.4 375  Z M 640.6 232  L 650 224  L 640.6 216  L 644.2 224  L 640.6 232  Z " fill-rule="nonzero" fill="#999999" stroke="none" mask="url(#clip1148)" />
</svg>