﻿<?xml version="1.0" encoding="utf-8"?>
<svg version="1.1" xmlns:xlink="http://www.w3.org/1999/xlink" width="34px" height="34px" preserveAspectRatio="xMinYMid meet" viewBox="275 335  34 32" xmlns="http://www.w3.org/2000/svg">
  <defs>
    <mask fill="white" id="clip1129">
      <path d="M 275.5 322  L 308.5 322  L 308.5 347  L 275.5 347  Z M 275 316  L 309 316  L 309 370  L 275 370  Z " fill-rule="evenodd" />
    </mask>
  </defs>
  <path d="M 292 322  L 292 316  M 292 347  L 292 351  " stroke-width="2" stroke="#999999" fill="none" />
  <path d="M 284 343.6  L 292 353  L 300 343.6  L 292 347.2  L 284 343.6  Z " fill-rule="nonzero" fill="#999999" stroke="none" mask="url(#clip1129)" />
</svg>