﻿<?xml version="1.0" encoding="utf-8"?>
<svg version="1.1" xmlns:xlink="http://www.w3.org/1999/xlink" width="12px" height="12px" viewBox="36 243  12 12" xmlns="http://www.w3.org/2000/svg">
  <path d="M 36.5 243.5  L 47.5 243.5  L 47.5 254.5  L 36.5 254.5  L 36.5 243.5  Z " fill-rule="nonzero" fill="#ffffff" stroke="none" />
  <path d="M 36.5 243.5  L 47.5 243.5  L 47.5 254.5  L 36.5 254.5  L 36.5 243.5  Z " stroke-width="1" stroke="#797979" fill="none" />
  <path d="M 38.5714285714286 249  L 41.1428571428571 251.571428571429  L 45.4285714285714 245.571428571429  " stroke-width="2.57142857142857" stroke="#797979" fill="none" />
</svg>