﻿<?xml version="1.0" encoding="utf-8"?>
<svg version="1.1" xmlns:xlink="http://www.w3.org/1999/xlink" width="12px" height="12px" xmlns="http://www.w3.org/2000/svg">
  <g transform="matrix(1 0 0 1 -296 -141 )">
    <path d="M 297 147  A 5 5 0 0 1 302 142 A 5 5 0 0 1 307 147 A 5 5 0 0 1 302 152 A 5 5 0 0 1 297 147 Z " fill-rule="nonzero" fill="#ff6c47" stroke="none" />
  </g>
</svg>