﻿<?xml version="1.0" encoding="utf-8"?>
<svg version="1.1" xmlns:xlink="http://www.w3.org/1999/xlink" width="12px" height="12px" viewBox="144 625  12 12" xmlns="http://www.w3.org/2000/svg">
  <path d="M 150 625  C 153.36 625  156 627.64  156 631  C 156 634.36  153.36 637  150 637  C 146.64 637  144 634.36  144 631  C 144 627.64  146.64 625  150 625  Z " fill-rule="nonzero" fill="#ffffff" stroke="none" />
  <path d="M 150 625.5  C 153.08 625.5  155.5 627.92  155.5 631  C 155.5 634.08  153.08 636.5  150 636.5  C 146.92 636.5  144.5 634.08  144.5 631  C 144.5 627.92  146.92 625.5  150 625.5  Z " stroke-width="1" stroke="#797979" fill="none" />
  <path d="M 150 634  C 148.32 634  147 632.68  147 631  C 147 629.32  148.32 628  150 628  C 151.68 628  153 629.32  153 631  C 153 632.68  151.68 634  150 634  " fill-rule="nonzero" fill="#797979" stroke="none" />
</svg>