﻿<?xml version="1.0" encoding="utf-8"?>
<svg version="1.1" xmlns:xlink="http://www.w3.org/1999/xlink" width="592px" height="339px" xmlns="http://www.w3.org/2000/svg">
  <defs>
    <mask fill="white" id="clip5">
      <path d="M 0 339  L 0 0  L 281.356425970335 0  L 592 0  L 592 339  L 0 339  Z " fill-rule="evenodd" />
    </mask>
  </defs>
  <g transform="matrix(1 0 0 1 -1810 -1086 )">
    <path d="M 0 339  L 0 0  L 281.356425970335 0  L 592 0  L 592 339  L 0 339  Z " fill-rule="nonzero" fill="#ffffff" stroke="none" transform="matrix(1 0 0 1 1810 1086 )" />
    <path d="M 0 339  L 0 0  L 281.356425970335 0  L 592 0  L 592 339  L 0 339  Z " stroke-width="2" stroke="#cccccc" fill="none" transform="matrix(1 0 0 1 1810 1086 )" mask="url(#clip5)" />
  </g>
</svg>