﻿<?xml version="1.0" encoding="utf-8"?>
<svg version="1.1" xmlns:xlink="http://www.w3.org/1999/xlink" width="110px" height="6px" preserveAspectRatio="xMinYMid meet" viewBox="1676 3857  110 4" xmlns="http://www.w3.org/2000/svg">
  <g transform="matrix(-1 0 0 -1 3462 7718 )">
    <path d="M 1692 3849.5  L 1678 3859  L 1692 3868.5  L 1692 3849.5  Z " fill-rule="nonzero" fill="#07931d" stroke="none" transform="matrix(-1 1.22460635382238E-16 -1.22460635382238E-16 -1 3462 7718 )" />
    <path d="M 1690 3859  L 1784 3859  " stroke-width="2" stroke="#07931d" fill="none" transform="matrix(-1 1.22460635382238E-16 -1.22460635382238E-16 -1 3462 7718 )" />
  </g>
</svg>