﻿<?xml version="1.0" encoding="utf-8"?>
<svg version="1.1" xmlns:xlink="http://www.w3.org/1999/xlink" width="38px" height="36px" preserveAspectRatio="xMinYMid meet" viewBox="1124 525  38 34" xmlns="http://www.w3.org/2000/svg">
  <g transform="matrix(-1 0 0 -1 2286 1084 )">
    <path d="M 1135 551.5  L 1149 542  L 1135 532.5  L 1135 551.5  Z " fill-rule="nonzero" fill="#0000ff" stroke="none" />
    <path d="M 942 542  L 1137 542  " stroke-width="2" stroke="#0000ff" fill="none" />
  </g>
</svg>