﻿<?xml version="1.0" encoding="utf-8"?>
<svg version="1.1" xmlns:xlink="http://www.w3.org/1999/xlink" width="601px" height="36px" xmlns="http://www.w3.org/2000/svg">
  <g transform="matrix(1 0 0 1 -895 -971 )">
    <path d="M 1465 998.5  L 1479 989  L 1465 979.5  L 1465 998.5  Z " fill-rule="nonzero" fill="#0000ff" stroke="none" />
    <path d="M 896 989  L 1467 989  " stroke-width="2" stroke="#0000ff" fill="none" />
  </g>
</svg>