﻿<?xml version="1.0" encoding="utf-8"?>
<svg version="1.1" xmlns:xlink="http://www.w3.org/1999/xlink" width="252px" height="36px" xmlns="http://www.w3.org/2000/svg">
  <g transform="matrix(1 0 0 1 -925 -801 )">
    <path d="M 956 809.5  L 942 819  L 956 828.5  L 956 809.5  Z " fill-rule="nonzero" fill="#0000ff" stroke="none" />
    <path d="M 954 819  L 1175 819  " stroke-width="2" stroke="#0000ff" fill="none" />
  </g>
</svg>