﻿<?xml version="1.0" encoding="utf-8"?>
<svg version="1.1" xmlns:xlink="http://www.w3.org/1999/xlink" width="192px" height="4px" preserveAspectRatio="xMinYMid meet" viewBox="932 1297  192 2" xmlns="http://www.w3.org/2000/svg">
  <path d="M 949 1288.5  L 935 1298  L 949 1307.5  L 949 1288.5  Z " fill-rule="nonzero" fill="#0000ff" stroke="none" transform="matrix(0.999997225664599 -0.00235556004061846 0.00235556004061846 0.999997225664599 -3.05466352876283 2.42629458912666 )" />
  <path d="M 947 1298  L 1122 1298  " stroke-width="2" stroke="#0000ff" fill="none" transform="matrix(0.999997225664599 -0.00235556004061846 0.00235556004061846 0.999997225664599 -3.05466352876283 2.42629458912666 )" />
</svg>