﻿<?xml version="1.0" encoding="utf-8"?>
<svg version="1.1" xmlns:xlink="http://www.w3.org/1999/xlink" width="38px" height="36px" preserveAspectRatio="xMinYMid meet" viewBox="952 1489  38 34" xmlns="http://www.w3.org/2000/svg">
  <path d="M 978 1496.5  L 964 1506  L 978 1515.5  L 978 1496.5  Z " fill-rule="nonzero" fill="#aa00e6" stroke="none" />
  <path d="M 976 1506  L 1561 1506  " stroke-width="2" stroke="#aa00e6" fill="none" />
</svg>