﻿<?xml version="1.0" encoding="utf-8"?>
<svg version="1.1" xmlns:xlink="http://www.w3.org/1999/xlink" width="4px" height="4px" preserveAspectRatio="xMinYMid meet" viewBox="940 1843  4 2" xmlns="http://www.w3.org/2000/svg">
  <path d="M 1135 1853.5  L 1149 1844  L 1135 1834.5  L 1135 1853.5  Z " fill-rule="nonzero" fill="#0000ff" stroke="none" />
  <path d="M 942 1844  L 1137 1844  " stroke-width="2" stroke="#0000ff" fill="none" />
</svg>