﻿<?xml version="1.0" encoding="utf-8"?>
<svg version="1.1" xmlns:xlink="http://www.w3.org/1999/xlink" width="38px" height="36px" preserveAspectRatio="xMinYMid meet" viewBox="1124 1827  38 34" xmlns="http://www.w3.org/2000/svg">
  <g transform="matrix(-1 0 0 -1 2286 3688 )">
    <path d="M 1135 1853.5  L 1149 1844  L 1135 1834.5  L 1135 1853.5  Z " fill-rule="nonzero" fill="#0000ff" stroke="none" />
    <path d="M 942 1844  L 1137 1844  " stroke-width="2" stroke="#0000ff" fill="none" />
  </g>
</svg>