﻿<?xml version="1.0" encoding="utf-8"?>
<svg version="1.1" xmlns:xlink="http://www.w3.org/1999/xlink" width="238px" height="6px" preserveAspectRatio="xMinYMid meet" viewBox="940 2119  238 4" xmlns="http://www.w3.org/2000/svg">
  <path d="M 956 2111.5  L 942 2121  L 956 2130.5  L 956 2111.5  Z " fill-rule="nonzero" fill="#0000ff" stroke="none" />
  <path d="M 954 2121  L 1175 2121  " stroke-width="2" stroke="#0000ff" fill="none" />
</svg>