﻿<?xml version="1.0" encoding="utf-8"?>
<svg version="1.1" xmlns:xlink="http://www.w3.org/1999/xlink" width="4px" height="4px" preserveAspectRatio="xMinYMid meet" viewBox="936 2141  4 2" xmlns="http://www.w3.org/2000/svg">
  <path d="M 1465 2300.5  L 1479 2291  L 1465 2281.5  L 1465 2300.5  Z " fill-rule="nonzero" fill="#0000ff" stroke="none" transform="matrix(0.857515175573867 0.514458670507671 -0.514458670507671 0.857515175573867 1347.82554313911 -284.486938467588 )" />
  <path d="M 896 2291  L 1467 2291  " stroke-width="2" stroke="#0000ff" fill="none" transform="matrix(0.857515175573867 0.514458670507671 -0.514458670507671 0.857515175573867 1347.82554313911 -284.486938467588 )" />
</svg>