﻿<?xml version="1.0" encoding="utf-8"?>
<svg version="1.1" xmlns:xlink="http://www.w3.org/1999/xlink" width="192px" height="4px" preserveAspectRatio="xMinYMid meet" viewBox="932 2599  192 2" xmlns="http://www.w3.org/2000/svg">
  <path d="M 949 2590.5  L 935 2600  L 949 2609.5  L 949 2590.5  Z " fill-rule="nonzero" fill="#0000ff" stroke="none" transform="matrix(0.999997225664599 -0.00235556004061846 0.00235556004061846 0.999997225664599 -6.12160270164804 2.4299067738184 )" />
  <path d="M 947 2600  L 1122 2600  " stroke-width="2" stroke="#0000ff" fill="none" transform="matrix(0.999997225664599 -0.00235556004061846 0.00235556004061846 0.999997225664599 -6.12160270164804 2.4299067738184 )" />
</svg>