﻿<?xml version="1.0" encoding="utf-8"?>
<svg version="1.1" xmlns:xlink="http://www.w3.org/1999/xlink" width="4px" height="4px" preserveAspectRatio="xMinYMid meet" viewBox="1560 2807  4 2" xmlns="http://www.w3.org/2000/svg">
  <path d="M 978 2798.5  L 964 2808  L 978 2817.5  L 978 2798.5  Z " fill-rule="nonzero" fill="#aa00e6" stroke="none" />
  <path d="M 976 2808  L 1561 2808  " stroke-width="2" stroke="#aa00e6" fill="none" />
</svg>