﻿<?xml version="1.0" encoding="utf-8"?>
<svg version="1.1" xmlns:xlink="http://www.w3.org/1999/xlink" width="66px" height="4px" preserveAspectRatio="xMinYMid meet" viewBox="1264 3269  66 2" xmlns="http://www.w3.org/2000/svg">
  <g transform="matrix(0 -1 1 0 -1973 4567 )">
    <path d="M 1314 3279.5  L 1328 3270  L 1314 3260.5  L 1314 3279.5  Z " fill-rule="nonzero" fill="#0000ff" stroke="none" transform="matrix(6.12303176911189E-17 1 -1 6.12303176911189E-17 4567 1973 )" />
    <path d="M 1266 3270  L 1316 3270  " stroke-width="2" stroke="#0000ff" fill="none" transform="matrix(6.12303176911189E-17 1 -1 6.12303176911189E-17 4567 1973 )" />
  </g>
</svg>