﻿<?xml version="1.0" encoding="utf-8"?>
<svg version="1.1" xmlns:xlink="http://www.w3.org/1999/xlink" width="588px" height="6px" preserveAspectRatio="xMinYMid meet" viewBox="894 3591  588 4" xmlns="http://www.w3.org/2000/svg">
  <g transform="matrix(0.857167300702099 -0.51503807491005 0.515038074910076 0.857167300702105 -1680.846556386 1125.06312157048 )">
    <path d="M 1465 3602.5  L 1479 3593  L 1465 3583.5  L 1465 3602.5  Z " fill-rule="nonzero" fill="#0000ff" stroke="none" transform="matrix(0.857515175573867 0.514458670507671 -0.514458670507671 0.857515175573867 2017.6507321401 -98.9716970647623 )" />
    <path d="M 896 3593  L 1467 3593  " stroke-width="2" stroke="#0000ff" fill="none" transform="matrix(0.857515175573867 0.514458670507671 -0.514458670507671 0.857515175573867 2017.6507321401 -98.9716970647623 )" />
  </g>
</svg>