﻿<?xml version="1.0" encoding="utf-8"?>
<svg version="1.1" xmlns:xlink="http://www.w3.org/1999/xlink" width="38px" height="38px" preserveAspectRatio="xMinYMid meet" viewBox="930 3405  38 36" xmlns="http://www.w3.org/2000/svg">
  <path d="M 956 3413.5  L 942 3423  L 956 3432.5  L 956 3413.5  Z " fill-rule="nonzero" fill="#0000ff" stroke="none" />
  <path d="M 954 3423  L 1175 3423  " stroke-width="2" stroke="#0000ff" fill="none" />
</svg>