﻿<?xml version="1.0" encoding="utf-8"?>
<svg version="1.1" xmlns:xlink="http://www.w3.org/1999/xlink" width="4px" height="4px" preserveAspectRatio="xMinYMid meet" viewBox="1398 3901  4 2" xmlns="http://www.w3.org/2000/svg">
  <path d="M 1367 3892.5  L 1353 3902  L 1367 3911.5  L 1367 3892.5  Z " fill-rule="nonzero" fill="#0000ff" stroke="none" />
  <path d="M 1365 3902  L 1400 3902  " stroke-width="2" stroke="#0000ff" fill="none" />
</svg>