﻿<?xml version="1.0" encoding="utf-8"?>
<svg version="1.1" xmlns:xlink="http://www.w3.org/1999/xlink" width="4px" height="4px" preserveAspectRatio="xMinYMid meet" viewBox="1560 4109  4 2" xmlns="http://www.w3.org/2000/svg">
  <path d="M 978 4100.5  L 964 4110  L 978 4119.5  L 978 4100.5  Z " fill-rule="nonzero" fill="#aa00e6" stroke="none" />
  <path d="M 976 4110  L 1561 4110  " stroke-width="2" stroke="#aa00e6" fill="none" />
</svg>