﻿<?xml version="1.0" encoding="utf-8"?>
<svg version="1.1" xmlns:xlink="http://www.w3.org/1999/xlink" width="222px" height="6px" preserveAspectRatio="xMinYMid meet" viewBox="1416 1895  222 4" xmlns="http://www.w3.org/2000/svg">
  <path d="M 1622 1906.5  L 1636 1897  L 1622 1887.5  L 1622 1906.5  Z " fill-rule="nonzero" fill="#0000ff" stroke="none" />
  <path d="M 1419 1897  L 1624 1897  " stroke-width="2" stroke="#0000ff" fill="none" />
</svg>