﻿<?xml version="1.0" encoding="utf-8"?>
<svg version="1.1" xmlns:xlink="http://www.w3.org/1999/xlink" width="158px" height="5px" xmlns="http://www.w3.org/2000/svg">
  <g transform="matrix(1 0 0 1 -1483 -1064 )">
    <path d="M 1484 1066  L 1639 1066  " stroke-width="2" stroke="#0000ff" fill="none" />
  </g>
</svg>