﻿<?xml version="1.0" encoding="utf-8"?>
<svg version="1.1" xmlns:xlink="http://www.w3.org/1999/xlink" width="4px" height="4px" preserveAspectRatio="xMinYMid meet" viewBox="1560 2291  4 2" xmlns="http://www.w3.org/2000/svg">
  <path d="M 2430 2300.5  L 2444 2291  L 2430 2281.5  L 2430 2300.5  Z " fill-rule="nonzero" fill="#0000ff" stroke="none" />
  <path d="M 1561 2291  L 2432 2291  " stroke-width="2" stroke="#0000ff" fill="none" />
</svg>