﻿<?xml version="1.0" encoding="utf-8"?>
<svg version="1.1" xmlns:xlink="http://www.w3.org/1999/xlink" width="28px" height="26px" preserveAspectRatio="xMinYMid meet" viewBox="694 1  28 24" xmlns="http://www.w3.org/2000/svg">
  <g transform="matrix(0 -1 1 0 695 721 )">
    <path d="M 467.7 251.4  L 462 256.5  L 467.7 261.6  L 473.1 256.5  L 467.7 251.4  Z M 949.3 261.6  L 955 256.5  L 949.3 251.4  L 943.9 256.5  L 949.3 261.6  Z " fill-rule="nonzero" fill="#ff0000" stroke="none" transform="matrix(6.12303176911189E-17 1 -1 6.12303176911189E-17 965 -452 )" />
    <path d="M 465 256.5  L 952 256.5  " stroke-width="3" stroke-dasharray="9,3" stroke="#ff0000" fill="none" transform="matrix(6.12303176911189E-17 1 -1 6.12303176911189E-17 965 -452 )" />
  </g>
</svg>