﻿<?xml version="1.0" encoding="utf-8"?>
<svg version="1.1" xmlns:xlink="http://www.w3.org/1999/xlink" width="28px" height="28px" preserveAspectRatio="xMinYMid meet" viewBox="336 487  28 26" xmlns="http://www.w3.org/2000/svg">
  <g transform="matrix(0 1 -1 0 850 150 )">
    <path d="M 109.7 251.4  L 104 256.5  L 109.7 261.6  L 115.1 256.5  L 109.7 251.4  Z M 591.3 261.6  L 597 256.5  L 591.3 251.4  L 585.9 256.5  L 591.3 261.6  Z " fill-rule="nonzero" fill="#ff0000" stroke="none" transform="matrix(6.12303176911189E-17 1 -1 6.12303176911189E-17 607 -94 )" />
    <path d="M 107 256.5  L 594 256.5  " stroke-width="3" stroke-dasharray="9,3" stroke="#ff0000" fill="none" transform="matrix(6.12303176911189E-17 1 -1 6.12303176911189E-17 607 -94 )" />
  </g>
</svg>