﻿<?xml version="1.0" encoding="utf-8"?>
<svg version="1.1" xmlns:xlink="http://www.w3.org/1999/xlink" width="12px" height="12px" viewBox="14 99  12 12" xmlns="http://www.w3.org/2000/svg">
  <path d="M 20 99  C 23.36 99  26 101.64  26 105  C 26 108.36  23.36 111  20 111  C 16.64 111  14 108.36  14 105  C 14 101.64  16.64 99  20 99  Z " fill-rule="nonzero" fill="#f0f0f0" stroke="none" />
  <path d="M 20 99.5  C 23.08 99.5  25.5 101.92  25.5 105  C 25.5 108.08  23.08 110.5  20 110.5  C 16.92 110.5  14.5 108.08  14.5 105  C 14.5 101.92  16.92 99.5  20 99.5  Z " stroke-width="1" stroke="#797979" fill="none" />
</svg>