﻿<?xml version="1.0" encoding="utf-8"?>
<svg version="1.1" xmlns:xlink="http://www.w3.org/1999/xlink" width="12px" height="12px" viewBox="13 36  12 12" xmlns="http://www.w3.org/2000/svg">
  <path d="M 19 36  C 22.36 36  25 38.64  25 42  C 25 45.36  22.36 48  19 48  C 15.64 48  13 45.36  13 42  C 13 38.64  15.64 36  19 36  Z " fill-rule="nonzero" fill="#ffffff" stroke="none" />
  <path d="M 19 36.5  C 22.08 36.5  24.5 38.92  24.5 42  C 24.5 45.08  22.08 47.5  19 47.5  C 15.92 47.5  13.5 45.08  13.5 42  C 13.5 38.92  15.92 36.5  19 36.5  Z " stroke-width="1" stroke="#797979" fill="none" />
</svg>