﻿<?xml version="1.0" encoding="utf-8"?>
<svg version="1.1" xmlns:xlink="http://www.w3.org/1999/xlink" width="12px" height="12px" viewBox="13 67  12 12" xmlns="http://www.w3.org/2000/svg">
  <path d="M 19 67  C 22.36 67  25 69.64  25 73  C 25 76.36  22.36 79  19 79  C 15.64 79  13 76.36  13 73  C 13 69.64  15.64 67  19 67  Z " fill-rule="nonzero" fill="#ffffff" stroke="none" />
  <path d="M 19 67.5  C 22.08 67.5  24.5 69.92  24.5 73  C 24.5 76.08  22.08 78.5  19 78.5  C 15.92 78.5  13.5 76.08  13.5 73  C 13.5 69.92  15.92 67.5  19 67.5  Z " stroke-width="1" stroke="#797979" fill="none" />
  <path d="M 19 76  C 17.32 76  16 74.68  16 73  C 16 71.32  17.32 70  19 70  C 20.68 70  22 71.32  22 73  C 22 74.68  20.68 76  19 76  " fill-rule="nonzero" fill="#797979" stroke="none" />
</svg>