﻿<?xml version="1.0" encoding="utf-8"?>
<svg version="1.1" xmlns:xlink="http://www.w3.org/1999/xlink" width="12px" height="12px" viewBox="277 595  12 12" xmlns="http://www.w3.org/2000/svg">
  <path d="M 283 595  C 286.36 595  289 597.64  289 601  C 289 604.36  286.36 607  283 607  C 279.64 607  277 604.36  277 601  C 277 597.64  279.64 595  283 595  Z " fill-rule="nonzero" fill="#ffffff" stroke="none" />
  <path d="M 283 595.5  C 286.08 595.5  288.5 597.92  288.5 601  C 288.5 604.08  286.08 606.5  283 606.5  C 279.92 606.5  277.5 604.08  277.5 601  C 277.5 597.92  279.92 595.5  283 595.5  Z " stroke-width="1" stroke="#797979" fill="none" />
</svg>