﻿<?xml version="1.0" encoding="utf-8"?>
<svg version="1.1" xmlns:xlink="http://www.w3.org/1999/xlink" width="12px" height="12px" viewBox="565 234  12 12" xmlns="http://www.w3.org/2000/svg">
  <path d="M 571 234  C 574.36 234  577 236.64  577 240  C 577 243.36  574.36 246  571 246  C 567.64 246  565 243.36  565 240  C 565 236.64  567.64 234  571 234  Z " fill-rule="nonzero" fill="#ffffff" stroke="none" />
  <path d="M 571 234.5  C 574.08 234.5  576.5 236.92  576.5 240  C 576.5 243.08  574.08 245.5  571 245.5  C 567.92 245.5  565.5 243.08  565.5 240  C 565.5 236.92  567.92 234.5  571 234.5  Z " stroke-width="1" stroke="#797979" fill="none" />
</svg>