﻿<?xml version="1.0" encoding="utf-8"?>
<svg version="1.1" xmlns:xlink="http://www.w3.org/1999/xlink" width="12px" height="12px" viewBox="186 564  12 12" xmlns="http://www.w3.org/2000/svg">
  <path d="M 192 564  C 195.36 564  198 566.64  198 570  C 198 573.36  195.36 576  192 576  C 188.64 576  186 573.36  186 570  C 186 566.64  188.64 564  192 564  Z " fill-rule="nonzero" fill="#f0f0f0" stroke="none" />
  <path d="M 192 564.5  C 195.08 564.5  197.5 566.92  197.5 570  C 197.5 573.08  195.08 575.5  192 575.5  C 188.92 575.5  186.5 573.08  186.5 570  C 186.5 566.92  188.92 564.5  192 564.5  Z " stroke-width="1" stroke="#797979" fill="none" />
</svg>