﻿<?xml version="1.0" encoding="utf-8"?>
<svg version="1.1" xmlns:xlink="http://www.w3.org/1999/xlink" width="12px" height="12px" viewBox="186 595  12 12" xmlns="http://www.w3.org/2000/svg">
  <path d="M 192 595  C 195.36 595  198 597.64  198 601  C 198 604.36  195.36 607  192 607  C 188.64 607  186 604.36  186 601  C 186 597.64  188.64 595  192 595  Z " fill-rule="nonzero" fill="#f0f0f0" stroke="none" />
  <path d="M 192 595.5  C 195.08 595.5  197.5 597.92  197.5 601  C 197.5 604.08  195.08 606.5  192 606.5  C 188.92 606.5  186.5 604.08  186.5 601  C 186.5 597.92  188.92 595.5  192 595.5  Z " stroke-width="1" stroke="#797979" fill="none" />
</svg>