﻿<?xml version="1.0" encoding="utf-8"?>
<svg version="1.1" xmlns:xlink="http://www.w3.org/1999/xlink" width="12px" height="12px" viewBox="277 564  12 12" xmlns="http://www.w3.org/2000/svg">
  <path d="M 283 564  C 286.36 564  289 566.64  289 570  C 289 573.36  286.36 576  283 576  C 279.64 576  277 573.36  277 570  C 277 566.64  279.64 564  283 564  Z " fill-rule="nonzero" fill="#f0f0f0" stroke="none" />
  <path d="M 283 564.5  C 286.08 564.5  288.5 566.92  288.5 570  C 288.5 573.08  286.08 575.5  283 575.5  C 279.92 575.5  277.5 573.08  277.5 570  C 277.5 566.92  279.92 564.5  283 564.5  Z " stroke-width="1" stroke="#797979" fill="none" />
</svg>