﻿<?xml version="1.0" encoding="utf-8"?>
<svg version="1.1" xmlns:xlink="http://www.w3.org/1999/xlink" width="12px" height="12px" viewBox="17 402  12 12" xmlns="http://www.w3.org/2000/svg">
  <path d="M 23 402  C 26.36 402  29 404.64  29 408  C 29 411.36  26.36 414  23 414  C 19.64 414  17 411.36  17 408  C 17 404.64  19.64 402  23 402  Z " fill-rule="nonzero" fill="#f0f0f0" stroke="none" />
  <path d="M 23 402.5  C 26.08 402.5  28.5 404.92  28.5 408  C 28.5 411.08  26.08 413.5  23 413.5  C 19.92 413.5  17.5 411.08  17.5 408  C 17.5 404.92  19.92 402.5  23 402.5  Z " stroke-width="1" stroke="#797979" fill="none" />
  <path d="M 23 411  C 21.32 411  20 409.68  20 408  C 20 406.32  21.32 405  23 405  C 24.68 405  26 406.32  26 408  C 26 409.68  24.68 411  23 411  " fill-rule="nonzero" fill="#797979" stroke="none" />
</svg>