﻿<?xml version="1.0" encoding="utf-8"?>
<svg version="1.1" xmlns:xlink="http://www.w3.org/1999/xlink" width="34px" height="34px" preserveAspectRatio="xMinYMid meet" viewBox="417 219  34 32" xmlns="http://www.w3.org/2000/svg">
  <defs>
    <mask fill="white" id="clip288">
      <path d="M 378.5 169  L 489.5 169  L 489.5 194  L 378.5 194  Z M 378.5 126  L 489.5 126  L 489.5 254  L 378.5 254  Z " fill-rule="evenodd" />
    </mask>
  </defs>
  <path d="M 434 169  L 434 126  M 434 194  L 434 235  " stroke-width="2" stroke="#999999" fill="none" />
  <path d="M 426 227.6  L 434 237  L 442 227.6  L 434 231.2  L 426 227.6  Z " fill-rule="nonzero" fill="#999999" stroke="none" mask="url(#clip288)" />
</svg>