﻿<?xml version="1.0" encoding="utf-8"?>
<svg version="1.1" xmlns:xlink="http://www.w3.org/1999/xlink" width="197px" height="10px" preserveAspectRatio="xMinYMid meet" viewBox="187 1137  197 8" xmlns="http://www.w3.org/2000/svg">
  <path d="M 192 749  L 192 1136  A 5 5 0 0 0 197 1141 L 382 1141  " stroke-width="2" stroke="#999999" fill="none" />
  <path d="M 374.6 1149  L 384 1141  L 374.6 1133  L 378.2 1141  L 374.6 1149  Z " fill-rule="nonzero" fill="#999999" stroke="none" />
</svg>