﻿<?xml version="1.0" encoding="utf-8"?>
<svg version="1.1" xmlns:xlink="http://www.w3.org/1999/xlink" width="12px" height="12px" viewBox="8 38  12 12" xmlns="http://www.w3.org/2000/svg">
  <path d="M 14 38  C 17.36 38  20 40.64  20 44  C 20 47.36  17.36 50  14 50  C 10.64 50  8 47.36  8 44  C 8 40.64  10.64 38  14 38  Z " fill-rule="nonzero" fill="#ffffff" stroke="none" />
  <path d="M 14 38.5  C 17.08 38.5  19.5 40.92  19.5 44  C 19.5 47.08  17.08 49.5  14 49.5  C 10.92 49.5  8.5 47.08  8.5 44  C 8.5 40.92  10.92 38.5  14 38.5  Z " stroke-width="1" stroke="#797979" fill="none" />
  <path d="M 14 47  C 12.32 47  11 45.68  11 44  C 11 42.32  12.32 41  14 41  C 15.68 41  17 42.32  17 44  C 17 45.68  15.68 47  14 47  " fill-rule="nonzero" fill="#797979" stroke="none" />
</svg>