﻿<?xml version="1.0" encoding="utf-8"?>
<svg version="1.1" xmlns:xlink="http://www.w3.org/1999/xlink" width="12px" height="12px" viewBox="8 247  12 12" xmlns="http://www.w3.org/2000/svg">
  <path d="M 14 247  C 17.36 247  20 249.64  20 253  C 20 256.36  17.36 259  14 259  C 10.64 259  8 256.36  8 253  C 8 249.64  10.64 247  14 247  Z " fill-rule="nonzero" fill="#ffffff" stroke="none" />
  <path d="M 14 247.5  C 17.08 247.5  19.5 249.92  19.5 253  C 19.5 256.08  17.08 258.5  14 258.5  C 10.92 258.5  8.5 256.08  8.5 253  C 8.5 249.92  10.92 247.5  14 247.5  Z " stroke-width="1" stroke="#797979" fill="none" />
</svg>