﻿<?xml version="1.0" encoding="utf-8"?>
<svg version="1.1" xmlns:xlink="http://www.w3.org/1999/xlink" width="12px" height="12px" viewBox="8 339  12 12" xmlns="http://www.w3.org/2000/svg">
  <path d="M 14 339  C 17.36 339  20 341.64  20 345  C 20 348.36  17.36 351  14 351  C 10.64 351  8 348.36  8 345  C 8 341.64  10.64 339  14 339  Z " fill-rule="nonzero" fill="#ffffff" stroke="none" />
  <path d="M 14 339.5  C 17.08 339.5  19.5 341.92  19.5 345  C 19.5 348.08  17.08 350.5  14 350.5  C 10.92 350.5  8.5 348.08  8.5 345  C 8.5 341.92  10.92 339.5  14 339.5  Z " stroke-width="1" stroke="#797979" fill="none" />
</svg>