﻿<?xml version="1.0" encoding="utf-8"?>
<svg version="1.1" xmlns:xlink="http://www.w3.org/1999/xlink" width="12px" height="12px" viewBox="8 369  12 12" xmlns="http://www.w3.org/2000/svg">
  <path d="M 14 369  C 17.36 369  20 371.64  20 375  C 20 378.36  17.36 381  14 381  C 10.64 381  8 378.36  8 375  C 8 371.64  10.64 369  14 369  Z " fill-rule="nonzero" fill="#f0f0f0" stroke="none" />
  <path d="M 14 369.5  C 17.08 369.5  19.5 371.92  19.5 375  C 19.5 378.08  17.08 380.5  14 380.5  C 10.92 380.5  8.5 378.08  8.5 375  C 8.5 371.92  10.92 369.5  14 369.5  Z " stroke-width="1" stroke="#797979" fill="none" />
</svg>