﻿<?xml version="1.0" encoding="utf-8"?>
<svg version="1.1" xmlns:xlink="http://www.w3.org/1999/xlink" width="12px" height="12px" viewBox="11 128  12 12" xmlns="http://www.w3.org/2000/svg">
  <path d="M 17 128  C 20.36 128  23 130.64  23 134  C 23 137.36  20.36 140  17 140  C 13.64 140  11 137.36  11 134  C 11 130.64  13.64 128  17 128  Z " fill-rule="nonzero" fill="#ffffff" stroke="none" />
  <path d="M 17 128.5  C 20.08 128.5  22.5 130.92  22.5 134  C 22.5 137.08  20.08 139.5  17 139.5  C 13.92 139.5  11.5 137.08  11.5 134  C 11.5 130.92  13.92 128.5  17 128.5  Z " stroke-width="1" stroke="#797979" fill="none" />
</svg>