﻿<?xml version="1.0" encoding="utf-8"?>
<svg version="1.1" xmlns:xlink="http://www.w3.org/1999/xlink" width="12px" height="12px" viewBox="11 159  12 12" xmlns="http://www.w3.org/2000/svg">
  <path d="M 17 159  C 20.36 159  23 161.64  23 165  C 23 168.36  20.36 171  17 171  C 13.64 171  11 168.36  11 165  C 11 161.64  13.64 159  17 159  Z " fill-rule="nonzero" fill="#ffffff" stroke="none" />
  <path d="M 17 159.5  C 20.08 159.5  22.5 161.92  22.5 165  C 22.5 168.08  20.08 170.5  17 170.5  C 13.92 170.5  11.5 168.08  11.5 165  C 11.5 161.92  13.92 159.5  17 159.5  Z " stroke-width="1" stroke="#797979" fill="none" />
</svg>