﻿<?xml version="1.0" encoding="utf-8"?>
<svg version="1.1" xmlns:xlink="http://www.w3.org/1999/xlink" width="12px" height="12px" viewBox="11 36  12 12" xmlns="http://www.w3.org/2000/svg">
  <path d="M 17 36  C 20.36 36  23 38.64  23 42  C 23 45.36  20.36 48  17 48  C 13.64 48  11 45.36  11 42  C 11 38.64  13.64 36  17 36  Z " fill-rule="nonzero" fill="#ffffff" stroke="none" />
  <path d="M 17 36.5  C 20.08 36.5  22.5 38.92  22.5 42  C 22.5 45.08  20.08 47.5  17 47.5  C 13.92 47.5  11.5 45.08  11.5 42  C 11.5 38.92  13.92 36.5  17 36.5  Z " stroke-width="1" stroke="#797979" fill="none" />
</svg>