﻿<?xml version="1.0" encoding="utf-8"?>
<svg version="1.1" xmlns:xlink="http://www.w3.org/1999/xlink" width="12px" height="12px" viewBox="27 145  12 12" xmlns="http://www.w3.org/2000/svg">
  <path d="M 27.5 145.5  L 38.5 145.5  L 38.5 156.5  L 27.5 156.5  L 27.5 145.5  Z " fill-rule="nonzero" fill="#ffffff" stroke="none" />
  <path d="M 27.5 145.5  L 38.5 145.5  L 38.5 156.5  L 27.5 156.5  L 27.5 145.5  Z " stroke-width="1" stroke="#797979" fill="none" />
  <path d="M 29.5714285714286 151  L 32.1428571428571 153.571428571429  L 36.4285714285714 147.571428571429  " stroke-width="2.57142857142857" stroke="#797979" fill="none" />
</svg>