﻿<?xml version="1.0" encoding="utf-8"?>
<svg version="1.1" xmlns:xlink="http://www.w3.org/1999/xlink" width="5px" height="5px" xmlns="http://www.w3.org/2000/svg">
  <g transform="matrix(1 0 0 1 -41 -82 )">
    <path d="M 43.5 82  C 44.9 82  46 83.1  46 84.5  C 46 85.9  44.9 87  43.5 87  C 42.1 87  41 85.9  41 84.5  C 41 83.1  42.1 82  43.5 82  Z " fill-rule="nonzero" fill="#333333" stroke="none" />
  </g>
</svg>