﻿<?xml version="1.0" encoding="utf-8"?>
<svg version="1.1" xmlns:xlink="http://www.w3.org/1999/xlink" width="12px" height="12px" viewBox="18 223  12 12" xmlns="http://www.w3.org/2000/svg">
  <path d="M 24 223  C 27.36 223  30 225.64  30 229  C 30 232.36  27.36 235  24 235  C 20.64 235  18 232.36  18 229  C 18 225.64  20.64 223  24 223  Z " fill-rule="nonzero" fill="#ffffff" stroke="none" />
  <path d="M 24 223.5  C 27.08 223.5  29.5 225.92  29.5 229  C 29.5 232.08  27.08 234.5  24 234.5  C 20.92 234.5  18.5 232.08  18.5 229  C 18.5 225.92  20.92 223.5  24 223.5  Z " stroke-width="1" stroke="#797979" fill="none" />
</svg>