﻿<?xml version="1.0" encoding="utf-8"?>
<svg version="1.1" xmlns:xlink="http://www.w3.org/1999/xlink" width="12px" height="12px" viewBox="18 314  12 12" xmlns="http://www.w3.org/2000/svg">
  <path d="M 24 314  C 27.36 314  30 316.64  30 320  C 30 323.36  27.36 326  24 326  C 20.64 326  18 323.36  18 320  C 18 316.64  20.64 314  24 314  Z " fill-rule="nonzero" fill="#f0f0f0" stroke="none" />
  <path d="M 24 314.5  C 27.08 314.5  29.5 316.92  29.5 320  C 29.5 323.08  27.08 325.5  24 325.5  C 20.92 325.5  18.5 323.08  18.5 320  C 18.5 316.92  20.92 314.5  24 314.5  Z " stroke-width="1" stroke="#797979" fill="none" />
</svg>