﻿<?xml version="1.0" encoding="utf-8"?>
<svg version="1.1" xmlns:xlink="http://www.w3.org/1999/xlink" width="12px" height="12px" viewBox="18 343  12 12" xmlns="http://www.w3.org/2000/svg">
  <path d="M 24 343  C 27.36 343  30 345.64  30 349  C 30 352.36  27.36 355  24 355  C 20.64 355  18 352.36  18 349  C 18 345.64  20.64 343  24 343  Z " fill-rule="nonzero" fill="#ffffff" stroke="none" />
  <path d="M 24 343.5  C 27.08 343.5  29.5 345.92  29.5 349  C 29.5 352.08  27.08 354.5  24 354.5  C 20.92 354.5  18.5 352.08  18.5 349  C 18.5 345.92  20.92 343.5  24 343.5  Z " stroke-width="1" stroke="#797979" fill="none" />
  <path d="M 24 352  C 22.32 352  21 350.68  21 349  C 21 347.32  22.32 346  24 346  C 25.68 346  27 347.32  27 349  C 27 350.68  25.68 352  24 352  " fill-rule="nonzero" fill="#797979" stroke="none" />
</svg>