﻿<?xml version="1.0" encoding="utf-8"?>
<svg version="1.1" xmlns:xlink="http://www.w3.org/1999/xlink" width="12px" height="12px" viewBox="112 673  12 12" xmlns="http://www.w3.org/2000/svg">
  <path d="M 112.5 673.5  L 123.5 673.5  L 123.5 684.5  L 112.5 684.5  L 112.5 673.5  Z " fill-rule="nonzero" fill="#ffffff" stroke="none" />
  <path d="M 112.5 673.5  L 123.5 673.5  L 123.5 684.5  L 112.5 684.5  L 112.5 673.5  Z " stroke-width="1" stroke="#797979" fill="none" />
  <path d="M 114.571428571429 679  L 117.142857142857 681.571428571429  " stroke-width="2.57142857142857" stroke="#797979" fill="none" />
  <path d="M 117.142857142857 681.571428571429  L 121.428571428571 675.571428571429  " stroke-width="2.57142857142857" stroke="#797979" fill="none" />
</svg>