﻿<?xml version="1.0" encoding="utf-8"?>
<svg version="1.1" xmlns:xlink="http://www.w3.org/1999/xlink" width="9px" height="9px" xmlns="http://www.w3.org/2000/svg">
  <g transform="matrix(1 0 0 1 -11 -634 )">
    <path d="M 15.5 634  C 18.02 634  20 635.98  20 638.5  C 20 641.02  18.02 643  15.5 643  C 12.98 643  11 641.02  11 638.5  C 11 635.98  12.98 634  15.5 634  Z " fill-rule="nonzero" fill="#797979" stroke="none" />
  </g>
</svg>