﻿<?xml version="1.0" encoding="utf-8"?>
<svg version="1.1" xmlns:xlink="http://www.w3.org/1999/xlink" width="100px" height="60px" xmlns="http://www.w3.org/2000/svg">
  <g transform="matrix(1 0 0 1 -337 -38 )">
    <path d="M 337.5 47.18599434057  L 346.18599434057 38.5  L 427.81400565943 38.5  L 436.5 47.18599434057  L 436.5 88.81400565943  L 427.81400565943 97.5  L 346.18599434057 97.5  L 337.5 88.81400565943  L 337.5 47.18599434057  Z " fill-rule="nonzero" fill="#ffffff" stroke="none" />
    <path d="M 337.5 47.18599434057  L 346.18599434057 38.5  L 427.81400565943 38.5  L 436.5 47.18599434057  L 436.5 88.81400565943  L 427.81400565943 97.5  L 346.18599434057 97.5  L 337.5 88.81400565943  L 337.5 47.18599434057  Z " stroke-width="1" stroke="#cccccc" fill="none" />
  </g>
</svg>