﻿<?xml version="1.0" encoding="utf-8"?>
<svg version="1.1" xmlns:xlink="http://www.w3.org/1999/xlink" width="271px" height="10px" preserveAspectRatio="xMinYMid meet" viewBox="66 175  271 8" xmlns="http://www.w3.org/2000/svg">
  <defs>
    <mask fill="white" id="clip117">
      <path d="M 11 1008  L 131 1008  L 131 1063  L 11 1063  Z M 11 176  L 571 176  L 571 1200  L 11 1200  Z " fill-rule="evenodd" />
    </mask>
  </defs>
  <path d="M 337 179  L 76 179  A 5 5 0 0 0 71 184 L 71 1192  A 5 5 0 0 0 76 1197 L 556 1197  A 5 5 0 0 0 561 1192 L 561 729  " stroke-width="2" stroke="#cccccc" fill="none" mask="url(#clip117)" />
  <path d="M 556.707106781187 734.107106781187  L 561 729.814213562373  L 565.292893218813 734.107106781187  L 566.707106781187 732.692893218813  L 561.707106781187 727.692893218813  L 561 726.985786437627  L 560.292893218813 727.692893218813  L 555.292893218813 732.692893218813  L 556.707106781187 734.107106781187  Z " fill-rule="nonzero" fill="#cccccc" stroke="none" mask="url(#clip117)" />
</svg>