﻿<?xml version="1.0" encoding="utf-8"?>
<svg version="1.1" xmlns:xlink="http://www.w3.org/1999/xlink" width="10px" height="808px" preserveAspectRatio="xMidYMin meet" viewBox="67 394  8 808" xmlns="http://www.w3.org/2000/svg">
  <defs>
    <mask fill="white" id="clip129">
      <path d="M 47 1170  L 167 1170  L 167 1225  L 47 1225  Z M 47 396  L 571 396  L 571 1225  L 47 1225  Z " fill-rule="evenodd" />
    </mask>
  </defs>
  <path d="M 161 399  L 76 399  A 5 5 0 0 0 71 404 L 71 1192  A 5 5 0 0 0 76 1197 L 556 1197  A 5 5 0 0 0 561 1192 L 561 729  " stroke-width="2" stroke="#cccccc" fill="none" mask="url(#clip129)" />
  <path d="M 556.707106781187 734.107106781187  L 561 729.814213562373  L 565.292893218813 734.107106781187  L 566.707106781187 732.692893218813  L 561.707106781187 727.692893218813  L 561 726.985786437627  L 560.292893218813 727.692893218813  L 555.292893218813 732.692893218813  L 556.707106781187 734.107106781187  Z " fill-rule="nonzero" fill="#cccccc" stroke="none" mask="url(#clip129)" />
</svg>