﻿<?xml version="1.0" encoding="utf-8"?>
<svg version="1.1" xmlns:xlink="http://www.w3.org/1999/xlink" width="2px" height="206px" xmlns="http://www.w3.org/2000/svg">
  <g transform="matrix(1 0 0 1 -761 -3814 )">
    <path d="M 761.5 3814  L 761.5 4019  " stroke-width="1" stroke="#cccccc" fill="none" />
  </g>
</svg>