﻿<?xml version="1.0" encoding="utf-8"?>
<svg version="1.1" xmlns:xlink="http://www.w3.org/1999/xlink" width="82px" height="4px" preserveAspectRatio="xMinYMid meet" viewBox="1262 1019  82 2" xmlns="http://www.w3.org/2000/svg">
  <path d="M 1328 1029.5  L 1342 1020  L 1328 1010.5  L 1328 1029.5  Z M 1330 1025.9  L 1330 1014.1  L 1338.9 1020  L 1330 1025.9  Z " fill-rule="nonzero" fill="#d9001b" stroke="none" />
  <path d="M 1265 1020  L 1330 1020  " stroke-width="2" stroke="#d9001b" fill="none" />
</svg>