﻿<?xml version="1.0" encoding="utf-8"?>
<svg version="1.1" xmlns:xlink="http://www.w3.org/1999/xlink" width="281px" height="10px" preserveAspectRatio="xMinYMid meet" viewBox="186 154  281 8" xmlns="http://www.w3.org/2000/svg">
  <path d="M 186 158  L 460 158  " stroke-width="2" stroke="#035df3" fill="none" />
  <path d="M 454.892893218813 153.707106781187  L 459.185786437627 158  L 454.892893218813 162.292893218813  L 456.307106781187 163.707106781187  L 461.307106781187 158.707106781187  L 462.014213562373 158  L 461.307106781187 157.292893218813  L 456.307106781187 152.292893218813  L 454.892893218813 153.707106781187  Z " fill-rule="nonzero" fill="#035df3" stroke="none" />
</svg>