﻿<?xml version="1.0" encoding="utf-8"?>
<svg version="1.1" xmlns:xlink="http://www.w3.org/1999/xlink" width="20px" height="20px" preserveAspectRatio="xMinYMid meet" viewBox="585 254  20 18" xmlns="http://www.w3.org/2000/svg">
  <path d="M 846 263  L 595 263  " stroke-width="2" stroke="#035df3" fill="none" />
  <path d="M 600.107106781187 267.292893218813  L 595.814213562373 263  L 600.107106781187 258.707106781187  L 598.692893218813 257.292893218813  L 593.692893218813 262.292893218813  L 592.985786437627 263  L 593.692893218813 263.707106781187  L 598.692893218813 268.707106781187  L 600.107106781187 267.292893218813  Z " fill-rule="nonzero" fill="#035df3" stroke="none" />
</svg>