﻿<?xml version="1.0" encoding="utf-8"?>
<svg version="1.1" xmlns:xlink="http://www.w3.org/1999/xlink" width="12px" height="12px" viewBox="17 228  12 12" xmlns="http://www.w3.org/2000/svg">
  <path d="M 23 228  C 26.36 228  29 230.64  29 234  C 29 237.36  26.36 240  23 240  C 19.64 240  17 237.36  17 234  C 17 230.64  19.64 228  23 228  Z " fill-rule="nonzero" fill="#ffffff" stroke="none" />
  <path d="M 23 228.5  C 26.08 228.5  28.5 230.92  28.5 234  C 28.5 237.08  26.08 239.5  23 239.5  C 19.92 239.5  17.5 237.08  17.5 234  C 17.5 230.92  19.92 228.5  23 228.5  Z " stroke-width="1" stroke="#797979" fill="none" />
</svg>