﻿<?xml version="1.0" encoding="utf-8"?>
<svg version="1.1" xmlns:xlink="http://www.w3.org/1999/xlink" width="12px" height="12px" viewBox="17 348  12 12" xmlns="http://www.w3.org/2000/svg">
  <path d="M 23 348  C 26.36 348  29 350.64  29 354  C 29 357.36  26.36 360  23 360  C 19.64 360  17 357.36  17 354  C 17 350.64  19.64 348  23 348  Z " fill-rule="nonzero" fill="#f0f0f0" stroke="none" />
  <path d="M 23 348.5  C 26.08 348.5  28.5 350.92  28.5 354  C 28.5 357.08  26.08 359.5  23 359.5  C 19.92 359.5  17.5 357.08  17.5 354  C 17.5 350.92  19.92 348.5  23 348.5  Z " stroke-width="1" stroke="#797979" fill="none" />
</svg>