﻿<?xml version="1.0" encoding="utf-8"?>
<svg version="1.1" xmlns:xlink="http://www.w3.org/1999/xlink" width="10px" height="16px" xmlns="http://www.w3.org/2000/svg">
  <g transform="matrix(1 0 0 1 -141 -406 )">
    <path d="M 9.67013888888889 0.296875  C 9.89004629629633 0.494791666666629  10 0.729166666666629  10 1  L 10 15  C 10 15.2708333333334  9.89004629629633 15.5052083333334  9.67013888888889 15.703125  C 9.45023148148147 15.9010416666666  9.18981481481481 16  8.88888888888889 16  C 8.58796296296299 16  8.32754629629633 15.9010416666666  8.10763888888889 15.703125  L 0.329861111111114 8.703125  C 0.109953703703724 8.50520833333337  0 8.27083333333337  0 8  C 0 7.72916666666663  0.109953703703724 7.49479166666663  0.329861111111114 7.296875  L 8.10763888888889 0.296875  C 8.32754629629633 0.0989583333333712  8.58796296296299 0  8.88888888888889 0  C 9.18981481481481 0  9.45023148148147 0.0989583333333712  9.67013888888889 0.296875  Z " fill-rule="nonzero" fill="#0099ff" stroke="none" transform="matrix(1 0 0 1 141 406 )" />
  </g>
</svg>