﻿<?xml version="1.0" encoding="utf-8"?>
<svg version="1.1" xmlns:xlink="http://www.w3.org/1999/xlink" width="14px" height="14px" xmlns="http://www.w3.org/2000/svg">
  <g transform="matrix(1 0 0 1 -103 -918 )">
    <path d="M 110 918  C 113.92 918  117 921.08  117 925  C 117 928.92  113.92 932  110 932  C 106.08 932  103 928.92  103 925  C 103 921.08  106.08 918  110 918  Z " fill-rule="nonzero" fill="#ffffff" stroke="none" />
    <path d="M 110 918.5  C 113.64 918.5  116.5 921.36  116.5 925  C 116.5 928.64  113.64 931.5  110 931.5  C 106.36 931.5  103.5 928.64  103.5 925  C 103.5 921.36  106.36 918.5  110 918.5  Z " stroke-width="1" stroke="#2e8ff4" fill="none" />
  </g>
</svg>