﻿<?xml version="1.0" encoding="utf-8"?>
<svg version="1.1" xmlns:xlink="http://www.w3.org/1999/xlink" width="14px" height="14px" xmlns="http://www.w3.org/2000/svg">
  <g transform="matrix(1 0 0 1 -103 -818 )">
    <path d="M 110 818  C 113.92 818  117 821.08  117 825  C 117 828.92  113.92 832  110 832  C 106.08 832  103 828.92  103 825  C 103 821.08  106.08 818  110 818  Z " fill-rule="nonzero" fill="#ffffff" stroke="none" />
    <path d="M 110 818.5  C 113.64 818.5  116.5 821.36  116.5 825  C 116.5 828.64  113.64 831.5  110 831.5  C 106.36 831.5  103.5 828.64  103.5 825  C 103.5 821.36  106.36 818.5  110 818.5  Z " stroke-width="1" stroke="#2e8ff4" fill="none" />
  </g>
</svg>