﻿<?xml version="1.0" encoding="utf-8"?>
<svg version="1.1" xmlns:xlink="http://www.w3.org/1999/xlink" width="14px" height="14px" xmlns="http://www.w3.org/2000/svg">
  <g transform="matrix(1 0 0 1 -103 -918 )">
    <path d="M 110 922  C 111.68 922  113 923.32  113 925  C 113 926.68  111.68 928  110 928  C 108.32 928  107 926.68  107 925  C 107 923.32  108.32 922  110 922  Z " fill-rule="nonzero" fill="#ffffff" stroke="none" />
    <path d="M 110 920.5  C 112.52 920.5  114.5 922.48  114.5 925  C 114.5 927.52  112.52 929.5  110 929.5  C 107.48 929.5  105.5 927.52  105.5 925  C 105.5 922.48  107.48 920.5  110 920.5  Z " stroke-width="5" stroke="#2e8ff4" fill="none" />
  </g>
</svg>