﻿<?xml version="1.0" encoding="utf-8"?>
<svg version="1.1" xmlns:xlink="http://www.w3.org/1999/xlink" width="184px" height="10px" preserveAspectRatio="xMinYMid meet" viewBox="382 276  184 8" xmlns="http://www.w3.org/2000/svg">
  <defs>
    <mask fill="white" id="clip120">
      <path d="M 440.5 260  L 525.5 260  L 525.5 300  L 440.5 300  Z M 384 209  L 571 209  L 571 379  L 384 379  Z " fill-rule="evenodd" />
    </mask>
  </defs>
  <path d="M 387 209  L 387 275  A 5 5 0 0 0 392 280 L 556 280  A 5 5 0 0 1 561 285 L 561 367  " stroke-width="2" stroke="#cccccc" fill="none" mask="url(#clip120)" />
  <path d="M 565.292893218813 361.892893218813  L 561 366.185786437627  L 556.707106781187 361.892893218813  L 555.292893218813 363.307106781187  L 560.292893218813 368.307106781187  L 561 369.014213562373  L 561.707106781187 368.307106781187  L 566.707106781187 363.307106781187  L 565.292893218813 361.892893218813  Z " fill-rule="nonzero" fill="#cccccc" stroke="none" mask="url(#clip120)" />
</svg>