﻿<?xml version="1.0" encoding="utf-8"?>
<svg version="1.1" xmlns:xlink="http://www.w3.org/1999/xlink" width="10px" height="86px" preserveAspectRatio="xMidYMin meet" viewBox="207 848  8 86" xmlns="http://www.w3.org/2000/svg">
  <defs>
    <mask fill="white" id="clip137">
      <path d="M 151 869  L 271 869  L 271 909  L 151 909  Z M 151 848  L 271 848  L 271 939  L 151 939  Z " fill-rule="evenodd" />
    </mask>
  </defs>
  <path d="M 211 869  L 211 848  M 211 909  L 211 927  " stroke-width="2" stroke="#cccccc" fill="none" />
  <path d="M 215.292893218813 921.892893218813  L 211 926.185786437627  L 206.707106781187 921.892893218813  L 205.292893218813 923.307106781187  L 210.292893218813 928.307106781187  L 211 929.014213562373  L 211.707106781187 928.307106781187  L 216.707106781187 923.307106781187  L 215.292893218813 921.892893218813  Z " fill-rule="nonzero" fill="#cccccc" stroke="none" mask="url(#clip137)" />
</svg>