﻿<?xml version="1.0" encoding="utf-8"?>
<svg version="1.1" xmlns:xlink="http://www.w3.org/1999/xlink" width="255px" height="10px" preserveAspectRatio="xMinYMid meet" viewBox="261 693  255 8" xmlns="http://www.w3.org/2000/svg">
  <defs>
    <mask fill="white" id="clip150">
      <path d="M 363 684  L 409 684  L 409 709  L 363 709  Z M 261 684  L 521 684  L 521 709  L 261 709  Z " fill-rule="evenodd" />
    </mask>
  </defs>
  <path d="M 363 697  L 261 697  M 409 697  L 509 697  " stroke-width="2" stroke="#cccccc" fill="none" />
  <path d="M 503.892893218813 692.707106781187  L 508.185786437627 697  L 503.892893218813 701.292893218813  L 505.307106781187 702.707106781187  L 510.307106781187 697.707106781187  L 511.014213562373 697  L 510.307106781187 696.292893218813  L 505.307106781187 691.292893218813  L 503.892893218813 692.707106781187  Z " fill-rule="nonzero" fill="#cccccc" stroke="none" mask="url(#clip150)" />
</svg>