﻿<?xml version="1.0" encoding="utf-8"?>
<svg version="1.1" xmlns:xlink="http://www.w3.org/1999/xlink" width="12px" height="12px" viewBox="12 159  12 12" xmlns="http://www.w3.org/2000/svg">
  <path d="M 18 159  C 21.36 159  24 161.64  24 165  C 24 168.36  21.36 171  18 171  C 14.64 171  12 168.36  12 165  C 12 161.64  14.64 159  18 159  Z " fill-rule="nonzero" fill="#ffffff" stroke="none" />
  <path d="M 18 159.5  C 21.08 159.5  23.5 161.92  23.5 165  C 23.5 168.08  21.08 170.5  18 170.5  C 14.92 170.5  12.5 168.08  12.5 165  C 12.5 161.92  14.92 159.5  18 159.5  Z " stroke-width="1" stroke="#797979" fill="none" />
</svg>