﻿<?xml version="1.0" encoding="utf-8"?>
<svg version="1.1" xmlns:xlink="http://www.w3.org/1999/xlink" width="56px" height="16px" xmlns="http://www.w3.org/2000/svg">
  <g transform="matrix(1 0 0 1 -36 -42 )">
    <path d="M 0 16  L 0 0  L 20.7753530166881 0  L 26.7659392383398 0  L 28.9993950393224 0  L 56 0  L 56 16  L 41.0448343079922 16  L 0 16  Z " fill-rule="nonzero" fill="#ffffff" stroke="none" transform="matrix(1 0 0 1 36 42 )" />
  </g>
</svg>