﻿<?xml version="1.0" encoding="utf-8"?>
<svg version="1.1" xmlns:xlink="http://www.w3.org/1999/xlink" width="95px" height="10px" preserveAspectRatio="xMinYMid meet" viewBox="150 313  95 8" xmlns="http://www.w3.org/2000/svg">
  <path d="M 240 268  L 240 312  A 5 5 0 0 1 235 317 L 160 317  A 5 5 0 0 0 155 322 L 155 364  " stroke-width="2" stroke="#999999" fill="none" />
  <path d="M 159.292893218813 358.892893218813  L 155 363.185786437627  L 150.707106781187 358.892893218813  L 149.292893218813 360.307106781187  L 154.292893218813 365.307106781187  L 155 366.014213562373  L 155.707106781187 365.307106781187  L 160.707106781187 360.307106781187  L 159.292893218813 358.892893218813  Z " fill-rule="nonzero" fill="#999999" stroke="none" />
</svg>