﻿<?xml version="1.0" encoding="utf-8"?>
<svg version="1.1" xmlns:xlink="http://www.w3.org/1999/xlink" width="58px" height="10px" preserveAspectRatio="xMinYMid meet" viewBox="613 548  58 8" xmlns="http://www.w3.org/2000/svg">
  <path d="M 671 552  L 623 552  A 5 5 0 0 1 618 547 L 618 243  A 5 5 0 0 1 623 238 L 793 238  " stroke-width="2" stroke="#999999" fill="none" />
  <path d="M 787.892893218813 233.707106781187  L 792.185786437627 238  L 787.892893218813 242.292893218813  L 789.307106781187 243.707106781187  L 794.307106781187 238.707106781187  L 795.014213562373 238  L 794.307106781187 237.292893218813  L 789.307106781187 232.292893218813  L 787.892893218813 233.707106781187  Z " fill-rule="nonzero" fill="#999999" stroke="none" />
</svg>