﻿<?xml version="1.0" encoding="utf-8"?>
<svg version="1.1" xmlns:xlink="http://www.w3.org/1999/xlink" width="20px" height="20px" preserveAspectRatio="xMinYMid meet" viewBox="783 370  20 18" xmlns="http://www.w3.org/2000/svg">
  <path d="M 671 552  L 623 552  A 5 5 0 0 1 618 547 L 618 384  A 5 5 0 0 1 623 379 L 793 379  " stroke-width="2" stroke="#999999" fill="none" />
  <path d="M 787.892893218813 374.707106781187  L 792.185786437627 379  L 787.892893218813 383.292893218813  L 789.307106781187 384.707106781187  L 794.307106781187 379.707106781187  L 795.014213562373 379  L 794.307106781187 378.292893218813  L 789.307106781187 373.292893218813  L 787.892893218813 374.707106781187  Z " fill-rule="nonzero" fill="#999999" stroke="none" />
</svg>