﻿<?xml version="1.0" encoding="utf-8"?>
<svg version="1.1" xmlns:xlink="http://www.w3.org/1999/xlink" width="20px" height="20px" preserveAspectRatio="xMinYMid meet" viewBox="145 475  20 18" xmlns="http://www.w3.org/2000/svg">
  <path d="M 155 426  L 155 484  " stroke-width="2" stroke="#999999" fill="none" />
  <path d="M 159.292893218813 478.892893218813  L 155 483.185786437627  L 150.707106781187 478.892893218813  L 149.292893218813 480.307106781187  L 154.292893218813 485.307106781187  L 155 486.014213562373  L 155.707106781187 485.307106781187  L 160.707106781187 480.307106781187  L 159.292893218813 478.892893218813  Z " fill-rule="nonzero" fill="#999999" stroke="none" />
</svg>