﻿<?xml version="1.0" encoding="utf-8"?>
<svg version="1.1" xmlns:xlink="http://www.w3.org/1999/xlink" width="10px" height="125px" preserveAspectRatio="xMidYMin meet" viewBox="262 472  8 125" xmlns="http://www.w3.org/2000/svg">
  <defs>
    <mask fill="white" id="clip243">
      <path d="M 206 497  L 326 497  L 326 567  L 206 567  Z M 206 472  L 326 472  L 326 602  L 206 602  Z " fill-rule="evenodd" />
    </mask>
  </defs>
  <path d="M 266 497  L 266 472  M 266 567  L 266 590  " stroke-width="2" stroke="#cccccc" fill="none" />
  <path d="M 270.292893218813 584.892893218813  L 266 589.185786437627  L 261.707106781187 584.892893218813  L 260.292893218813 586.307106781187  L 265.292893218813 591.307106781187  L 266 592.014213562373  L 266.707106781187 591.307106781187  L 271.707106781187 586.307106781187  L 270.292893218813 584.892893218813  Z " fill-rule="nonzero" fill="#cccccc" stroke="none" mask="url(#clip243)" />
</svg>