﻿<?xml version="1.0" encoding="utf-8"?>
<svg version="1.1" xmlns:xlink="http://www.w3.org/1999/xlink" width="10px" height="86px" preserveAspectRatio="xMidYMin meet" viewBox="789 268  8 86" xmlns="http://www.w3.org/2000/svg">
  <path d="M 793 268  L 793 347  " stroke-width="2" stroke="#999999" fill="none" />
  <path d="M 797.292893218813 341.892893218813  L 793 346.185786437627  L 788.707106781187 341.892893218813  L 787.292893218813 343.307106781187  L 792.292893218813 348.307106781187  L 793 349.014213562373  L 793.707106781187 348.307106781187  L 798.707106781187 343.307106781187  L 797.292893218813 341.892893218813  Z " fill-rule="nonzero" fill="#999999" stroke="none" />
</svg>