﻿<?xml version="1.0" encoding="utf-8"?>
<svg version="1.1" xmlns:xlink="http://www.w3.org/1999/xlink" width="134px" height="10px" preserveAspectRatio="xMinYMid meet" viewBox="664 434  134 8" xmlns="http://www.w3.org/2000/svg">
  <path d="M 793 409  L 793 433  A 5 5 0 0 1 788 438 L 674 438  A 5 5 0 0 0 669 443 L 669 520  " stroke-width="2" stroke="#999999" fill="none" />
  <path d="M 673.292893218813 514.892893218813  L 669 519.185786437627  L 664.707106781187 514.892893218813  L 663.292893218813 516.307106781187  L 668.292893218813 521.307106781187  L 669 522.014213562373  L 669.707106781187 521.307106781187  L 674.707106781187 516.307106781187  L 673.292893218813 514.892893218813  Z " fill-rule="nonzero" fill="#999999" stroke="none" />
</svg>