﻿<?xml version="1.0" encoding="utf-8"?>
<svg version="1.1" xmlns:xlink="http://www.w3.org/1999/xlink" width="10px" height="61px" preserveAspectRatio="xMidYMin meet" viewBox="167 152  8 61" xmlns="http://www.w3.org/2000/svg">
  <path d="M 171 152  L 171 206  " stroke-width="2" stroke="#999999" fill="none" />
  <path d="M 175.292893218813 200.892893218813  L 171 205.185786437627  L 166.707106781187 200.892893218813  L 165.292893218813 202.307106781187  L 170.292893218813 207.307106781187  L 171 208.014213562373  L 171.707106781187 207.307106781187  L 176.707106781187 202.307106781187  L 175.292893218813 200.892893218813  Z " fill-rule="nonzero" fill="#999999" stroke="none" />
</svg>