﻿<?xml version="1.0" encoding="utf-8"?>
<svg version="1.1" xmlns:xlink="http://www.w3.org/1999/xlink" width="10px" height="40px" preserveAspectRatio="xMidYMin meet" viewBox="167 268  8 40" xmlns="http://www.w3.org/2000/svg">
  <path d="M 171 268  L 171 298  A 5 5 0 0 1 166 303 L 91 303  A 5 5 0 0 0 86 308 L 86 364  " stroke-width="2" stroke="#999999" fill="none" />
  <path d="M 90.2928932188134 358.892893218813  L 86 363.185786437627  L 81.7071067811866 358.892893218813  L 80.2928932188134 360.307106781187  L 85.2928932188134 365.307106781187  L 86 366.014213562373  L 86.7071067811866 365.307106781187  L 91.7071067811866 360.307106781187  L 90.2928932188134 358.892893218813  Z " fill-rule="nonzero" fill="#999999" stroke="none" />
</svg>