﻿<?xml version="1.0" encoding="utf-8"?>
<svg version="1.1" xmlns:xlink="http://www.w3.org/1999/xlink" width="20px" height="20px" preserveAspectRatio="xMinYMid meet" viewBox="731 370  20 18" xmlns="http://www.w3.org/2000/svg">
  <path d="M 619 552  L 485 552  A 5 5 0 0 1 480 547 L 480 384  A 5 5 0 0 1 485 379 L 741 379  " stroke-width="2" stroke="#999999" fill="none" />
  <path d="M 735.892893218813 374.707106781187  L 740.185786437627 379  L 735.892893218813 383.292893218813  L 737.307106781187 384.707106781187  L 742.307106781187 379.707106781187  L 743.014213562373 379  L 742.307106781187 378.292893218813  L 737.307106781187 373.292893218813  L 735.892893218813 374.707106781187  Z " fill-rule="nonzero" fill="#999999" stroke="none" />
</svg>