﻿<?xml version="1.0" encoding="utf-8"?>
<svg version="1.1" xmlns:xlink="http://www.w3.org/1999/xlink" width="10px" height="61px" preserveAspectRatio="xMidYMin meet" viewBox="789 152  8 61" xmlns="http://www.w3.org/2000/svg">
  <path d="M 793 152  L 793 206  " stroke-width="2" stroke="#999999" fill="none" />
  <path d="M 797.292893218813 200.892893218813  L 793 205.185786437627  L 788.707106781187 200.892893218813  L 787.292893218813 202.307106781187  L 792.292893218813 207.307106781187  L 793 208.014213562373  L 793.707106781187 207.307106781187  L 798.707106781187 202.307106781187  L 797.292893218813 200.892893218813  Z " fill-rule="nonzero" fill="#999999" stroke="none" />
</svg>