﻿<?xml version="1.0" encoding="utf-8"?>
<svg version="1.1" xmlns:xlink="http://www.w3.org/1999/xlink" width="62px" height="43px" xmlns="http://www.w3.org/2000/svg">
  <defs>
    <linearGradient gradientUnits="userSpaceOnUse" x1="31" y1="0" x2="31" y2="43" id="LinearGradient19">
      <stop id="Stop20" stop-color="#ffffff" offset="0" />
      <stop id="Stop21" stop-color="#f2f2f2" offset="0" />
      <stop id="Stop22" stop-color="#e4e4e4" offset="1" />
      <stop id="Stop23" stop-color="#ffffff" offset="1" />
    </linearGradient>
    <mask fill="white" id="clip24">
      <path d="M 53.5594059405941 0.182203389830512  L 7.51980198019802 0.182203389830512  C 7.51980198019802 0.182203389830512  0.474929170984418 9.5552787931815  0.460396039603961 21.5  C 0.445755262410115 33.5331948603198  7.51980198019802 43  7.51980198019802 43  L 53.5594059405941 43  C 53.5594059405941 43  61.401889225888 33.5318832440296  61.3861386138614 21.5  C 61.3705003966155 9.55397506268757  53.5594059405941 0.182203389830512  53.5594059405941 0.182203389830512  Z " fill-rule="evenodd" />
    </mask>
  </defs>
  <g transform="matrix(1 0 0 1 -209 -109 )">
    <path d="M 53.5594059405941 0.182203389830512  L 7.51980198019802 0.182203389830512  C 7.51980198019802 0.182203389830512  0.474929170984418 9.5552787931815  0.460396039603961 21.5  C 0.445755262410115 33.5331948603198  7.51980198019802 43  7.51980198019802 43  L 53.5594059405941 43  C 53.5594059405941 43  61.401889225888 33.5318832440296  61.3861386138614 21.5  C 61.3705003966155 9.55397506268757  53.5594059405941 0.182203389830512  53.5594059405941 0.182203389830512  Z " fill-rule="nonzero" fill="url(#LinearGradient19)" stroke="none" transform="matrix(1 0 0 1 209 109 )" />
    <path d="M 53.5594059405941 0.182203389830512  L 7.51980198019802 0.182203389830512  C 7.51980198019802 0.182203389830512  0.474929170984418 9.5552787931815  0.460396039603961 21.5  C 0.445755262410115 33.5331948603198  7.51980198019802 43  7.51980198019802 43  L 53.5594059405941 43  C 53.5594059405941 43  61.401889225888 33.5318832440296  61.3861386138614 21.5  C 61.3705003966155 9.55397506268757  53.5594059405941 0.182203389830512  53.5594059405941 0.182203389830512  Z " stroke-width="2" stroke="#797979" fill="none" transform="matrix(1 0 0 1 209 109 )" mask="url(#clip24)" />
  </g>
</svg>