﻿<?xml version="1.0" encoding="utf-8"?>
<svg version="1.1" xmlns:xlink="http://www.w3.org/1999/xlink" width="20px" height="20px" preserveAspectRatio="xMinYMid meet" viewBox="835 338  20 18" xmlns="http://www.w3.org/2000/svg">
  <path d="M 845 268  L 845 347  " stroke-width="2" stroke="#999999" fill="none" />
  <path d="M 849.292893218813 341.892893218813  L 845 346.185786437627  L 840.707106781187 341.892893218813  L 839.292893218813 343.307106781187  L 844.292893218813 348.307106781187  L 845 349.014213562373  L 845.707106781187 348.307106781187  L 850.707106781187 343.307106781187  L 849.292893218813 341.892893218813  Z " fill-rule="nonzero" fill="#999999" stroke="none" />
</svg>