﻿<?xml version="1.0" encoding="utf-8"?>
<svg version="1.1" xmlns:xlink="http://www.w3.org/1999/xlink" width="144px" height="10px" preserveAspectRatio="xMinYMid meet" viewBox="475 548  144 8" xmlns="http://www.w3.org/2000/svg">
  <path d="M 619 552  L 485 552  A 5 5 0 0 1 480 547 L 480 243  A 5 5 0 0 1 485 238 L 741 238  " stroke-width="2" stroke="#999999" fill="none" />
  <path d="M 735.892893218813 233.707106781187  L 740.185786437627 238  L 735.892893218813 242.292893218813  L 737.307106781187 243.707106781187  L 742.307106781187 238.707106781187  L 743.014213562373 238  L 742.307106781187 237.292893218813  L 737.307106781187 232.292893218813  L 735.892893218813 233.707106781187  Z " fill-rule="nonzero" fill="#999999" stroke="none" />
</svg>