﻿<?xml version="1.0" encoding="utf-8"?>
<svg version="1.1" xmlns:xlink="http://www.w3.org/1999/xlink" width="87px" height="10px" preserveAspectRatio="xMinYMid meet" viewBox="89 299  87 8" xmlns="http://www.w3.org/2000/svg">
  <path d="M 171 268  L 171 298  A 5 5 0 0 1 166 303 L 99 303  A 5 5 0 0 0 94 308 L 94 364  " stroke-width="2" stroke="#999999" fill="none" />
  <path d="M 98.2928932188134 358.892893218813  L 94 363.185786437627  L 89.7071067811866 358.892893218813  L 88.2928932188134 360.307106781187  L 93.2928932188134 365.307106781187  L 94 366.014213562373  L 94.7071067811866 365.307106781187  L 99.7071067811866 360.307106781187  L 98.2928932188134 358.892893218813  Z " fill-rule="nonzero" fill="#999999" stroke="none" />
</svg>