﻿<?xml version="1.0" encoding="utf-8"?>
<svg version="1.1" xmlns:xlink="http://www.w3.org/1999/xlink" width="10px" height="34px" preserveAspectRatio="xMidYMin meet" viewBox="789 409  8 34" xmlns="http://www.w3.org/2000/svg">
  <path d="M 793 409  L 793 433  A 5 5 0 0 0 798 438 L 911 438  A 5 5 0 0 1 916 443 L 916 520  " stroke-width="2" stroke="#999999" fill="none" />
  <path d="M 920.292893218813 514.892893218813  L 916 519.185786437627  L 911.707106781187 514.892893218813  L 910.292893218813 516.307106781187  L 915.292893218813 521.307106781187  L 916 522.014213562373  L 916.707106781187 521.307106781187  L 921.707106781187 516.307106781187  L 920.292893218813 514.892893218813  Z " fill-rule="nonzero" fill="#999999" stroke="none" />
</svg>