﻿<?xml version="1.0" encoding="utf-8"?>
<svg version="1.1" xmlns:xlink="http://www.w3.org/1999/xlink" width="152px" height="10px" preserveAspectRatio="xMinYMid meet" viewBox="719 548  152 8" xmlns="http://www.w3.org/2000/svg">
  <path d="M 719 552  L 864 552  " stroke-width="2" stroke="#999999" fill="none" />
  <path d="M 858.892893218813 547.707106781187  L 863.185786437627 552  L 858.892893218813 556.292893218813  L 860.307106781187 557.707106781187  L 865.307106781187 552.707106781187  L 866.014213562373 552  L 865.307106781187 551.292893218813  L 860.307106781187 546.292893218813  L 858.892893218813 547.707106781187  Z " fill-rule="nonzero" fill="#999999" stroke="none" />
</svg>