﻿<?xml version="1.0" encoding="utf-8"?>
<svg version="1.1" xmlns:xlink="http://www.w3.org/1999/xlink" width="38px" height="32px" xmlns="http://www.w3.org/2000/svg">
  <defs>
    <mask fill="white" id="clip37">
      <path d="M 57 649  C 54.78 649  53 647.22  53 645  L 53 621  C 53 618.78  54.78 617  57 617  L 87 617  C 89.22 617  91 618.78  91 621  L 91 645  C 91 647.22  89.22 649  87 649  " fill-rule="evenodd" />
    </mask>
  </defs>
  <g transform="matrix(1 0 0 1 -53 -617 )">
    <path d="M 53 617  L 91 617  L 91 649  L 53 649  L 53 617  " fill-rule="nonzero" fill="#cccccc" stroke="none" mask="url(#clip37)" />
    <path d="M 55 619  L 89 619  L 89 647  L 55 647  L 55 619  " fill-rule="nonzero" fill="#ffffff" stroke="none" mask="url(#clip37)" />
    <path d="M 75.16 626.6  C 73.816 626.6  72.76 625.544  72.76 624.2  C 72.76 622.856  73.816 621.8  75.16 621.8  C 76.504 621.8  77.56 622.856  77.56 624.2  C 77.56 625.544  76.504 626.6  75.16 626.6  " fill-rule="nonzero" fill="#cccccc" stroke="none" mask="url(#clip37)" />
    <path d="M 56 646  L 56 631.7  L 64 625.2  L 75.2 632.863157894737  L 81.6 629.1  L 88 632.863157894737  L 88 646  L 56 646  " fill-rule="nonzero" fill="#169bd5" stroke="none" mask="url(#clip37)" />
  </g>
</svg>