﻿<?xml version="1.0" encoding="utf-8"?>
<svg version="1.1" xmlns:xlink="http://www.w3.org/1999/xlink" width="4px" height="4px" preserveAspectRatio="xMinYMid meet" viewBox="824 59  4 2" xmlns="http://www.w3.org/2000/svg">
  <path d="M 845 68.5  L 859 59  L 845 49.5  L 845 68.5  Z M 847 64.9  L 847 53.1  L 855.9 59  L 847 64.9  Z " fill-rule="nonzero" fill="#d9001b" stroke="none" />
  <path d="M 826 59  L 847 59  " stroke-width="2" stroke="#d9001b" fill="none" />
</svg>