﻿<?xml version="1.0" encoding="utf-8"?>
<svg version="1.1" xmlns:xlink="http://www.w3.org/1999/xlink" width="128px" height="6px" preserveAspectRatio="xMinYMid meet" viewBox="764 1137  128 4" xmlns="http://www.w3.org/2000/svg">
  <path d="M 771.7 1133.4  L 766 1138.5  L 771.7 1143.6  L 777.1 1138.5  L 771.7 1133.4  Z M 884.3 1143.6  L 890 1138.5  L 884.3 1133.4  L 878.9 1138.5  L 884.3 1143.6  Z " fill-rule="nonzero" fill="#ff0000" stroke="none" />
  <path d="M 769 1138.5  L 887 1138.5  " stroke-width="3" stroke="#ff0000" fill="none" />
</svg>