﻿<?xml version="1.0" encoding="utf-8"?>
<svg version="1.1" xmlns:xlink="http://www.w3.org/1999/xlink" width="20px" height="20px" preserveAspectRatio="xMinYMid meet" viewBox="257 134  20 18" xmlns="http://www.w3.org/2000/svg">
  <defs>
    <mask fill="white" id="clip306">
      <path d="M 211.5 105  L 322.5 105  L 322.5 130  L 211.5 130  Z M 211.5 90  L 322.5 90  L 322.5 155  L 211.5 155  Z " fill-rule="evenodd" />
    </mask>
  </defs>
  <path d="M 267 105  L 267 90  M 267 130  L 267 143  " stroke-width="2" stroke="#cccccc" fill="none" />
  <path d="M 271.292893218813 137.892893218813  L 267 142.185786437627  L 262.707106781187 137.892893218813  L 261.292893218813 139.307106781187  L 266.292893218813 144.307106781187  L 267 145.014213562373  L 267.707106781187 144.307106781187  L 272.707106781187 139.307106781187  L 271.292893218813 137.892893218813  Z " fill-rule="nonzero" fill="#cccccc" stroke="none" mask="url(#clip306)" />
</svg>