﻿<?xml version="1.0" encoding="utf-8"?>
<svg version="1.1" xmlns:xlink="http://www.w3.org/1999/xlink" width="20px" height="20px" preserveAspectRatio="xMinYMid meet" viewBox="257 569  20 18" xmlns="http://www.w3.org/2000/svg">
  <defs>
    <mask fill="white" id="clip312">
      <path d="M 231 543  L 303 543  L 303 568  L 231 568  Z M 231 530  L 303 530  L 303 590  L 231 590  Z " fill-rule="evenodd" />
    </mask>
  </defs>
  <path d="M 267 543  L 267 530  M 267 568  L 267 578  " stroke-width="2" stroke="#cccccc" fill="none" />
  <path d="M 271.292893218813 572.892893218813  L 267 577.185786437627  L 262.707106781187 572.892893218813  L 261.292893218813 574.307106781187  L 266.292893218813 579.307106781187  L 267 580.014213562373  L 267.707106781187 579.307106781187  L 272.707106781187 574.307106781187  L 271.292893218813 572.892893218813  Z " fill-rule="nonzero" fill="#cccccc" stroke="none" mask="url(#clip312)" />
</svg>