﻿<?xml version="1.0" encoding="utf-8"?>
<svg version="1.1" xmlns:xlink="http://www.w3.org/1999/xlink" width="20px" height="20px" preserveAspectRatio="xMinYMid meet" viewBox="257 699  20 18" xmlns="http://www.w3.org/2000/svg">
  <defs>
    <mask fill="white" id="clip314">
      <path d="M 218 655  L 316 655  L 316 695  L 218 695  Z M 218 640  L 316 640  L 316 720  L 218 720  Z " fill-rule="evenodd" />
    </mask>
  </defs>
  <path d="M 267 655  L 267 640  M 267 695  L 267 708  " stroke-width="2" stroke="#cccccc" fill="none" />
  <path d="M 271.292893218813 702.892893218813  L 267 707.185786437627  L 262.707106781187 702.892893218813  L 261.292893218813 704.307106781187  L 266.292893218813 709.307106781187  L 267 710.014213562373  L 267.707106781187 709.307106781187  L 272.707106781187 704.307106781187  L 271.292893218813 702.892893218813  Z " fill-rule="nonzero" fill="#cccccc" stroke="none" mask="url(#clip314)" />
</svg>