﻿<?xml version="1.0" encoding="utf-8"?>
<svg version="1.1" xmlns:xlink="http://www.w3.org/1999/xlink" width="12px" height="12px" viewBox="21 224  12 12" xmlns="http://www.w3.org/2000/svg">
  <path d="M 27 224  C 30.36 224  33 226.64  33 230  C 33 233.36  30.36 236  27 236  C 23.64 236  21 233.36  21 230  C 21 226.64  23.64 224  27 224  Z " fill-rule="nonzero" fill="#ffffff" stroke="none" />
  <path d="M 27 224.5  C 30.08 224.5  32.5 226.92  32.5 230  C 32.5 233.08  30.08 235.5  27 235.5  C 23.92 235.5  21.5 233.08  21.5 230  C 21.5 226.92  23.92 224.5  27 224.5  Z " stroke-width="1" stroke="#797979" fill="none" />
  <path d="M 27 233  C 25.32 233  24 231.68  24 230  C 24 228.32  25.32 227  27 227  C 28.68 227  30 228.32  30 230  C 30 231.68  28.68 233  27 233  " fill-rule="nonzero" fill="#797979" stroke="none" />
</svg>