﻿<?xml version="1.0" encoding="utf-8"?>
<svg version="1.1" xmlns:xlink="http://www.w3.org/1999/xlink" width="10px" height="56px" preserveAspectRatio="xMidYMin meet" viewBox="383 98  8 56" xmlns="http://www.w3.org/2000/svg">
  <defs>
    <mask fill="white" id="clip889">
      <path d="M 364 111  L 410 111  L 410 136  L 364 136  Z M 364 98  L 410 98  L 410 159  L 364 159  Z " fill-rule="evenodd" />
    </mask>
  </defs>
  <path d="M 387 111  L 387 98  M 387 136  L 387 147  " stroke-width="2" stroke="#cccccc" fill="none" />
  <path d="M 391.292893218813 141.892893218813  L 387 146.185786437627  L 382.707106781187 141.892893218813  L 381.292893218813 143.307106781187  L 386.292893218813 148.307106781187  L 387 149.014213562373  L 387.707106781187 148.307106781187  L 392.707106781187 143.307106781187  L 391.292893218813 141.892893218813  Z " fill-rule="nonzero" fill="#cccccc" stroke="none" mask="url(#clip889)" />
</svg>