﻿<?xml version="1.0" encoding="utf-8"?>
<svg version="1.1" xmlns:xlink="http://www.w3.org/1999/xlink" width="10px" height="76px" preserveAspectRatio="xMidYMin meet" viewBox="383 209  8 76" xmlns="http://www.w3.org/2000/svg">
  <defs>
    <mask fill="white" id="clip895">
      <path d="M 230 252  L 350 252  L 350 307  L 230 307  Z M 201 209  L 390 209  L 390 379  L 201 379  Z " fill-rule="evenodd" />
    </mask>
  </defs>
  <path d="M 387 209  L 387 275  A 5 5 0 0 1 382 280 L 216 280  A 5 5 0 0 0 211 285 L 211 367  " stroke-width="2" stroke="#cccccc" fill="none" mask="url(#clip895)" />
  <path d="M 215.292893218813 361.892893218813  L 211 366.185786437627  L 206.707106781187 361.892893218813  L 205.292893218813 363.307106781187  L 210.292893218813 368.307106781187  L 211 369.014213562373  L 211.707106781187 368.307106781187  L 216.707106781187 363.307106781187  L 215.292893218813 361.892893218813  Z " fill-rule="nonzero" fill="#cccccc" stroke="none" mask="url(#clip895)" />
</svg>