﻿<?xml version="1.0" encoding="utf-8"?>
<svg version="1.1" xmlns:xlink="http://www.w3.org/1999/xlink" width="240px" height="10px" preserveAspectRatio="xMinYMid meet" viewBox="437 175  240 8" xmlns="http://www.w3.org/2000/svg">
  <defs>
    <mask fill="white" id="clip931">
      <path d="M 636 190  L 708 190  L 708 215  L 636 215  Z M 427 169  L 708 169  L 708 402  L 427 402  Z " fill-rule="evenodd" />
    </mask>
  </defs>
  <path d="M 611 399  L 667 399  A 5 5 0 0 0 672 394 L 672 184  A 5 5 0 0 0 667 179 L 439 179  " stroke-width="2" stroke="#cccccc" fill="none" mask="url(#clip931)" />
  <path d="M 444.107106781187 183.292893218813  L 439.814213562373 179  L 444.107106781187 174.707106781187  L 442.692893218813 173.292893218813  L 437.692893218813 178.292893218813  L 436.985786437627 179  L 437.692893218813 179.707106781187  L 442.692893218813 184.707106781187  L 444.107106781187 183.292893218813  Z " fill-rule="nonzero" fill="#cccccc" stroke="none" mask="url(#clip931)" />
</svg>