﻿<?xml version="1.0" encoding="utf-8"?>
<svg version="1.1" xmlns:xlink="http://www.w3.org/1999/xlink" width="10px" height="65px" preserveAspectRatio="xMidYMin meet" viewBox="207 1164  8 65" xmlns="http://www.w3.org/2000/svg">
  <defs>
    <mask fill="white" id="clip933">
      <path d="M 151 1174  L 271 1174  L 271 1214  L 151 1214  Z M 151 1164  L 271 1164  L 271 1241  L 151 1241  Z " fill-rule="evenodd" />
    </mask>
  </defs>
  <path d="M 211 1174  L 211 1164  M 211 1214  L 211 1222  " stroke-width="2" stroke="#999999" fill="none" />
  <path d="M 203 1214.6  L 211 1224  L 219 1214.6  L 211 1218.2  L 203 1214.6  Z " fill-rule="nonzero" fill="#999999" stroke="none" mask="url(#clip933)" />
</svg>