﻿<?xml version="1.0" encoding="utf-8"?>
<svg version="1.1" xmlns:xlink="http://www.w3.org/1999/xlink" width="14px" height="14px" xmlns="http://www.w3.org/2000/svg">
  <g transform="matrix(1 0 0 1 -103 -86 )">
    <path d="M 110 86  C 113.92 86  117 89.08  117 93  C 117 96.92  113.92 100  110 100  C 106.08 100  103 96.92  103 93  C 103 89.08  106.08 86  110 86  Z " fill-rule="nonzero" fill="#ffffff" stroke="none" />
    <path d="M 110 86.5  C 113.64 86.5  116.5 89.36  116.5 93  C 116.5 96.64  113.64 99.5  110 99.5  C 106.36 99.5  103.5 96.64  103.5 93  C 103.5 89.36  106.36 86.5  110 86.5  Z " stroke-width="1" stroke="#dcdfe6" fill="none" />
  </g>
</svg>