﻿<?xml version="1.0" encoding="utf-8"?>
<svg version="1.1" xmlns:xlink="http://www.w3.org/1999/xlink" width="92px" height="6px" preserveAspectRatio="xMinYMid meet" viewBox="708 627  92 4" xmlns="http://www.w3.org/2000/svg">
  <path d="M 715.7 623.4  L 710 628.5  L 715.7 633.6  L 721.1 628.5  L 715.7 623.4  Z M 791.3 633.6  L 797 628.5  L 791.3 623.4  L 785.9 628.5  L 791.3 633.6  Z " fill-rule="nonzero" fill="#ff0000" stroke="none" />
  <path d="M 713 628.5  L 794 628.5  " stroke-width="3" stroke="#ff0000" fill="none" />
</svg>