﻿<?xml version="1.0" encoding="utf-8"?>
<svg version="1.1" xmlns:xlink="http://www.w3.org/1999/xlink" width="33px" height="40px" xmlns="http://www.w3.org/2000/svg">
  <defs>
    <filter x="118px" y="158px" width="33px" height="40px" filterUnits="userSpaceOnUse" id="filter720">
      <feOffset dx="1" dy="1" in="SourceAlpha" result="shadowOffsetInner" />
      <feGaussianBlur stdDeviation="2.5" in="shadowOffsetInner" result="shadowGaussian" />
      <feComposite in2="shadowGaussian" operator="atop" in="SourceAlpha" result="shadowComposite" />
      <feColorMatrix type="matrix" values="0 0 0 0 0  0 0 0 0 0  0 0 0 0 0  0 0 0 0.698039215686274 0  " in="shadowComposite" />
    </filter>
    <g id="widget721">
      <path d="M 133.5 192  C 128.9 184.5  122 180  122 172.5  C 122 168.6  124.3 162  133.5 162  C 142.7 162  145 168.6  145 172.5  C 145 180  138.1 184.5  133.5 192  Z " fill-rule="nonzero" fill="#009dd9" stroke="none" />
    </g>
  </defs>
  <g transform="matrix(1 0 0 1 -118 -158 )">
    <use xlink:href="#widget721" filter="url(#filter720)" />
    <use xlink:href="#widget721" />
  </g>
</svg>