﻿<?xml version="1.0" encoding="utf-8"?>
<svg version="1.1" xmlns:xlink="http://www.w3.org/1999/xlink" width="12px" height="12px" viewBox="23 380  12 12" xmlns="http://www.w3.org/2000/svg">
  <path d="M 29 380  C 32.36 380  35 382.64  35 386  C 35 389.36  32.36 392  29 392  C 25.64 392  23 389.36  23 386  C 23 382.64  25.64 380  29 380  Z " fill-rule="nonzero" fill="#ffffff" stroke="none" />
  <path d="M 29 380.5  C 32.08 380.5  34.5 382.92  34.5 386  C 34.5 389.08  32.08 391.5  29 391.5  C 25.92 391.5  23.5 389.08  23.5 386  C 23.5 382.92  25.92 380.5  29 380.5  Z " stroke-width="1" stroke="#797979" fill="none" />
  <path d="M 29 389  C 27.32 389  26 387.68  26 386  C 26 384.32  27.32 383  29 383  C 30.68 383  32 384.32  32 386  C 32 387.68  30.68 389  29 389  " fill-rule="nonzero" fill="#797979" stroke="none" />
</svg>