﻿<?xml version="1.0" encoding="utf-8"?>
<svg version="1.1" xmlns:xlink="http://www.w3.org/1999/xlink" width="12px" height="12px" viewBox="17 193  12 12" xmlns="http://www.w3.org/2000/svg">
  <path d="M 23 193  C 26.36 193  29 195.64  29 199  C 29 202.36  26.36 205  23 205  C 19.64 205  17 202.36  17 199  C 17 195.64  19.64 193  23 193  Z " fill-rule="nonzero" fill="#ffffff" stroke="none" />
  <path d="M 23 193.5  C 26.08 193.5  28.5 195.92  28.5 199  C 28.5 202.08  26.08 204.5  23 204.5  C 19.92 204.5  17.5 202.08  17.5 199  C 17.5 195.92  19.92 193.5  23 193.5  Z " stroke-width="1" stroke="#797979" fill="none" />
</svg>