﻿<?xml version="1.0" encoding="utf-8"?>
<svg version="1.1" xmlns:xlink="http://www.w3.org/1999/xlink" width="12px" height="12px" viewBox="17 314  12 12" xmlns="http://www.w3.org/2000/svg">
  <path d="M 23 314  C 26.36 314  29 316.64  29 320  C 29 323.36  26.36 326  23 326  C 19.64 326  17 323.36  17 320  C 17 316.64  19.64 314  23 314  Z " fill-rule="nonzero" fill="#ffffff" stroke="none" />
  <path d="M 23 314.5  C 26.08 314.5  28.5 316.92  28.5 320  C 28.5 323.08  26.08 325.5  23 325.5  C 19.92 325.5  17.5 323.08  17.5 320  C 17.5 316.92  19.92 314.5  23 314.5  Z " stroke-width="1" stroke="#797979" fill="none" />
  <path d="M 23 323  C 21.32 323  20 321.68  20 320  C 20 318.32  21.32 317  23 317  C 24.68 317  26 318.32  26 320  C 26 321.68  24.68 323  23 323  " fill-rule="nonzero" fill="#797979" stroke="none" />
</svg>