﻿<?xml version="1.0" encoding="utf-8"?>
<svg version="1.1" xmlns:xlink="http://www.w3.org/1999/xlink" width="81px" height="10px" preserveAspectRatio="xMinYMid meet" viewBox="102 56  81 8" xmlns="http://www.w3.org/2000/svg">
  <defs>
    <mask fill="white" id="clip69">
      <path d="M 84 136  L 130 136  L 130 161  L 84 161  Z M 84 50  L 216 50  L 216 208  L 84 208  Z " fill-rule="evenodd" />
    </mask>
  </defs>
  <path d="M 216 205  L 112 205  A 5 5 0 0 1 107 200 L 107 65  A 5 5 0 0 1 112 60 L 181 60  " stroke-width="2" stroke="#cccccc" fill="none" mask="url(#clip69)" />
  <path d="M 175.892893218813 55.7071067811865  L 180.185786437627 60  L 175.892893218813 64.2928932188134  L 177.307106781187 65.7071067811866  L 182.307106781187 60.7071067811865  L 183.014213562373 60  L 182.307106781187 59.2928932188135  L 177.307106781187 54.2928932188135  L 175.892893218813 55.7071067811865  Z " fill-rule="nonzero" fill="#cccccc" stroke="none" mask="url(#clip69)" />
</svg>