﻿<?xml version="1.0" encoding="utf-8"?>
<svg version="1.1" xmlns:xlink="http://www.w3.org/1999/xlink" width="34px" height="34px" preserveAspectRatio="xMinYMid meet" viewBox="249 694  34 32" xmlns="http://www.w3.org/2000/svg">
  <defs>
    <mask fill="white" id="clip74">
      <path d="M 206 662  L 326 662  L 326 702  L 206 702  Z M 206 652  L 326 652  L 326 729  L 206 729  Z " fill-rule="evenodd" />
    </mask>
  </defs>
  <path d="M 266 662  L 266 652  M 266 702  L 266 710  " stroke-width="2" stroke="#999999" fill="none" />
  <path d="M 258 702.6  L 266 712  L 274 702.6  L 266 706.2  L 258 702.6  Z " fill-rule="nonzero" fill="#999999" stroke="none" mask="url(#clip74)" />
</svg>