﻿<?xml version="1.0" encoding="utf-8"?>
<svg version="1.1" xmlns:xlink="http://www.w3.org/1999/xlink" width="115px" height="25px" xmlns="http://www.w3.org/2000/svg">
  <g transform="matrix(1 0 0 1 -352 -505 )">
    <path d="M 368.7 512.4  L 363 517.5  L 368.7 522.6  L 374.1 517.5  L 368.7 512.4  Z M 450.3 522.6  L 456 517.5  L 450.3 512.4  L 444.9 517.5  L 450.3 522.6  Z " fill-rule="nonzero" fill="#ff0000" stroke="none" />
    <path d="M 366 517.5  L 453 517.5  " stroke-width="3" stroke="#ff0000" fill="none" />
  </g>
</svg>