﻿<?xml version="1.0" encoding="utf-8"?>
<svg version="1.1" xmlns:xlink="http://www.w3.org/1999/xlink" width="16px" height="8px" xmlns="http://www.w3.org/2000/svg">
  <g transform="matrix(1 0 0 1 -359 -82 )">
    <path d="M 361.3416407865 83  L 367 88.6583592135001  L 372.6583592135 83  L 361.3416407865 83  Z " fill-rule="nonzero" fill="#bcbcbc" stroke="none" />
  </g>
</svg>