﻿<?xml version="1.0" encoding="utf-8"?>
<svg version="1.1" xmlns:xlink="http://www.w3.org/1999/xlink" width="51px" height="36px" xmlns="http://www.w3.org/2000/svg">
  <g transform="matrix(1 0 0 1 -825 -41 )">
    <path d="M 845 68.5  L 859 59  L 845 49.5  L 845 68.5  Z M 847 64.9  L 847 53.1  L 855.9 59  L 847 64.9  Z " fill-rule="nonzero" fill="#d9001b" stroke="none" />
    <path d="M 826 59  L 847 59  " stroke-width="2" stroke="#d9001b" fill="none" />
  </g>
</svg>