﻿<?xml version="1.0" encoding="utf-8"?>
<svg version="1.1" xmlns:xlink="http://www.w3.org/1999/xlink" width="134px" height="24px" xmlns="http://www.w3.org/2000/svg">
  <defs>
    <filter x="5px" y="140px" width="134px" height="24px" filterUnits="userSpaceOnUse" id="filter502">
      <feOffset dx="0" dy="0" in="SourceAlpha" result="shadowOffsetInner" />
      <feGaussianBlur stdDeviation="2.5" in="shadowOffsetInner" result="shadowGaussian" />
      <feComposite in2="shadowGaussian" operator="atop" in="SourceAlpha" result="shadowComposite" />
      <feColorMatrix type="matrix" values="0 0 0 0 0  0 0 0 0 0  0 0 0 0 0  0 0 0 0.349019607843137 0  " in="shadowComposite" />
    </filter>
    <g id="widget503">
      <path d="M 10 145  L 134 145  L 134 159  L 10 159  L 10 145  Z " fill-rule="nonzero" fill="#ffffff" stroke="none" fill-opacity="0" />
    </g>
  </defs>
  <g transform="matrix(1 0 0 1 -5 -140 )">
    <use xlink:href="#widget503" filter="url(#filter502)" />
    <use xlink:href="#widget503" />
  </g>
</svg>