﻿<?xml version="1.0" encoding="utf-8"?>
<svg version="1.1" xmlns:xlink="http://www.w3.org/1999/xlink" width="257.5px" height="31px" xmlns="http://www.w3.org/2000/svg">
  <g transform="matrix(1 0 0 1 -455.5 -204 )">
    <path d="M 688 231  L 700 219.5  L 688 208  L 688 231  Z " fill-rule="nonzero" fill="#d9001b" stroke="none" />
    <path d="M 458 219.5  L 691 219.5  " stroke-width="5" stroke="#d9001b" fill="none" />
  </g>
</svg>