﻿<?xml version="1.0" encoding="utf-8"?>
<svg version="1.1" xmlns:xlink="http://www.w3.org/1999/xlink" width="71.5px" height="31px" xmlns="http://www.w3.org/2000/svg">
  <g transform="matrix(1 0 0 1 -964.5 -1206 )">
    <path d="M 1011 1233  L 1023 1221.5  L 1011 1210  L 1011 1233  Z " fill-rule="nonzero" fill="#d9001b" stroke="none" />
    <path d="M 967 1221.5  L 1014 1221.5  " stroke-width="5" stroke="#d9001b" fill="none" />
  </g>
</svg>