﻿<?xml version="1.0" encoding="utf-8"?>
<svg version="1.1" xmlns:xlink="http://www.w3.org/1999/xlink" width="12px" height="12px" viewBox="19 206  12 12" xmlns="http://www.w3.org/2000/svg">
  <path d="M 25 206  C 28.36 206  31 208.64  31 212  C 31 215.36  28.36 218  25 218  C 21.64 218  19 215.36  19 212  C 19 208.64  21.64 206  25 206  Z " fill-rule="nonzero" fill="#ffffff" stroke="none" />
  <path d="M 25 206.5  C 28.08 206.5  30.5 208.92  30.5 212  C 30.5 215.08  28.08 217.5  25 217.5  C 21.92 217.5  19.5 215.08  19.5 212  C 19.5 208.92  21.92 206.5  25 206.5  Z " stroke-width="1" stroke="#797979" fill="none" />
</svg>