﻿<?xml version="1.0" encoding="utf-8"?>
<svg version="1.1" xmlns:xlink="http://www.w3.org/1999/xlink" width="118px" height="24px" xmlns="http://www.w3.org/2000/svg">
  <defs>
    <filter x="15px" y="166px" width="118px" height="24px" filterUnits="userSpaceOnUse" id="filter351">
      <feOffset dx="0" dy="0" in="SourceAlpha" result="shadowOffsetInner" />
      <feGaussianBlur stdDeviation="2.5" in="shadowOffsetInner" result="shadowGaussian" />
      <feComposite in2="shadowGaussian" operator="atop" in="SourceAlpha" result="shadowComposite" />
      <feColorMatrix type="matrix" values="0 0 0 0 0  0 0 0 0 0  0 0 0 0 0  0 0 0 0.349019607843137 0  " in="shadowComposite" />
    </filter>
    <g id="widget352">
      <path d="M 20 171  L 128 171  L 128 185  L 20 185  L 20 171  Z " fill-rule="nonzero" fill="#ffffff" stroke="none" fill-opacity="0" />
    </g>
  </defs>
  <g transform="matrix(1 0 0 1 -15 -166 )">
    <use xlink:href="#widget352" filter="url(#filter351)" />
    <use xlink:href="#widget352" />
  </g>
</svg>