﻿<?xml version="1.0" encoding="utf-8"?>
<svg version="1.1" xmlns:xlink="http://www.w3.org/1999/xlink" width="212px" height="24px" xmlns="http://www.w3.org/2000/svg">
  <defs>
    <filter x="15px" y="220px" width="212px" height="24px" filterUnits="userSpaceOnUse" id="filter71">
      <feOffset dx="0" dy="0" in="SourceAlpha" result="shadowOffsetInner" />
      <feGaussianBlur stdDeviation="2.5" in="shadowOffsetInner" result="shadowGaussian" />
      <feComposite in2="shadowGaussian" operator="atop" in="SourceAlpha" result="shadowComposite" />
      <feColorMatrix type="matrix" values="0 0 0 0 0  0 0 0 0 0  0 0 0 0 0  0 0 0 0.349019607843137 0  " in="shadowComposite" />
    </filter>
    <g id="widget72">
      <path d="M 20 225  L 222 225  L 222 239  L 20 239  L 20 225  Z " fill-rule="nonzero" fill="#ffffff" stroke="none" fill-opacity="0" />
    </g>
  </defs>
  <g transform="matrix(1 0 0 1 -15 -220 )">
    <use xlink:href="#widget72" filter="url(#filter71)" />
    <use xlink:href="#widget72" />
  </g>
</svg>