﻿<?xml version="1.0" encoding="utf-8"?>
<svg version="1.1" xmlns:xlink="http://www.w3.org/1999/xlink" width="38px" height="38px" preserveAspectRatio="xMinYMid meet" viewBox="1306 835  38 36" xmlns="http://www.w3.org/2000/svg">
  <g transform="matrix(-1 0 0 -1 2650 1706 )">
    <path d="M 1318 862.5  L 1332 853  L 1318 843.5  L 1318 862.5  Z M 1320 858.9  L 1320 847.1  L 1328.9 853  L 1320 858.9  Z " fill-rule="nonzero" fill="#d9001b" stroke="none" />
    <path d="M 1255 853  L 1320 853  " stroke-width="2" stroke="#d9001b" fill="none" />
  </g>
</svg>