﻿<?xml version="1.0" encoding="utf-8"?>
<svg version="1.1" xmlns:xlink="http://www.w3.org/1999/xlink" width="10px" height="115px" preserveAspectRatio="xMidYMin meet" viewBox="320 153  8 115" xmlns="http://www.w3.org/2000/svg">
  <path d="M 186 263  L 319 263  A 5 5 0 0 0 324 258 L 324 163  A 5 5 0 0 1 329 158 L 460 158  " stroke-width="2" stroke="#035df3" fill="none" />
  <path d="M 454.892893218813 153.707106781187  L 459.185786437627 158  L 454.892893218813 162.292893218813  L 456.307106781187 163.707106781187  L 461.307106781187 158.707106781187  L 462.014213562373 158  L 461.307106781187 157.292893218813  L 456.307106781187 152.292893218813  L 454.892893218813 153.707106781187  Z " fill-rule="nonzero" fill="#035df3" stroke="none" />
</svg>