﻿<?xml version="1.0" encoding="utf-8"?>
<svg version="1.1" xmlns:xlink="http://www.w3.org/1999/xlink" width="12px" height="12px" viewBox="18 193  12 12" xmlns="http://www.w3.org/2000/svg">
  <path d="M 24 193  C 27.36 193  30 195.64  30 199  C 30 202.36  27.36 205  24 205  C 20.64 205  18 202.36  18 199  C 18 195.64  20.64 193  24 193  Z " fill-rule="nonzero" fill="#ffffff" stroke="none" />
  <path d="M 24 193.5  C 27.08 193.5  29.5 195.92  29.5 199  C 29.5 202.08  27.08 204.5  24 204.5  C 20.92 204.5  18.5 202.08  18.5 199  C 18.5 195.92  20.92 193.5  24 193.5  Z " stroke-width="1" stroke="#797979" fill="none" />
  <path d="M 24 202  C 22.32 202  21 200.68  21 199  C 21 197.32  22.32 196  24 196  C 25.68 196  27 197.32  27 199  C 27 200.68  25.68 202  24 202  " fill-rule="nonzero" fill="#797979" stroke="none" />
</svg>