﻿<?xml version="1.0" encoding="utf-8"?>
<svg version="1.1" xmlns:xlink="http://www.w3.org/1999/xlink" width="12px" height="12px" viewBox="17 373  12 12" xmlns="http://www.w3.org/2000/svg">
  <path d="M 23 373  C 26.36 373  29 375.64  29 379  C 29 382.36  26.36 385  23 385  C 19.64 385  17 382.36  17 379  C 17 375.64  19.64 373  23 373  Z " fill-rule="nonzero" fill="#f0f0f0" stroke="none" />
  <path d="M 23 373.5  C 26.08 373.5  28.5 375.92  28.5 379  C 28.5 382.08  26.08 384.5  23 384.5  C 19.92 384.5  17.5 382.08  17.5 379  C 17.5 375.92  19.92 373.5  23 373.5  Z " stroke-width="1" stroke="#797979" fill="none" />
</svg>