﻿<?xml version="1.0" encoding="utf-8"?>
<svg version="1.1" xmlns:xlink="http://www.w3.org/1999/xlink" width="77px" height="2px" xmlns="http://www.w3.org/2000/svg">
  <g transform="matrix(1 0 0 1 -74 -345 )">
    <path d="M 74 345.5  L 150 345.5  " stroke-width="1" stroke="#1fb8ff" fill="none" />
  </g>
</svg>