﻿<?xml version="1.0" encoding="utf-8"?>
<svg version="1.1" xmlns:xlink="http://www.w3.org/1999/xlink" width="44px" height="44px" xmlns="http://www.w3.org/2000/svg">
  <g transform="matrix(1 0 0 1 -99 -353 )">
    <path d="M 99.5 353.5  L 142.5 353.5  L 142.5 396.5  L 99.5 396.5  L 99.5 353.5  Z " fill-rule="nonzero" fill="#f2f2f2" stroke="none" />
    <path d="M 99.5 353.5  L 142.5 353.5  L 142.5 396.5  L 99.5 396.5  L 99.5 353.5  Z " stroke-width="1" stroke="#e5e5e5" fill="none" />
    <path d="M 99.3535533905933 353.353553390593  L 142.646446609407 396.646446609407  M 142.646446609407 353.353553390593  L 99.3535533905933 396.646446609407  " stroke-width="1" stroke="#e5e5e5" fill="none" />
  </g>
</svg>