﻿<?xml version="1.0" encoding="utf-8"?>
<svg version="1.1" xmlns:xlink="http://www.w3.org/1999/xlink" width="12px" height="12px" viewBox="14 67  12 12" xmlns="http://www.w3.org/2000/svg">
  <path d="M 20 67  C 23.36 67  26 69.64  26 73  C 26 76.36  23.36 79  20 79  C 16.64 79  14 76.36  14 73  C 14 69.64  16.64 67  20 67  Z " fill-rule="nonzero" fill="#ffffff" stroke="none" />
  <path d="M 20 67.5  C 23.08 67.5  25.5 69.92  25.5 73  C 25.5 76.08  23.08 78.5  20 78.5  C 16.92 78.5  14.5 76.08  14.5 73  C 14.5 69.92  16.92 67.5  20 67.5  Z " stroke-width="1" stroke="#797979" fill="none" />
  <path d="M 20 76  C 18.32 76  17 74.68  17 73  C 17 71.32  18.32 70  20 70  C 21.68 70  23 71.32  23 73  C 23 74.68  21.68 76  20 76  " fill-rule="nonzero" fill="#797979" stroke="none" />
</svg>