﻿<?xml version="1.0" encoding="utf-8"?>
<svg version="1.1" xmlns:xlink="http://www.w3.org/1999/xlink" width="12px" height="12px" viewBox="20 293  12 12" xmlns="http://www.w3.org/2000/svg">
  <path d="M 26 293  C 29.36 293  32 295.64  32 299  C 32 302.36  29.36 305  26 305  C 22.64 305  20 302.36  20 299  C 20 295.64  22.64 293  26 293  Z " fill-rule="nonzero" fill="#ffffff" stroke="none" />
  <path d="M 26 293.5  C 29.08 293.5  31.5 295.92  31.5 299  C 31.5 302.08  29.08 304.5  26 304.5  C 22.92 304.5  20.5 302.08  20.5 299  C 20.5 295.92  22.92 293.5  26 293.5  Z " stroke-width="1" stroke="#797979" fill="none" />
  <path d="M 26 302  C 24.32 302  23 300.68  23 299  C 23 297.32  24.32 296  26 296  C 27.68 296  29 297.32  29 299  C 29 300.68  27.68 302  26 302  " fill-rule="nonzero" fill="#797979" stroke="none" />
</svg>