﻿<?xml version="1.0" encoding="utf-8"?>
<svg version="1.1" xmlns:xlink="http://www.w3.org/1999/xlink" width="12px" height="12px" viewBox="19 126  12 12" xmlns="http://www.w3.org/2000/svg">
  <path d="M 19.5 126.5  L 30.5 126.5  L 30.5 137.5  L 19.5 137.5  L 19.5 126.5  Z " fill-rule="nonzero" fill="#ffffff" stroke="none" />
  <path d="M 19.5 126.5  L 30.5 126.5  L 30.5 137.5  L 19.5 137.5  L 19.5 126.5  Z " stroke-width="1" stroke="#797979" fill="none" />
  <path d="M 21.5714285714286 132  L 24.1428571428571 134.571428571429  L 28.4285714285714 128.571428571429  " stroke-width="2.57142857142857" stroke="#797979" fill="none" />
</svg>