﻿<?xml version="1.0" encoding="utf-8"?>
<svg version="1.1" xmlns:xlink="http://www.w3.org/1999/xlink" width="12px" height="12px" viewBox="21 345  12 12" xmlns="http://www.w3.org/2000/svg">
  <path d="M 27 345  C 30.36 345  33 347.64  33 351  C 33 354.36  30.36 357  27 357  C 23.64 357  21 354.36  21 351  C 21 347.64  23.64 345  27 345  Z " fill-rule="nonzero" fill="#f0f0f0" stroke="none" />
  <path d="M 27 345.5  C 30.08 345.5  32.5 347.92  32.5 351  C 32.5 354.08  30.08 356.5  27 356.5  C 23.92 356.5  21.5 354.08  21.5 351  C 21.5 347.92  23.92 345.5  27 345.5  Z " stroke-width="1" stroke="#797979" fill="none" />
</svg>