﻿<?xml version="1.0" encoding="utf-8"?>
<svg version="1.1" xmlns:xlink="http://www.w3.org/1999/xlink" width="12px" height="12px" viewBox="21 284  12 12" xmlns="http://www.w3.org/2000/svg">
  <path d="M 27 284  C 30.36 284  33 286.64  33 290  C 33 293.36  30.36 296  27 296  C 23.64 296  21 293.36  21 290  C 21 286.64  23.64 284  27 284  Z " fill-rule="nonzero" fill="#ffffff" stroke="none" />
  <path d="M 27 284.5  C 30.08 284.5  32.5 286.92  32.5 290  C 32.5 293.08  30.08 295.5  27 295.5  C 23.92 295.5  21.5 293.08  21.5 290  C 21.5 286.92  23.92 284.5  27 284.5  Z " stroke-width="1" stroke="#797979" fill="none" />
</svg>