﻿<?xml version="1.0" encoding="utf-8"?>
<svg version="1.1" xmlns:xlink="http://www.w3.org/1999/xlink" width="82px" height="4px" preserveAspectRatio="xMinYMid meet" viewBox="1294 265  82 2" xmlns="http://www.w3.org/2000/svg">
  <path d="M 1360 275.5  L 1374 266  L 1360 256.5  L 1360 275.5  Z M 1362 271.9  L 1362 260.1  L 1370.9 266  L 1362 271.9  Z " fill-rule="nonzero" fill="#d9001b" stroke="none" />
  <path d="M 1297 266  L 1362 266  " stroke-width="2" stroke="#d9001b" fill="none" />
</svg>