﻿<?xml version="1.0" encoding="utf-8"?>
<svg version="1.1" xmlns:xlink="http://www.w3.org/1999/xlink" width="38px" height="38px" preserveAspectRatio="xMinYMid meet" viewBox="476 785  38 36" xmlns="http://www.w3.org/2000/svg">
  <g transform="matrix(-1 0 0 -1 990 1606 )">
    <path d="M 488 812.5  L 502 803  L 488 793.5  L 488 812.5  Z M 490 808.9  L 490 797.1  L 498.9 803  L 490 808.9  Z " fill-rule="nonzero" fill="#d9001b" stroke="none" />
    <path d="M 412 803  L 490 803  " stroke-width="2" stroke="#d9001b" fill="none" />
  </g>
</svg>