﻿<?xml version="1.0" encoding="utf-8"?>
<svg version="1.1" xmlns:xlink="http://www.w3.org/1999/xlink" width="12px" height="12px" viewBox="1102 164  12 12" xmlns="http://www.w3.org/2000/svg">
  <path d="M 1108 164  C 1111.36 164  1114 166.64  1114 170  C 1114 173.36  1111.36 176  1108 176  C 1104.64 176  1102 173.36  1102 170  C 1102 166.64  1104.64 164  1108 164  Z " fill-rule="nonzero" fill="#ffffff" stroke="none" />
  <path d="M 1108 164.5  C 1111.08 164.5  1113.5 166.92  1113.5 170  C 1113.5 173.08  1111.08 175.5  1108 175.5  C 1104.92 175.5  1102.5 173.08  1102.5 170  C 1102.5 166.92  1104.92 164.5  1108 164.5  Z " stroke-width="1" stroke="#797979" fill="none" />
</svg>