﻿<?xml version="1.0" encoding="utf-8"?>
<svg version="1.1" xmlns:xlink="http://www.w3.org/1999/xlink" width="12px" height="12px" viewBox="797 92  12 12" xmlns="http://www.w3.org/2000/svg">
  <path d="M 803 92  C 806.36 92  809 94.64  809 98  C 809 101.36  806.36 104  803 104  C 799.64 104  797 101.36  797 98  C 797 94.64  799.64 92  803 92  Z " fill-rule="nonzero" fill="#f0f0f0" stroke="none" />
  <path d="M 803 92.5  C 806.08 92.5  808.5 94.92  808.5 98  C 808.5 101.08  806.08 103.5  803 103.5  C 799.92 103.5  797.5 101.08  797.5 98  C 797.5 94.92  799.92 92.5  803 92.5  Z " stroke-width="1" stroke="#797979" fill="none" />
</svg>