﻿<?xml version="1.0" encoding="utf-8"?>
<svg version="1.1" xmlns:xlink="http://www.w3.org/1999/xlink" width="12px" height="12px" viewBox="1059 164  12 12" xmlns="http://www.w3.org/2000/svg">
  <path d="M 1065 164  C 1068.36 164  1071 166.64  1071 170  C 1071 173.36  1068.36 176  1065 176  C 1061.64 176  1059 173.36  1059 170  C 1059 166.64  1061.64 164  1065 164  Z " fill-rule="nonzero" fill="#f0f0f0" stroke="none" />
  <path d="M 1065 164.5  C 1068.08 164.5  1070.5 166.92  1070.5 170  C 1070.5 173.08  1068.08 175.5  1065 175.5  C 1061.92 175.5  1059.5 173.08  1059.5 170  C 1059.5 166.92  1061.92 164.5  1065 164.5  Z " stroke-width="1" stroke="#797979" fill="none" />
</svg>