﻿<?xml version="1.0" encoding="utf-8"?>
<svg version="1.1" xmlns:xlink="http://www.w3.org/1999/xlink" width="14px" height="2px" xmlns="http://www.w3.org/2000/svg">
  <g transform="matrix(1 0 0 1 -574 -265 )">
    <path d="M 574 265.5  L 587 265.5  " stroke-width="1" stroke="#bcbcbc" fill="none" />
  </g>
</svg>