﻿<?xml version="1.0" encoding="utf-8"?>
<svg version="1.1" xmlns:xlink="http://www.w3.org/1999/xlink" width="12px" height="12px" viewBox="587 398.5  12 12" xmlns="http://www.w3.org/2000/svg">
  <path d="M 587.5 399  L 598.5 399  L 598.5 410  L 587.5 410  L 587.5 399  Z " fill-rule="nonzero" fill="#ffffff" stroke="none" />
  <path d="M 587.5 399  L 598.5 399  L 598.5 410  L 587.5 410  L 587.5 399  Z " stroke-width="1" stroke="#797979" fill="none" />
  <path d="M 589.571428571429 404.5  L 592.142857142857 407.071428571429  L 596.428571428571 401.071428571429  " stroke-width="2.57142857142857" stroke="#797979" fill="none" />
</svg>