﻿<?xml version="1.0" encoding="utf-8"?>
<svg version="1.1" xmlns:xlink="http://www.w3.org/1999/xlink" width="12px" height="12px" viewBox="111 637  12 12" xmlns="http://www.w3.org/2000/svg">
  <path d="M 111.5 637.5  L 122.5 637.5  L 122.5 648.5  L 111.5 648.5  L 111.5 637.5  Z " fill-rule="nonzero" fill="#ffffff" stroke="none" />
  <path d="M 111.5 637.5  L 122.5 637.5  L 122.5 648.5  L 111.5 648.5  L 111.5 637.5  Z " stroke-width="1" stroke="#797979" fill="none" />
  <path d="M 113.571428571429 643  L 116.142857142857 645.571428571429  " stroke-width="2.57142857142857" stroke="#797979" fill="none" />
  <path d="M 116.142857142857 645.571428571429  L 120.428571428571 639.571428571429  " stroke-width="2.57142857142857" stroke="#797979" fill="none" />
</svg>