﻿<?xml version="1.0" encoding="utf-8"?>
<svg version="1.1" xmlns:xlink="http://www.w3.org/1999/xlink" width="87px" height="10px" preserveAspectRatio="xMinYMid meet" viewBox="235 313  87 8" xmlns="http://www.w3.org/2000/svg">
  <path d="M 240 268  L 240 312  A 5 5 0 0 0 245 317 L 312 317  A 5 5 0 0 1 317 322 L 317 364  " stroke-width="2" stroke="#999999" fill="none" />
  <path d="M 321.292893218813 358.892893218813  L 317 363.185786437627  L 312.707106781187 358.892893218813  L 311.292893218813 360.307106781187  L 316.292893218813 365.307106781187  L 317 366.014213562373  L 317.707106781187 365.307106781187  L 322.707106781187 360.307106781187  L 321.292893218813 358.892893218813  Z " fill-rule="nonzero" fill="#999999" stroke="none" />
</svg>