﻿<?xml version="1.0" encoding="utf-8"?>
<svg version="1.1" xmlns:xlink="http://www.w3.org/1999/xlink" width="20px" height="20px" preserveAspectRatio="xMinYMid meet" viewBox="711 511  20 18" xmlns="http://www.w3.org/2000/svg">
  <path d="M 845 409  L 845 455  A 5 5 0 0 1 840 460 L 726 460  A 5 5 0 0 0 721 465 L 721 520  " stroke-width="2" stroke="#999999" fill="none" />
  <path d="M 725.292893218813 514.892893218813  L 721 519.185786437627  L 716.707106781187 514.892893218813  L 715.292893218813 516.307106781187  L 720.292893218813 521.307106781187  L 721 522.014213562373  L 721.707106781187 521.307106781187  L 726.707106781187 516.307106781187  L 725.292893218813 514.892893218813  Z " fill-rule="nonzero" fill="#999999" stroke="none" />
</svg>