﻿<?xml version="1.0" encoding="utf-8"?>
<svg version="1.1" xmlns:xlink="http://www.w3.org/1999/xlink" width="133px" height="10px" preserveAspectRatio="xMinYMid meet" viewBox="840 456  133 8" xmlns="http://www.w3.org/2000/svg">
  <path d="M 845 409  L 845 455  A 5 5 0 0 0 850 460 L 963 460  A 5 5 0 0 1 968 465 L 968 520  " stroke-width="2" stroke="#999999" fill="none" />
  <path d="M 972.292893218813 514.892893218813  L 968 519.185786437627  L 963.707106781187 514.892893218813  L 962.292893218813 516.307106781187  L 967.292893218813 521.307106781187  L 968 522.014213562373  L 968.707106781187 521.307106781187  L 973.707106781187 516.307106781187  L 972.292893218813 514.892893218813  Z " fill-rule="nonzero" fill="#999999" stroke="none" />
</svg>