﻿<?xml version="1.0" encoding="utf-8"?>
<svg version="1.1" xmlns:xlink="http://www.w3.org/1999/xlink" width="10px" height="395px" preserveAspectRatio="xMidYMin meet" viewBox="53 126  8 395" xmlns="http://www.w3.org/2000/svg">
  <path d="M 105 516  L 62 516  A 5 5 0 0 1 57 511 L 57 136  A 5 5 0 0 1 62 131 L 207 131  " stroke-width="2" stroke="#cccccc" fill="none" />
  <path d="M 201.892893218813 126.707106781187  L 206.185786437627 131  L 201.892893218813 135.292893218813  L 203.307106781187 136.707106781187  L 208.307106781187 131.707106781187  L 209.014213562373 131  L 208.307106781187 130.292893218813  L 203.307106781187 125.292893218813  L 201.892893218813 126.707106781187  Z " fill-rule="nonzero" fill="#cccccc" stroke="none" />
</svg>