﻿<?xml version="1.0" encoding="utf-8"?>
<svg version="1.1" xmlns:xlink="http://www.w3.org/1999/xlink" width="6px" height="6px" preserveAspectRatio="xMinYMid meet" viewBox="394 761  6 4" xmlns="http://www.w3.org/2000/svg">
  <path d="M 587 773.2  L 597 763  L 587 752.8  L 587 773.2  Z " fill-rule="nonzero" fill="#0000ff" stroke="none" />
  <path d="M 397 763  L 589 763  " stroke-width="4" stroke="#0000ff" fill="none" />
</svg>