﻿<?xml version="1.0" encoding="utf-8"?>
<svg version="1.1" xmlns:xlink="http://www.w3.org/1999/xlink" width="295px" height="2px" xmlns="http://www.w3.org/2000/svg">
  <g transform="matrix(1 0 0 1 -10 -243 )">
    <path d="M 10 243.5  L 304 243.5  " stroke-width="1" stroke="#e9e9e9" fill="none" />
  </g>
</svg>