﻿<?xml version="1.0" encoding="utf-8"?>
<svg version="1.1" xmlns:xlink="http://www.w3.org/1999/xlink" width="10px" height="68px" preserveAspectRatio="xMidYMin meet" viewBox="696 533  8 68" xmlns="http://www.w3.org/2000/svg">
  <defs>
    <mask fill="white" id="clip268">
      <path d="M 651 552  L 749 552  L 749 577  L 651 577  Z M 651 533  L 749 533  L 749 613  L 651 613  Z " fill-rule="evenodd" />
    </mask>
  </defs>
  <path d="M 700 552  L 700 533  M 700 577  L 700 594  " stroke-width="2" stroke="#999999" fill="none" />
  <path d="M 692 586.6  L 700 596  L 708 586.6  L 700 590.2  L 692 586.6  Z " fill-rule="nonzero" fill="#999999" stroke="none" mask="url(#clip268)" />
</svg>