﻿<?xml version="1.0" encoding="utf-8"?>
<svg version="1.1" xmlns:xlink="http://www.w3.org/1999/xlink" width="10px" height="83px" preserveAspectRatio="xMidYMin meet" viewBox="696 793  8 83" xmlns="http://www.w3.org/2000/svg">
  <defs>
    <mask fill="white" id="clip272">
      <path d="M 651 820  L 749 820  L 749 845  L 651 845  Z M 651 793  L 749 793  L 749 888  L 651 888  Z " fill-rule="evenodd" />
    </mask>
  </defs>
  <path d="M 700 820  L 700 793  M 700 845  L 700 869  " stroke-width="2" stroke="#999999" fill="none" />
  <path d="M 692 861.6  L 700 871  L 708 861.6  L 700 865.2  L 692 861.6  Z " fill-rule="nonzero" fill="#999999" stroke="none" mask="url(#clip272)" />
</svg>