﻿<?xml version="1.0" encoding="utf-8"?>
<svg version="1.1" xmlns:xlink="http://www.w3.org/1999/xlink" width="34px" height="34px" preserveAspectRatio="xMinYMid meet" viewBox="156 261  34 32" xmlns="http://www.w3.org/2000/svg">
  <defs>
    <mask fill="white" id="clip253">
      <path d="M 185.5 264  L 218.5 264  L 218.5 289  L 185.5 289  Z M 154 260  L 235 260  L 235 294  L 154 294  Z " fill-rule="evenodd" />
    </mask>
  </defs>
  <path d="M 185.5 277  L 173 277  M 218.5 277  L 232 277  " stroke-width="2" stroke="#999999" fill="none" />
  <path d="M 180.4 269  L 171 277  L 180.4 285  L 176.8 277  L 180.4 269  Z " fill-rule="nonzero" fill="#999999" stroke="none" mask="url(#clip253)" />
</svg>