﻿<?xml version="1.0" encoding="utf-8"?>
<svg version="1.1" xmlns:xlink="http://www.w3.org/1999/xlink" width="119px" height="79px" xmlns="http://www.w3.org/2000/svg">
  <g transform="matrix(1 0 0 1 -232 -237 )">
    <path d="M 291.5 315.411734694643  L 232.88612115617 276.5  L 291.5 237.588265305357  L 350.11387884383 276.5  L 291.5 315.411734694643  Z " fill-rule="nonzero" fill="#ffffff" stroke="none" />
    <path d="M 291.5 316  L 232 276.5  L 291.5 237  L 351 276.5  L 291.5 316  Z M 233.772242312341 276.5  L 291.5 314.823469389286  L 349.227757687659 276.5  L 291.5 238.176530610714  L 233.772242312341 276.5  Z " fill-rule="nonzero" fill="#797979" stroke="none" />
  </g>
</svg>