﻿<?xml version="1.0" encoding="utf-8"?>
<svg version="1.1" xmlns:xlink="http://www.w3.org/1999/xlink" width="34px" height="34px" preserveAspectRatio="xMinYMid meet" viewBox="275 973  34 32" xmlns="http://www.w3.org/2000/svg">
  <defs>
    <mask fill="white" id="clip286">
      <path d="M 232 941  L 352 941  L 352 981  L 232 981  Z M 232 931  L 352 931  L 352 1008  L 232 1008  Z " fill-rule="evenodd" />
    </mask>
  </defs>
  <path d="M 292 941  L 292 931  M 292 981  L 292 989  " stroke-width="2" stroke="#999999" fill="none" />
  <path d="M 284 981.6  L 292 991  L 300 981.6  L 292 985.2  L 284 981.6  Z " fill-rule="nonzero" fill="#999999" stroke="none" mask="url(#clip286)" />
</svg>