﻿<?xml version="1.0" encoding="utf-8"?>
<svg version="1.1" xmlns:xlink="http://www.w3.org/1999/xlink" width="34px" height="34px" preserveAspectRatio="xMinYMid meet" viewBox="327 610  34 32" xmlns="http://www.w3.org/2000/svg">
  <defs>
    <mask fill="white" id="clip283">
      <path d="M 460 613  L 532 613  L 532 638  L 460 638  Z M 325 609  L 667 609  L 667 643  L 325 643  Z " fill-rule="evenodd" />
    </mask>
  </defs>
  <path d="M 460 626  L 344 626  M 532 626  L 648 626  " stroke-width="2" stroke="#999999" fill="none" />
  <path d="M 351.4 618  L 342 626  L 351.4 634  L 347.8 626  L 351.4 618  Z M 640.6 634  L 650 626  L 640.6 618  L 644.2 626  L 640.6 634  Z " fill-rule="nonzero" fill="#999999" stroke="none" mask="url(#clip283)" />
</svg>