﻿<?xml version="1.0" encoding="utf-8"?>
<svg version="1.1" xmlns:xlink="http://www.w3.org/1999/xlink" width="212px" height="6px" preserveAspectRatio="xMinYMid meet" viewBox="934 647  212 4" xmlns="http://www.w3.org/2000/svg">
  <path d="M 1129 658.5  L 1143 649  L 1129 639.5  L 1129 658.5  Z " fill-rule="nonzero" fill="#0000ff" stroke="none" />
  <path d="M 936 649  L 1131 649  " stroke-width="2" stroke="#0000ff" fill="none" />
</svg>