﻿<?xml version="1.0" encoding="utf-8"?>
<svg version="1.1" xmlns:xlink="http://www.w3.org/1999/xlink" width="4px" height="4px" preserveAspectRatio="xMinYMid meet" viewBox="1240 745  4 2" xmlns="http://www.w3.org/2000/svg">
  <path d="M 1281 808.5  L 1295 799  L 1281 789.5  L 1281 808.5  Z " fill-rule="nonzero" fill="#0000ff" stroke="none" transform="matrix(6.12303176911189E-17 1 -1 6.12303176911189E-17 2041 -443 )" />
  <path d="M 1189 799  L 1283 799  " stroke-width="2" stroke="#0000ff" fill="none" transform="matrix(6.12303176911189E-17 1 -1 6.12303176911189E-17 2041 -443 )" />
</svg>