﻿<?xml version="1.0" encoding="utf-8"?>
<svg version="1.1" xmlns:xlink="http://www.w3.org/1999/xlink" width="893px" height="2px" xmlns="http://www.w3.org/2000/svg">
  <g transform="matrix(1 0 0 1 -39 -546 )">
    <path d="M 39 546.5  L 931 546.5  " stroke-width="1" stroke="#cccccc" fill="none" />
  </g>
</svg>