﻿<?xml version="1.0" encoding="utf-8"?>
<svg version="1.1" xmlns:xlink="http://www.w3.org/1999/xlink" width="124px" height="36px" xmlns="http://www.w3.org/2000/svg">
  <g transform="matrix(1 0 0 1 -1188 -781 )">
    <path d="M 1281 808.5  L 1295 799  L 1281 789.5  L 1281 808.5  Z " fill-rule="nonzero" fill="#0000ff" stroke="none" />
    <path d="M 1189 799  L 1283 799  " stroke-width="2" stroke="#0000ff" fill="none" />
  </g>
</svg>