﻿<?xml version="1.0" encoding="utf-8"?>
<svg version="1.1" xmlns:xlink="http://www.w3.org/1999/xlink" width="212px" height="6px" preserveAspectRatio="xMinYMid meet" viewBox="962 937  212 4" xmlns="http://www.w3.org/2000/svg">
  <path d="M 978 929.5  L 964 939  L 978 948.5  L 978 929.5  Z " fill-rule="nonzero" fill="#0000ff" stroke="none" />
  <path d="M 976 939  L 1171 939  " stroke-width="2" stroke="#0000ff" fill="none" />
</svg>