﻿<?xml version="1.0" encoding="utf-8"?>
<svg version="1.1" xmlns:xlink="http://www.w3.org/1999/xlink" width="38px" height="38px" preserveAspectRatio="xMinYMid meet" viewBox="952 1657  38 36" xmlns="http://www.w3.org/2000/svg">
  <path d="M 978 1665.5  L 964 1675  L 978 1684.5  L 978 1665.5  Z " fill-rule="nonzero" fill="#0000ff" stroke="none" />
  <path d="M 976 1675  L 1171 1675  " stroke-width="2" stroke="#0000ff" fill="none" />
</svg>