﻿<?xml version="1.0" encoding="utf-8"?>
<svg version="1.1" xmlns:xlink="http://www.w3.org/1999/xlink" width="80px" height="36px" xmlns="http://www.w3.org/2000/svg">
  <g transform="matrix(1 0 0 1 -1264 -2232 )">
    <path d="M 1313 2259.5  L 1327 2250  L 1313 2240.5  L 1313 2259.5  Z " fill-rule="nonzero" fill="#0000ff" stroke="none" />
    <path d="M 1265 2250  L 1315 2250  " stroke-width="2" stroke="#0000ff" fill="none" />
  </g>
</svg>