﻿<?xml version="1.0" encoding="utf-8"?>
<svg version="1.1" xmlns:xlink="http://www.w3.org/1999/xlink" width="68px" height="4px" preserveAspectRatio="xMinYMid meet" viewBox="1262 2249  68 2" xmlns="http://www.w3.org/2000/svg">
  <g transform="matrix(0 -1 1 0 -954 3546 )">
    <path d="M 1313 2259.5  L 1327 2250  L 1313 2240.5  L 1313 2259.5  Z " fill-rule="nonzero" fill="#0000ff" stroke="none" transform="matrix(6.12303176911189E-17 1 -1 6.12303176911189E-17 3546 954 )" />
    <path d="M 1265 2250  L 1315 2250  " stroke-width="2" stroke="#0000ff" fill="none" transform="matrix(6.12303176911189E-17 1 -1 6.12303176911189E-17 3546 954 )" />
  </g>
</svg>