﻿<?xml version="1.0" encoding="utf-8"?>
<svg version="1.1" xmlns:xlink="http://www.w3.org/1999/xlink" width="40px" height="38px" preserveAspectRatio="xMinYMid meet" viewBox="1360 2605  40 36" xmlns="http://www.w3.org/2000/svg">
  <g transform="matrix(-0.891006524188366 0.453990499739554 -0.453990499739547 -0.891006524188371 3800.40608419678 4333.60322330551 )">
    <path d="M 1400 2519.5  L 1414 2510  L 1400 2500.5  L 1400 2519.5  Z " fill-rule="nonzero" fill="#0000ff" stroke="none" transform="matrix(0.889181893419846 0.457553887989488 -0.457553887989488 0.889181893419846 1277.12008059317 -253.06661643961 )" />
    <path d="M 908 2510  L 1402 2510  " stroke-width="2" stroke="#0000ff" fill="none" transform="matrix(0.889181893419846 0.457553887989488 -0.457553887989488 0.889181893419846 1277.12008059317 -253.06661643961 )" />
  </g>
</svg>