﻿<?xml version="1.0" encoding="utf-8"?>
<svg version="1.1" xmlns:xlink="http://www.w3.org/1999/xlink" width="40px" height="38px" preserveAspectRatio="xMinYMid meet" viewBox="922 2751  40 36" xmlns="http://www.w3.org/2000/svg">
  <path d="M 949 2758.5  L 935 2768  L 949 2777.5  L 949 2758.5  Z " fill-rule="nonzero" fill="#0000ff" stroke="none" transform="matrix(0.999997225664599 -0.00235556004061846 0.00235556004061846 0.999997225664599 -6.51733678847199 2.43037286216577 )" />
  <path d="M 947 2768  L 1122 2768  " stroke-width="2" stroke="#0000ff" fill="none" transform="matrix(0.999997225664599 -0.00235556004061846 0.00235556004061846 0.999997225664599 -6.51733678847199 2.43037286216577 )" />
</svg>