﻿<?xml version="1.0" encoding="utf-8"?>
<svg version="1.1" xmlns:xlink="http://www.w3.org/1999/xlink" width="190px" height="5px" xmlns="http://www.w3.org/2000/svg">
  <g transform="matrix(1 0 0 1 -1466 -2882 )">
    <path d="M 1467 2884  L 1654 2884  " stroke-width="2" stroke="#aa00e6" fill="none" />
  </g>
</svg>