﻿<?xml version="1.0" encoding="utf-8"?>
<svg version="1.1" xmlns:xlink="http://www.w3.org/1999/xlink" width="38px" height="36px" preserveAspectRatio="xMinYMid meet" viewBox="952 2959  38 34" xmlns="http://www.w3.org/2000/svg">
  <path d="M 978 2966.5  L 964 2976  L 978 2985.5  L 978 2966.5  Z " fill-rule="nonzero" fill="#aa00e6" stroke="none" />
  <path d="M 976 2976  L 1561 2976  " stroke-width="2" stroke="#aa00e6" fill="none" />
</svg>