﻿<?xml version="1.0" encoding="utf-8"?>
<svg version="1.1" xmlns:xlink="http://www.w3.org/1999/xlink" width="212px" height="4px" preserveAspectRatio="xMinYMid meet" viewBox="934 3383  212 2" xmlns="http://www.w3.org/2000/svg">
  <path d="M 1129 3393.5  L 1143 3384  L 1129 3374.5  L 1129 3393.5  Z " fill-rule="nonzero" fill="#0000ff" stroke="none" />
  <path d="M 936 3384  L 1131 3384  " stroke-width="2" stroke="#0000ff" fill="none" />
</svg>