﻿<?xml version="1.0" encoding="utf-8"?>
<svg version="1.1" xmlns:xlink="http://www.w3.org/1999/xlink" width="324px" height="10px" preserveAspectRatio="xMinYMid meet" viewBox="892 3817  324 8" xmlns="http://www.w3.org/2000/svg">
  <g transform="matrix(0.754709580222777 -0.656059028990497 0.656059028990502 0.75470958022276 -2248.26544732752 1628.74091052482 )">
    <path d="M 1198 3830.5  L 1212 3821  L 1198 3811.5  L 1198 3830.5  Z " fill-rule="nonzero" fill="#0000ff" stroke="none" transform="matrix(0.749117261694341 0.662437414577085 -0.662437414577085 0.749117261694341 2795.60376727321 260.413908101676 )" />
    <path d="M 896 3821  L 1200 3821  " stroke-width="2" stroke="#0000ff" fill="none" transform="matrix(0.749117261694341 0.662437414577085 -0.662437414577085 0.749117261694341 2795.60376727321 260.413908101676 )" />
  </g>
</svg>