﻿<?xml version="1.0" encoding="utf-8"?>
<svg version="1.1" xmlns:xlink="http://www.w3.org/1999/xlink" width="212px" height="4px" preserveAspectRatio="xMinYMid meet" viewBox="962 3681  212 2" xmlns="http://www.w3.org/2000/svg">
  <path d="M 978 3672.5  L 964 3682  L 978 3691.5  L 978 3672.5  Z " fill-rule="nonzero" fill="#0000ff" stroke="none" />
  <path d="M 976 3682  L 1171 3682  " stroke-width="2" stroke="#0000ff" fill="none" />
</svg>