﻿<?xml version="1.0" encoding="utf-8"?>
<svg version="1.1" xmlns:xlink="http://www.w3.org/1999/xlink" width="334px" height="36px" xmlns="http://www.w3.org/2000/svg">
  <g transform="matrix(1 0 0 1 -895 -3803 )">
    <path d="M 1198 3830.5  L 1212 3821  L 1198 3811.5  L 1198 3830.5  Z " fill-rule="nonzero" fill="#0000ff" stroke="none" />
    <path d="M 896 3821  L 1200 3821  " stroke-width="2" stroke="#0000ff" fill="none" />
  </g>
</svg>