﻿<?xml version="1.0" encoding="utf-8"?>
<svg version="1.1" xmlns:xlink="http://www.w3.org/1999/xlink" width="602px" height="4px" preserveAspectRatio="xMinYMid meet" viewBox="962 4277  602 2" xmlns="http://www.w3.org/2000/svg">
  <path d="M 978 4268.5  L 964 4278  L 978 4287.5  L 978 4268.5  Z " fill-rule="nonzero" fill="#aa00e6" stroke="none" />
  <path d="M 976 4278  L 1561 4278  " stroke-width="2" stroke="#aa00e6" fill="none" />
</svg>