﻿<?xml version="1.0" encoding="utf-8"?>
<svg version="1.1" xmlns:xlink="http://www.w3.org/1999/xlink" width="192px" height="4px" preserveAspectRatio="xMinYMid meet" viewBox="932 4075  192 2" xmlns="http://www.w3.org/2000/svg">
  <path d="M 949 4066.5  L 935 4076  L 949 4085.5  L 949 4066.5  Z " fill-rule="nonzero" fill="#0000ff" stroke="none" transform="matrix(0.999997225664599 -0.00235556004061846 0.00235556004061846 0.999997225664599 -9.59840932160091 2.43400169287042 )" />
  <path d="M 947 4076  L 1122 4076  " stroke-width="2" stroke="#0000ff" fill="none" transform="matrix(0.999997225664599 -0.00235556004061846 0.00235556004061846 0.999997225664599 -9.59840932160091 2.43400169287042 )" />
</svg>