﻿<?xml version="1.0" encoding="utf-8"?>
<svg version="1.1" xmlns:xlink="http://www.w3.org/1999/xlink" width="616px" height="36px" xmlns="http://www.w3.org/2000/svg">
  <g transform="matrix(1 0 0 1 -947 -4260 )">
    <path d="M 978 4268.5  L 964 4278  L 978 4287.5  L 978 4268.5  Z " fill-rule="nonzero" fill="#aa00e6" stroke="none" />
    <path d="M 976 4278  L 1561 4278  " stroke-width="2" stroke="#aa00e6" fill="none" />
  </g>
</svg>