﻿<?xml version="1.0" encoding="utf-8"?>
<svg version="1.1" xmlns:xlink="http://www.w3.org/1999/xlink" width="66px" height="36px" xmlns="http://www.w3.org/2000/svg">
  <g transform="matrix(1 0 0 1 -1336 -2750 )">
    <path d="M 1367 2758.5  L 1353 2768  L 1367 2777.5  L 1367 2758.5  Z " fill-rule="nonzero" fill="#0000ff" stroke="none" />
    <path d="M 1365 2768  L 1400 2768  " stroke-width="2" stroke="#0000ff" fill="none" />
  </g>
</svg>