﻿<?xml version="1.0" encoding="utf-8"?>
<svg version="1.1" xmlns:xlink="http://www.w3.org/1999/xlink" width="4px" height="4px" preserveAspectRatio="xMinYMid meet" viewBox="1626 2767  4 2" xmlns="http://www.w3.org/2000/svg">
  <path d="M 1830 2777.5  L 1844 2768  L 1830 2758.5  L 1830 2777.5  Z " fill-rule="nonzero" fill="#0000ff" stroke="none" />
  <path d="M 1627 2768  L 1832 2768  " stroke-width="2" stroke="#0000ff" fill="none" />
</svg>