﻿<?xml version="1.0" encoding="utf-8"?>
<svg version="1.1" xmlns:xlink="http://www.w3.org/1999/xlink" width="222px" height="6px" preserveAspectRatio="xMinYMid meet" viewBox="1408 701  222 4" xmlns="http://www.w3.org/2000/svg">
  <path d="M 1613 712.5  L 1627 703  L 1613 693.5  L 1613 712.5  Z " fill-rule="nonzero" fill="#0000ff" stroke="none" />
  <path d="M 1410 703  L 1615 703  " stroke-width="2" stroke="#0000ff" fill="none" />
</svg>