﻿<?xml version="1.0" encoding="utf-8"?>
<svg version="1.1" xmlns:xlink="http://www.w3.org/1999/xlink" width="235px" height="36px" xmlns="http://www.w3.org/2000/svg">
  <g transform="matrix(1 0 0 1 -1409 -685 )">
    <path d="M 1613 712.5  L 1627 703  L 1613 693.5  L 1613 712.5  Z " fill-rule="nonzero" fill="#0000ff" stroke="none" />
    <path d="M 1410 703  L 1615 703  " stroke-width="2" stroke="#0000ff" fill="none" />
  </g>
</svg>