﻿<?xml version="1.0" encoding="utf-8"?>
<svg version="1.1" xmlns:xlink="http://www.w3.org/1999/xlink" width="4px" height="4px" preserveAspectRatio="xMinYMid meet" viewBox="1398 4075  4 2" xmlns="http://www.w3.org/2000/svg">
  <path d="M 1367 4066.5  L 1353 4076  L 1367 4085.5  L 1367 4066.5  Z " fill-rule="nonzero" fill="#0000ff" stroke="none" />
  <path d="M 1365 4076  L 1400 4076  " stroke-width="2" stroke="#0000ff" fill="none" />
</svg>