﻿<?xml version="1.0" encoding="utf-8"?>
<svg version="1.1" xmlns:xlink="http://www.w3.org/1999/xlink" width="222px" height="6px" preserveAspectRatio="xMinYMid meet" viewBox="1408 2173  222 4" xmlns="http://www.w3.org/2000/svg">
  <path d="M 1613 2184.5  L 1627 2175  L 1613 2165.5  L 1613 2184.5  Z " fill-rule="nonzero" fill="#0000ff" stroke="none" />
  <path d="M 1410 2175  L 1615 2175  " stroke-width="2" stroke="#0000ff" fill="none" />
</svg>