﻿<?xml version="1.0" encoding="utf-8"?>
<svg version="1.1" xmlns:xlink="http://www.w3.org/1999/xlink" width="4px" height="4px" preserveAspectRatio="xMinYMid meet" viewBox="1408 3477  4 2" xmlns="http://www.w3.org/2000/svg">
  <path d="M 1613 3486.5  L 1627 3477  L 1613 3467.5  L 1613 3486.5  Z " fill-rule="nonzero" fill="#0000ff" stroke="none" />
  <path d="M 1410 3477  L 1615 3477  " stroke-width="2" stroke="#0000ff" fill="none" />
</svg>