﻿<?xml version="1.0" encoding="utf-8"?>
<svg version="1.1" xmlns:xlink="http://www.w3.org/1999/xlink" width="44px" height="44px" xmlns="http://www.w3.org/2000/svg">
  <g transform="matrix(1 0 0 1 -20 -275 )">
    <path d="M 20.5 275.5  L 63.5 275.5  L 63.5 318.5  L 20.5 318.5  L 20.5 275.5  Z " fill-rule="nonzero" fill="#f2f2f2" stroke="none" />
    <path d="M 20.5 275.5  L 63.5 275.5  L 63.5 318.5  L 20.5 318.5  L 20.5 275.5  Z " stroke-width="1" stroke="#e5e5e5" fill="none" />
    <path d="M 20.3535533905933 275.353553390593  L 63.6464466094067 318.646446609407  M 63.6464466094067 275.353553390593  L 20.3535533905933 318.646446609407  " stroke-width="1" stroke="#e5e5e5" fill="none" />
  </g>
</svg>