﻿<?xml version="1.0" encoding="utf-8"?>
<svg version="1.1" xmlns:xlink="http://www.w3.org/1999/xlink" width="127px" height="24px" xmlns="http://www.w3.org/2000/svg">
  <g transform="matrix(1 0 0 1 -832 -555 )">
    <path d="M 833 556  L 951 556  A 7 7 0 0 1 958 563 L 958 571  A 7 7 0 0 1 951 578 L 833 578  L 833 556  Z " fill-rule="nonzero" fill="#035df3" stroke="none" />
  </g>
</svg>