﻿<?xml version="1.0" encoding="utf-8"?>
<svg version="1.1" xmlns:xlink="http://www.w3.org/1999/xlink" width="182px" height="30px" xmlns="http://www.w3.org/2000/svg">
  <defs>
    <filter x="856px" y="582px" width="182px" height="30px" filterUnits="userSpaceOnUse" id="filter342">
      <feOffset dx="0" dy="0" in="SourceAlpha" result="shadowOffsetInner" />
      <feGaussianBlur stdDeviation="2.5" in="shadowOffsetInner" result="shadowGaussian" />
      <feComposite in2="shadowGaussian" operator="atop" in="SourceAlpha" result="shadowComposite" />
      <feColorMatrix type="matrix" values="0 0 0 0 0  0 0 0 0 0  0 0 0 0 0  0 0 0 0.349019607843137 0  " in="shadowComposite" />
    </filter>
    <g id="widget343">
      <path d="M 861 587  L 1033 587  L 1033 607  L 861 607  L 861 587  Z " fill-rule="nonzero" fill="#ffffff" stroke="none" fill-opacity="0" />
    </g>
  </defs>
  <g transform="matrix(1 0 0 1 -856 -582 )">
    <use xlink:href="#widget343" filter="url(#filter342)" />
    <use xlink:href="#widget343" />
  </g>
</svg>