﻿<?xml version="1.0" encoding="utf-8"?>
<svg version="1.1" xmlns:xlink="http://www.w3.org/1999/xlink" width="241px" height="2px" xmlns="http://www.w3.org/2000/svg">
  <g transform="matrix(1 0 0 1 -81 -379 )">
    <path d="M 81 379.5  L 321 379.5  " stroke-width="1" stroke="#e4e4e4" fill="none" />
  </g>
</svg>