﻿<?xml version="1.0" encoding="utf-8"?>
<svg version="1.1" xmlns:xlink="http://www.w3.org/1999/xlink" width="49px" height="24px" xmlns="http://www.w3.org/2000/svg">
  <defs>
    <filter x="34px" y="520px" width="49px" height="24px" filterUnits="userSpaceOnUse" id="filter348">
      <feOffset dx="0" dy="0" in="SourceAlpha" result="shadowOffsetInner" />
      <feGaussianBlur stdDeviation="2.5" in="shadowOffsetInner" result="shadowGaussian" />
      <feComposite in2="shadowGaussian" operator="atop" in="SourceAlpha" result="shadowComposite" />
      <feColorMatrix type="matrix" values="0 0 0 0 0  0 0 0 0 0  0 0 0 0 0  0 0 0 0.349019607843137 0  " in="shadowComposite" />
    </filter>
    <g id="widget349">
      <path d="M 39 525  L 78 525  L 78 539  L 39 539  L 39 525  Z " fill-rule="nonzero" fill="#ffffff" stroke="none" fill-opacity="0" />
    </g>
  </defs>
  <g transform="matrix(1 0 0 1 -34 -520 )">
    <use xlink:href="#widget349" filter="url(#filter348)" />
    <use xlink:href="#widget349" />
  </g>
</svg>