﻿<?xml version="1.0" encoding="utf-8"?>
<svg version="1.1" xmlns:xlink="http://www.w3.org/1999/xlink" width="44px" height="44px" xmlns="http://www.w3.org/2000/svg">
  <g transform="matrix(1 0 0 1 -20 -39 )">
    <path d="M 20.5 39.5  L 63.5 39.5  L 63.5 82.5  L 20.5 82.5  L 20.5 39.5  Z " fill-rule="nonzero" fill="#f2f2f2" stroke="none" />
    <path d="M 20.5 39.5  L 63.5 39.5  L 63.5 82.5  L 20.5 82.5  L 20.5 39.5  Z " stroke-width="1" stroke="#e5e5e5" fill="none" />
    <path d="M 20.3535533905933 39.3535533905933  L 63.6464466094067 82.6464466094067  M 63.6464466094067 39.3535533905933  L 20.3535533905933 82.6464466094067  " stroke-width="1" stroke="#e5e5e5" fill="none" />
  </g>
</svg>