﻿<?xml version="1.0" encoding="utf-8"?>
<svg version="1.1" xmlns:xlink="http://www.w3.org/1999/xlink" width="130px" height="27px" xmlns="http://www.w3.org/2000/svg">
  <defs>
    <filter x="34px" y="236px" width="130px" height="27px" filterUnits="userSpaceOnUse" id="filter433">
      <feOffset dx="0" dy="0" in="SourceAlpha" result="shadowOffsetInner" />
      <feGaussianBlur stdDeviation="2.5" in="shadowOffsetInner" result="shadowGaussian" />
      <feComposite in2="shadowGaussian" operator="atop" in="SourceAlpha" result="shadowComposite" />
      <feColorMatrix type="matrix" values="0 0 0 0 0  0 0 0 0 0  0 0 0 0 0  0 0 0 0.349019607843137 0  " in="shadowComposite" />
    </filter>
    <g id="widget434">
      <path d="M 39 241  L 159 241  L 159 258  L 39 258  L 39 241  Z " fill-rule="nonzero" fill="#ffffff" stroke="none" fill-opacity="0" />
    </g>
  </defs>
  <g transform="matrix(1 0 0 1 -34 -236 )">
    <use xlink:href="#widget434" filter="url(#filter433)" />
    <use xlink:href="#widget434" />
  </g>
</svg>