﻿<?xml version="1.0" encoding="utf-8"?>
<svg version="1.1" xmlns:xlink="http://www.w3.org/1999/xlink" width="246px" height="44px" xmlns="http://www.w3.org/2000/svg">
  <defs>
    <filter x="34px" y="295px" width="246px" height="44px" filterUnits="userSpaceOnUse" id="filter439">
      <feOffset dx="0" dy="0" in="SourceAlpha" result="shadowOffsetInner" />
      <feGaussianBlur stdDeviation="2.5" in="shadowOffsetInner" result="shadowGaussian" />
      <feComposite in2="shadowGaussian" operator="atop" in="SourceAlpha" result="shadowComposite" />
      <feColorMatrix type="matrix" values="0 0 0 0 0  0 0 0 0 0  0 0 0 0 0  0 0 0 0.349019607843137 0  " in="shadowComposite" />
    </filter>
    <g id="widget440">
      <path d="M 39 300  L 275 300  L 275 334  L 39 334  L 39 300  Z " fill-rule="nonzero" fill="#ffffff" stroke="none" fill-opacity="0" />
    </g>
  </defs>
  <g transform="matrix(1 0 0 1 -34 -295 )">
    <use xlink:href="#widget440" filter="url(#filter439)" />
    <use xlink:href="#widget440" />
  </g>
</svg>