﻿<?xml version="1.0" encoding="utf-8"?>
<svg version="1.1" xmlns:xlink="http://www.w3.org/1999/xlink" width="12px" height="12px" viewBox="245 106  12 12" xmlns="http://www.w3.org/2000/svg">
  <path d="M 245.5 106.5  L 256.5 106.5  L 256.5 117.5  L 245.5 117.5  L 245.5 106.5  Z " fill-rule="nonzero" fill="#ffffff" stroke="none" />
  <path d="M 245.5 106.5  L 256.5 106.5  L 256.5 117.5  L 245.5 117.5  L 245.5 106.5  Z " stroke-width="1" stroke="#797979" fill="none" />
  <path d="M 247.571428571429 112  L 250.142857142857 114.571428571429  L 254.428571428571 108.571428571429  " stroke-width="2.57142857142857" stroke="#797979" fill="none" />
</svg>