﻿<?xml version="1.0" encoding="utf-8"?>
<svg version="1.1" xmlns:xlink="http://www.w3.org/1999/xlink" width="33px" height="16px" xmlns="http://www.w3.org/2000/svg">
  <g transform="matrix(1 0 0 1 -307 -147 )">
    <path d="M 308.19343310568 162.5  L 323.5 147.657268466114  L 338.80656689432 162.5  L 308.19343310568 162.5  Z " fill-rule="nonzero" fill="#ffffff" stroke="none" />
    <path d="M 307 163  L 323.5 147  L 340 163  L 307 163  Z M 323.5 148.314536932227  L 309.386866211359 162  L 337.613133788641 162  L 323.5 148.314536932227  Z " fill-rule="nonzero" fill="#e4e4e4" stroke="none" />
  </g>
</svg>