﻿<?xml version="1.0" encoding="utf-8"?>
<svg version="1.1" xmlns:xlink="http://www.w3.org/1999/xlink" width="12px" height="12px" viewBox="10 129  12 12" xmlns="http://www.w3.org/2000/svg">
  <path d="M 16 129  C 19.36 129  22 131.64  22 135  C 22 138.36  19.36 141  16 141  C 12.64 141  10 138.36  10 135  C 10 131.64  12.64 129  16 129  Z " fill-rule="nonzero" fill="#ffffff" stroke="none" />
  <path d="M 16 129.5  C 19.08 129.5  21.5 131.92  21.5 135  C 21.5 138.08  19.08 140.5  16 140.5  C 12.92 140.5  10.5 138.08  10.5 135  C 10.5 131.92  12.92 129.5  16 129.5  Z " stroke-width="1" stroke="#797979" fill="none" />
</svg>