﻿<?xml version="1.0" encoding="utf-8"?>
<svg version="1.1" xmlns:xlink="http://www.w3.org/1999/xlink" width="12px" height="12px" viewBox="10 159  12 12" xmlns="http://www.w3.org/2000/svg">
  <path d="M 16 159  C 19.36 159  22 161.64  22 165  C 22 168.36  19.36 171  16 171  C 12.64 171  10 168.36  10 165  C 10 161.64  12.64 159  16 159  Z " fill-rule="nonzero" fill="#ffffff" stroke="none" />
  <path d="M 16 159.5  C 19.08 159.5  21.5 161.92  21.5 165  C 21.5 168.08  19.08 170.5  16 170.5  C 12.92 170.5  10.5 168.08  10.5 165  C 10.5 161.92  12.92 159.5  16 159.5  Z " stroke-width="1" stroke="#797979" fill="none" />
  <path d="M 16 168  C 14.32 168  13 166.68  13 165  C 13 163.32  14.32 162  16 162  C 17.68 162  19 163.32  19 165  C 19 166.68  17.68 168  16 168  " fill-rule="nonzero" fill="#797979" stroke="none" />
</svg>