﻿<?xml version="1.0" encoding="utf-8"?>
<svg version="1.1" xmlns:xlink="http://www.w3.org/1999/xlink" width="12px" height="12px" viewBox="515 119  12 12" xmlns="http://www.w3.org/2000/svg">
  <path d="M 515.5 119.5  L 526.5 119.5  L 526.5 130.5  L 515.5 130.5  L 515.5 119.5  Z " fill-rule="nonzero" fill="#ffffff" stroke="none" />
  <path d="M 515.5 119.5  L 526.5 119.5  L 526.5 130.5  L 515.5 130.5  L 515.5 119.5  Z " stroke-width="1" stroke="#797979" fill="none" />
  <path d="M 517.571428571429 125  L 520.142857142857 127.571428571429  " stroke-width="2.57142857142857" stroke="#797979" fill="none" />
  <path d="M 520.142857142857 127.571428571429  L 524.428571428571 121.571428571429  " stroke-width="2.57142857142857" stroke="#797979" fill="none" />
</svg>