﻿<?xml version="1.0" encoding="utf-8"?>
<svg version="1.1" xmlns:xlink="http://www.w3.org/1999/xlink" width="12px" height="12px" viewBox="758 264  12 12" xmlns="http://www.w3.org/2000/svg">
  <path d="M 758.5 264.5  L 769.5 264.5  L 769.5 275.5  L 758.5 275.5  L 758.5 264.5  Z " fill-rule="nonzero" fill="#ffffff" stroke="none" />
  <path d="M 758.5 264.5  L 769.5 264.5  L 769.5 275.5  L 758.5 275.5  L 758.5 264.5  Z " stroke-width="1" stroke="#797979" fill="none" />
  <path d="M 760.571428571429 270  L 763.142857142857 272.571428571429  " stroke-width="2.57142857142857" stroke="#797979" fill="none" />
  <path d="M 763.142857142857 272.571428571429  L 767.428571428571 266.571428571429  " stroke-width="2.57142857142857" stroke="#797979" fill="none" />
</svg>