﻿<?xml version="1.0" encoding="utf-8"?>
<svg version="1.1" xmlns:xlink="http://www.w3.org/1999/xlink" width="13px" height="8px" xmlns="http://www.w3.org/2000/svg">
  <g transform="matrix(1 0 0 1 -1153 -141 )">
    <path d="M 1155.07028823734 142  L 1159.5 147.451952938654  L 1163.92971176266 142  L 1155.07028823734 142  Z " fill-rule="nonzero" fill="#787878" stroke="none" />
  </g>
</svg>