﻿<?xml version="1.0" encoding="utf-8"?>
<svg version="1.1" xmlns:xlink="http://www.w3.org/1999/xlink" width="9px" height="5px" xmlns="http://www.w3.org/2000/svg">
  <g transform="matrix(1 0 0 1 -1155 -144 )">
    <path d="M 1155 144  L 1159.5 149  L 1164 144  L 1155 144  Z " fill-rule="nonzero" fill="#787878" stroke="none" />
  </g>
</svg>