﻿<?xml version="1.0" encoding="utf-8"?>
<svg version="1.1" xmlns:xlink="http://www.w3.org/1999/xlink" width="320px" height="568px" xmlns="http://www.w3.org/2000/svg">
  <g transform="matrix(1 0 0 1 -40 -80 )">
    <path d="M 41 81  L 359 81  L 359 647  L 41 647  L 41 81  Z " fill-rule="nonzero" fill="#333333" stroke="none" fill-opacity="0.4" />
  </g>
</svg>