﻿<?xml version="1.0" encoding="utf-8"?>
<svg version="1.1" xmlns:xlink="http://www.w3.org/1999/xlink" width="12px" height="12px" viewBox="372 449  12 12" xmlns="http://www.w3.org/2000/svg">
  <path d="M 372.5 449.5  L 383.5 449.5  L 383.5 460.5  L 372.5 460.5  L 372.5 449.5  Z " fill-rule="nonzero" fill="#ffffff" stroke="none" />
  <path d="M 372.5 449.5  L 383.5 449.5  L 383.5 460.5  L 372.5 460.5  L 372.5 449.5  Z " stroke-width="1" stroke="#797979" fill="none" />
  <path d="M 374.571428571429 455  L 377.142857142857 457.571428571429  " stroke-width="2.57142857142857" stroke="#797979" fill="none" />
  <path d="M 377.142857142857 457.571428571429  L 381.428571428571 451.571428571429  " stroke-width="2.57142857142857" stroke="#797979" fill="none" />
</svg>