﻿<?xml version="1.0" encoding="utf-8"?>
<svg version="1.1" xmlns:xlink="http://www.w3.org/1999/xlink" width="12px" height="12px" viewBox="108 625  12 12" xmlns="http://www.w3.org/2000/svg">
  <path d="M 108.5 625.5  L 119.5 625.5  L 119.5 636.5  L 108.5 636.5  L 108.5 625.5  Z " fill-rule="nonzero" fill="#f0f0f0" stroke="none" />
  <path d="M 108.5 625.5  L 119.5 625.5  L 119.5 636.5  L 108.5 636.5  L 108.5 625.5  Z " stroke-width="1" stroke="#797979" fill="none" />
  <path d="M 110.571428571429 631  L 113.142857142857 633.571428571429  L 117.428571428571 627.571428571429  " stroke-width="2.57142857142857" stroke="#797979" fill="none" />
</svg>