﻿<?xml version="1.0" encoding="utf-8"?>
<svg version="1.1" xmlns:xlink="http://www.w3.org/1999/xlink" width="276px" height="175px" xmlns="http://www.w3.org/2000/svg">
  <g transform="matrix(1 0 0 1 -543 -245 )">
    <path d="M 546 248  L 816 248  L 816 417  L 546 417  L 546 248  Z " fill-rule="nonzero" fill="#ffffff" stroke="none" fill-opacity="0" />
    <path d="M 544.5 246.5  L 817.5 246.5  L 817.5 418.5  L 544.5 418.5  L 544.5 246.5  Z " stroke-width="3" stroke-dasharray="9,3" stroke="#a30014" fill="none" stroke-opacity="0.807843137254902" stroke-dashoffset="0.5" />
  </g>
</svg>