﻿<?xml version="1.0" encoding="utf-8"?>
<svg version="1.1" xmlns:xlink="http://www.w3.org/1999/xlink" width="28px" height="26px" preserveAspectRatio="xMinYMid meet" viewBox="1030 291  28 24" xmlns="http://www.w3.org/2000/svg">
  <path d="M 1046.7 297.4  L 1041 302.5  L 1046.7 307.6  L 1052.1 302.5  L 1046.7 297.4  Z M 1130.3 307.6  L 1136 302.5  L 1130.3 297.4  L 1124.9 302.5  L 1130.3 307.6  Z " fill-rule="nonzero" fill="#ff0000" stroke="none" />
  <path d="M 1044 302.5  L 1133 302.5  " stroke-width="3" stroke="#ff0000" fill="none" />
</svg>