﻿<?xml version="1.0" encoding="utf-8"?>
<svg version="1.1" xmlns:xlink="http://www.w3.org/1999/xlink" width="10px" height="10px" xmlns="http://www.w3.org/2000/svg">
  <g transform="matrix(1 0 0 1 -157 -206 )">
    <path d="M 162 206  C 164.8 206  167 208.2  167 211  C 167 213.8  164.8 216  162 216  C 159.2 216  157 213.8  157 211  C 157 208.2  159.2 206  162 206  Z " fill-rule="nonzero" fill="#fc3966" stroke="none" />
    <path d="M 162 206.5  C 164.52 206.5  166.5 208.48  166.5 211  C 166.5 213.52  164.52 215.5  162 215.5  C 159.48 215.5  157.5 213.52  157.5 211  C 157.5 208.48  159.48 206.5  162 206.5  Z " stroke-width="1" stroke="#fc3966" fill="none" />
  </g>
</svg>