﻿<?xml version="1.0" encoding="utf-8"?>
<svg version="1.1" xmlns:xlink="http://www.w3.org/1999/xlink" width="10px" height="10px" xmlns="http://www.w3.org/2000/svg">
  <g transform="matrix(1 0 0 1 -223 -30 )">
    <path d="M 228 30  C 230.8 30  233 32.2  233 35  C 233 37.8  230.8 40  228 40  C 225.2 40  223 37.8  223 35  C 223 32.2  225.2 30  228 30  Z " fill-rule="nonzero" fill="#ffffff" stroke="none" />
    <path d="M 228 30.5  C 230.52 30.5  232.5 32.48  232.5 35  C 232.5 37.52  230.52 39.5  228 39.5  C 225.48 39.5  223.5 37.52  223.5 35  C 223.5 32.48  225.48 30.5  228 30.5  Z " stroke-width="1" stroke="#d7d7d7" fill="none" />
  </g>
</svg>