﻿<?xml version="1.0" encoding="utf-8"?>
<svg version="1.1" xmlns:xlink="http://www.w3.org/1999/xlink" width="16px" height="16px" xmlns="http://www.w3.org/2000/svg">
  <g transform="matrix(1 0 0 1 -142 -47 )">
    <path d="M 150 47  C 154.48 47  158 50.52  158 55  C 158 59.48  154.48 63  150 63  C 145.52 63  142 59.48  142 55  C 142 50.52  145.52 47  150 47  Z " fill-rule="nonzero" fill="#ffffff" stroke="none" />
    <path d="M 150 47.5  C 154.2 47.5  157.5 50.8  157.5 55  C 157.5 59.2  154.2 62.5  150 62.5  C 145.8 62.5  142.5 59.2  142.5 55  C 142.5 50.8  145.8 47.5  150 47.5  Z " stroke-width="1" stroke="#d7d7d7" fill="none" />
  </g>
</svg>