﻿<?xml version="1.0" encoding="utf-8"?>
<svg version="1.1" xmlns:xlink="http://www.w3.org/1999/xlink" width="14px" height="10px" xmlns="http://www.w3.org/2000/svg">
  <g transform="matrix(1 0 0 1 -142 -102 )">
    <path d="M 7.60211586331749 9.4731182795699  C 7.25795805989289 9.82437275985662  7.03873425360187 10  6.94444444444444 10  C 6.85015463528701 10  6.630930828996 9.82437275985662  6.28677302557139 9.4731182795699  C 5.94261522214678 9.12186379928315  5.77053632043449 8.89844683393071  5.77053632043449 8.80286738351254  C 5.77053632043449 8.64994026284349  5.91786414724297 8.52090800477897  6.21251980085992 8.41577060931899  C 6.50717545447688 8.31063321385903  6.75115033567172 8.25806451612903  6.94444444444444 8.25806451612903  C 7.13773855321716 8.25806451612903  7.38171343441201 8.31063321385903  7.67636908802896 8.41577060931899  C 7.97102474164592 8.52090800477897  8.1183525684544 8.64994026284349  8.1183525684544 8.80286738351254  C 8.1183525684544 8.89844683393071  7.9462736667421 9.12186379928315  7.60211586331749 9.4731182795699  Z M 9.51502036659878 7.51971326164875  C 9.15907633702949 7.87813620071685  8.938673908124 8.0573476702509  8.85381307988231 8.0573476702509  C 8.84438409896657 8.0573476702509  8.75009428980916 7.99761051373955  8.57094365241004 7.87813620071685  C 8.39179301501093 7.75866188769414  8.15253262427396 7.63918757467144  7.85316248019914 7.51971326164875  C 7.5537923361243 7.40023894862605  7.25088632420608 7.3405017921147  6.94444444444444 7.3405017921147  C 6.63800256468281 7.3405017921147  6.33509655276458 7.40023894862605  6.03572640868974 7.51971326164875  C 5.73635626461493 7.63918757467144  5.49827449649241 7.75866188769414  5.32148110432225 7.87813620071685  C 5.14468771215206 7.99761051373955  5.04921928038017 8.0573476702509  5.03507580900657 8.0573476702509  C 4.95021498076487 8.0573476702509  4.7298125518594 7.87813620071685  4.37386852229011 7.51971326164875  C 4.01792449272084 7.16129032258065  3.83995247793618 6.93906810035842  3.83995247793618 6.85304659498208  C 3.83995247793618 6.79091995221028  3.86352493022554 6.73596176821983  3.91066983480425 6.68817204301076  C 4.27840009051822 6.32019115890084  4.7404201553896 6.0310633213859  5.29673002941841 5.82078853046595  C 5.85303990344724 5.610513739546  6.40227804178924 5.50537634408602  6.94444444444444 5.50537634408602  C 7.48661084709964 5.50537634408602  8.03584898544165 5.610513739546  8.59215885947047 5.82078853046595  C 9.14846873349927 6.0310633213859  9.61048879837067 6.32019115890084  9.97821905408463 6.68817204301076  C 10.0253639586633 6.73596176821983  10.0489364109527 6.79091995221028  10.0489364109527 6.85304659498208  C 10.0489364109527 6.93906810035842  9.87096439616806 7.16129032258065  9.51502036659878 7.51971326164875  Z M 11.4349966055669 5.56989247311828  C 11.0814098212265 5.92831541218638  10.8645432601644 6.10752688172043  10.7843969223806 6.10752688172043  C 10.732537527344 6.10752688172043  10.6783208870785 6.0884109916368  10.6217470015841 6.05017921146954  C 9.98057629931357 5.54838709677419  9.38655050162178 5.17921146953405  8.8396696085087 4.94265232974911  C 8.29278871539563 4.70609318996415  7.66104699404087 4.58781362007168  6.94444444444444 4.58781362007168  C 6.54371275552539 4.58781362007168  6.14180244399185 4.64038231780168  5.73871350984386 4.74551971326164  C 5.33562457569585 4.85065710872162  4.98439503658444 4.97729988052569  4.68502489250962 5.12544802867384  C 4.38565474843479 5.27359617682199  4.11810741495059 5.42174432497013  3.88238289205702 5.56989247311828  C 3.64665836916346 5.71804062126643  3.46043599607755 5.84468339307049  3.32371577279928 5.94982078853047  C 3.18699554952101 6.05495818399045  3.11392094742399 6.10752688172043  3.10449196650826 6.10752688172043  C 3.02434562872445 6.10752688172043  2.80747906766237 5.92831541218638  2.45389228332202 5.56989247311828  C 2.10030549898167 5.21146953405018  1.9235121068115 4.98924731182796  1.9235121068115 4.90322580645162  C 1.9235121068115 4.84587813620071  1.94708455910086 4.79330943847073  1.99422946367957 4.74551971326164  C 2.61654220411859 4.11469534050179  3.37086067737799 3.62485065710872  4.2571848834578 3.27598566308244  C 5.1435090895376 2.92712066905615  6.03926227653315 2.75268817204301  6.94444444444444 2.75268817204301  C 7.84962661235574 2.75268817204301  8.74537979935128 2.92712066905615  9.63170400543109 3.27598566308244  C 10.5180282115109 3.62485065710872  11.2723466847703 4.11469534050179  11.8946594252093 4.74551971326164  C 11.941804329788 4.79330943847073  11.9653767820774 4.84587813620071  11.9653767820774 4.90322580645162  C 11.9653767820774 4.98924731182796  11.7885833899072 5.21146953405018  11.4349966055669 5.56989247311828  Z M 13.354972844535 3.62724014336918  C 12.9990288149657 3.98566308243727  12.7809836312891 4.16487455197133  12.7008372935053 4.16487455197133  C 12.6489778984687 4.16487455197133  12.5971185034321 4.14336917562724  12.5452591083956 4.10035842293907  C 11.7013653164366 3.35005973715652  10.825648713887 2.78494623655914  9.91810930074676 2.40501792114696  C 9.01056988760655 2.02508960573477  8.01934826883911 1.83512544802868  6.94444444444444 1.83512544802868  C 5.86954062004978 1.83512544802868  4.87831900128234 2.02508960573477  3.97077958814212 2.40501792114696  C 3.06324017500188 2.78494623655914  2.18752357245229 3.35005973715652  1.34362978049333 4.10035842293907  C 1.29177038545674 4.14336917562724  1.23991099042016 4.16487455197133  1.18805159538357 4.16487455197133  C 1.10790525759977 4.16487455197133  0.889860073923202 3.98566308243727  0.53391604435393 3.62724014336918  C 0.177972014784643 3.26881720430108  0 3.04659498207885  0 2.9605734767025  C 0 2.89844683393071  0.0235724522893577 2.84348864994026  0.070717356868073 2.79569892473119  C 0.952327072490007 1.90681003584229  2.00130119936637 1.21863799283155  3.21763973749717 0.731182795698923  C 4.43397827562796 0.243727598566312  5.67624651127706 0  6.94444444444444 0  C 8.21264237761181 0  9.45491061326092 0.243727598566312  10.6712491513917 0.731182795698923  C 11.8875876895225 1.21863799283155  12.9365618163989 1.90681003584229  13.8181715320208 2.79569892473119  C 13.8653164365995 2.84348864994026  13.8888888888889 2.89844683393071  13.8888888888889 2.9605734767025  C 13.8888888888889 3.04659498207885  13.7109168741043 3.26881720430108  13.354972844535 3.62724014336918  Z " fill-rule="nonzero" fill="#333333" stroke="none" transform="matrix(1 0 0 1 142 102 )" />
  </g>
</svg>