﻿<?xml version="1.0" encoding="utf-8"?>
<svg version="1.1" xmlns:xlink="http://www.w3.org/1999/xlink" width="28px" height="26px" preserveAspectRatio="xMinYMid meet" viewBox="694 1  28 24" xmlns="http://www.w3.org/2000/svg">
  <g transform="matrix(0 -1 1 0 695 721 )">
    <path d="M 344.7 374.4  L 339 379.5  L 344.7 384.6  L 350.1 379.5  L 344.7 374.4  Z M 1072.3 384.6  L 1078 379.5  L 1072.3 374.4  L 1066.9 379.5  L 1072.3 384.6  Z " fill-rule="nonzero" fill="#ff0000" stroke="none" transform="matrix(6.12303176911189E-17 1 -1 6.12303176911189E-17 1088 -329 )" />
    <path d="M 342 379.5  L 1075 379.5  " stroke-width="3" stroke-dasharray="9,3" stroke="#ff0000" fill="none" transform="matrix(6.12303176911189E-17 1 -1 6.12303176911189E-17 1088 -329 )" />
  </g>
</svg>