﻿<?xml version="1.0" encoding="utf-8"?>
<svg version="1.1" xmlns:xlink="http://www.w3.org/1999/xlink" width="46px" height="17px" xmlns="http://www.w3.org/2000/svg">
  <defs>
    <mask fill="white" id="clip101">
      <path d="M 0 13.6  L 0 3.4  C 0 1.49599999999999  1.97463414634145 0  4.48780487804878 0  L 28.8580567772891 0  L 41.5121951219512 0  C 44.0253658536585 0  46 1.49599999999999  46 3.4  L 46 13.6  C 46 15.504  44.0253658536585 17  41.5121951219512 17  L 4.48780487804878 17  C 1.97463414634145 17  0 15.504  0 13.6  Z " fill-rule="evenodd" />
    </mask>
  </defs>
  <g transform="matrix(1 0 0 1 -71 -3 )">
    <path d="M 0 13.6  L 0 3.4  C 0 1.49599999999999  1.97463414634145 0  4.48780487804878 0  L 28.8580567772891 0  L 41.5121951219512 0  C 44.0253658536585 0  46 1.49599999999999  46 3.4  L 46 13.6  C 46 15.504  44.0253658536585 17  41.5121951219512 17  L 4.48780487804878 17  C 1.97463414634145 17  0 15.504  0 13.6  Z " fill-rule="nonzero" fill="#e6f7ff" stroke="none" transform="matrix(1 0 0 1 71 3 )" />
    <path d="M 0 13.6  L 0 3.4  C 0 1.49599999999999  1.97463414634145 0  4.48780487804878 0  L 28.8580567772891 0  L 41.5121951219512 0  C 44.0253658536585 0  46 1.49599999999999  46 3.4  L 46 13.6  C 46 15.504  44.0253658536585 17  41.5121951219512 17  L 4.48780487804878 17  C 1.97463414634145 17  0 15.504  0 13.6  Z " stroke-width="2" stroke="#91d5ff" fill="none" transform="matrix(1 0 0 1 71 3 )" mask="url(#clip101)" />
  </g>
</svg>