﻿<?xml version="1.0" encoding="utf-8"?>
<svg version="1.1" xmlns:xlink="http://www.w3.org/1999/xlink" width="12px" height="12px" viewBox="323 243.5  12 12" xmlns="http://www.w3.org/2000/svg">
  <path d="M 329 243.5  C 332.36 243.5  335 246.14  335 249.5  C 335 252.86  332.36 255.5  329 255.5  C 325.64 255.5  323 252.86  323 249.5  C 323 246.14  325.64 243.5  329 243.5  Z " fill-rule="nonzero" fill="#f0f0f0" stroke="none" />
  <path d="M 329 244  C 332.08 244  334.5 246.42  334.5 249.5  C 334.5 252.58  332.08 255  329 255  C 325.92 255  323.5 252.58  323.5 249.5  C 323.5 246.42  325.92 244  329 244  Z " stroke-width="1" stroke="#797979" fill="none" />
  <path d="M 329 252.5  C 327.32 252.5  326 251.18  326 249.5  C 326 247.82  327.32 246.5  329 246.5  C 330.68 246.5  332 247.82  332 249.5  C 332 251.18  330.68 252.5  329 252.5  " fill-rule="nonzero" fill="#797979" stroke="none" />
</svg>