﻿<?xml version="1.0" encoding="utf-8"?>
<svg version="1.1" xmlns:xlink="http://www.w3.org/1999/xlink" width="12px" height="12px" viewBox="323 363.5  12 12" xmlns="http://www.w3.org/2000/svg">
  <path d="M 329 363.5  C 332.36 363.5  335 366.14  335 369.5  C 335 372.86  332.36 375.5  329 375.5  C 325.64 375.5  323 372.86  323 369.5  C 323 366.14  325.64 363.5  329 363.5  Z " fill-rule="nonzero" fill="#ffffff" stroke="none" />
  <path d="M 329 364  C 332.08 364  334.5 366.42  334.5 369.5  C 334.5 372.58  332.08 375  329 375  C 325.92 375  323.5 372.58  323.5 369.5  C 323.5 366.42  325.92 364  329 364  Z " stroke-width="1" stroke="#797979" fill="none" />
  <path d="M 329 372.5  C 327.32 372.5  326 371.18  326 369.5  C 326 367.82  327.32 366.5  329 366.5  C 330.68 366.5  332 367.82  332 369.5  C 332 371.18  330.68 372.5  329 372.5  " fill-rule="nonzero" fill="#797979" stroke="none" />
</svg>