﻿<?xml version="1.0" encoding="utf-8"?>
<svg version="1.1" xmlns:xlink="http://www.w3.org/1999/xlink" width="12px" height="12px" viewBox="72 470  12 12" xmlns="http://www.w3.org/2000/svg">
  <path d="M 72.5 470.5  L 83.5 470.5  L 83.5 481.5  L 72.5 481.5  L 72.5 470.5  Z " fill-rule="nonzero" fill="#ffffff" stroke="none" />
  <path d="M 72.5 470.5  L 83.5 470.5  L 83.5 481.5  L 72.5 481.5  L 72.5 470.5  Z " stroke-width="1" stroke="#797979" fill="none" />
  <path d="M 74.5714285714286 476  L 77.1428571428571 478.571428571429  " stroke-width="2.57142857142857" stroke="#797979" fill="none" />
  <path d="M 77.1428571428571 478.571428571429  L 81.4285714285714 472.571428571429  " stroke-width="2.57142857142857" stroke="#797979" fill="none" />
</svg>