﻿<?xml version="1.0" encoding="utf-8"?>
<svg version="1.1" xmlns:xlink="http://www.w3.org/1999/xlink" width="12px" height="12px" viewBox="925 339  12 12" xmlns="http://www.w3.org/2000/svg">
  <path d="M 925.5 339.5  L 936.5 339.5  L 936.5 350.5  L 925.5 350.5  L 925.5 339.5  Z " fill-rule="nonzero" fill="#ffffff" stroke="none" />
  <path d="M 925.5 339.5  L 936.5 339.5  L 936.5 350.5  L 925.5 350.5  L 925.5 339.5  Z " stroke-width="1" stroke="#797979" fill="none" />
  <path d="M 927.571428571429 345  L 930.142857142857 347.571428571429  " stroke-width="2.57142857142857" stroke="#797979" fill="none" />
  <path d="M 930.142857142857 347.571428571429  L 934.428571428571 341.571428571429  " stroke-width="2.57142857142857" stroke="#797979" fill="none" />
</svg>