﻿<?xml version="1.0" encoding="utf-8"?>
<svg version="1.1" xmlns:xlink="http://www.w3.org/1999/xlink" width="11px" height="16px" xmlns="http://www.w3.org/2000/svg">
  <g transform="matrix(1 0 0 1 -217 -410 )">
    <path d="M 8.1103515625 8.46753246753246  L 0.4833984375 15.8441558441559  C 0.347330729166657 15.9757575757576  0.232747395833343 16.0207792207792  0.1396484375 15.9792207792208  C 0.0465494791666572 15.9376623376623  0 15.8268398268398  0 15.6467532467532  L 0 0.353246753246765  C 0 0.17316017316017  0.0465494791666572 0.0623376623376544  0.1396484375 0.0207792207792181  C 0.232747395833343 -0.0207792207792181  0.347330729166657 0.0242424242424022  0.4833984375 0.155844155844136  L 8.1103515625 7.53246753246754  C 8.16764322916663 7.58787878787876  8.21419270833337 7.65367965367966  8.25 7.72987012987011  L 8.25 0.685714285714312  C 8.25 0.505627705627717  8.31803385416663 0.349783549783524  8.4541015625 0.218181818181847  C 8.59016927083337 0.0865800865800566  8.75130208333337 0.0207792207792181  8.9375 0.0207792207792181  L 10.3125 0.0207792207792181  C 10.4986979166666 0.0207792207792181  10.6598307291666 0.0865800865800566  10.7958984375 0.218181818181847  C 10.9319661458334 0.349783549783524  11 0.505627705627717  11 0.685714285714312  L 11 15.3142857142857  C 11 15.4943722943723  10.9319661458334 15.6502164502165  10.7958984375 15.7818181818182  C 10.6598307291666 15.9134199134199  10.4986979166666 15.9792207792208  10.3125 15.9792207792208  L 8.9375 15.9792207792208  C 8.75130208333337 15.9792207792208  8.59016927083337 15.9134199134199  8.4541015625 15.7818181818182  C 8.31803385416663 15.6502164502165  8.25 15.4943722943723  8.25 15.3142857142857  L 8.25 8.27012987012989  C 8.21419270833337 8.33939393939397  8.16764322916663 8.40519480519481  8.1103515625 8.46753246753246  Z " fill-rule="nonzero" fill="#0099ff" stroke="none" transform="matrix(1 0 0 1 217 410 )" />
  </g>
</svg>