﻿<?xml version="1.0" encoding="utf-8"?>
<svg version="1.1" xmlns:xlink="http://www.w3.org/1999/xlink" width="12px" height="12px" viewBox="32 291  12 12" xmlns="http://www.w3.org/2000/svg">
  <path d="M 32.5 291.5  L 43.5 291.5  L 43.5 302.5  L 32.5 302.5  L 32.5 291.5  Z " fill-rule="nonzero" fill="#ffffff" stroke="none" />
  <path d="M 32.5 291.5  L 43.5 291.5  L 43.5 302.5  L 32.5 302.5  L 32.5 291.5  Z " stroke-width="1" stroke="#797979" fill="none" />
  <path d="M 34.5714285714286 297  L 37.1428571428571 299.571428571429  L 41.4285714285714 293.571428571429  " stroke-width="2.57142857142857" stroke="#797979" fill="none" />
</svg>