﻿<?xml version="1.0" encoding="utf-8"?>
<svg version="1.1" xmlns:xlink="http://www.w3.org/1999/xlink" width="12px" height="12px" viewBox="587 286.5  12 12" xmlns="http://www.w3.org/2000/svg">
  <path d="M 587.5 287  L 598.5 287  L 598.5 298  L 587.5 298  L 587.5 287  Z " fill-rule="nonzero" fill="#ffffff" stroke="none" />
  <path d="M 587.5 287  L 598.5 287  L 598.5 298  L 587.5 298  L 587.5 287  Z " stroke-width="1" stroke="#797979" fill="none" />
</svg>