﻿<?xml version="1.0" encoding="utf-8"?>
<svg version="1.1" xmlns:xlink="http://www.w3.org/1999/xlink" width="12px" height="12px" viewBox="114 403  12 12" xmlns="http://www.w3.org/2000/svg">
  <path d="M 114.5 403.5  L 125.5 403.5  L 125.5 414.5  L 114.5 414.5  L 114.5 403.5  Z " fill-rule="nonzero" fill="#ffffff" stroke="none" />
  <path d="M 114.5 403.5  L 125.5 403.5  L 125.5 414.5  L 114.5 414.5  L 114.5 403.5  Z " stroke-width="1" stroke="#797979" fill="none" />
  <path d="M 116.571428571429 409  L 119.142857142857 411.571428571429  L 123.428571428571 405.571428571429  " stroke-width="2.57142857142857" stroke="#797979" fill="none" />
</svg>