﻿<?xml version="1.0" encoding="utf-8"?>
<svg version="1.1" xmlns:xlink="http://www.w3.org/1999/xlink" width="12px" height="12px" viewBox="34 396  12 12" xmlns="http://www.w3.org/2000/svg">
  <path d="M 34.5 396.5  L 45.5 396.5  L 45.5 407.5  L 34.5 407.5  L 34.5 396.5  Z " fill-rule="nonzero" fill="#ffffff" stroke="none" />
  <path d="M 34.5 396.5  L 45.5 396.5  L 45.5 407.5  L 34.5 407.5  L 34.5 396.5  Z " stroke-width="1" stroke="#797979" fill="none" />
  <path d="M 36.5714285714286 402  L 39.1428571428571 404.571428571429  L 43.4285714285714 398.571428571429  " stroke-width="2.57142857142857" stroke="#797979" fill="none" />
</svg>