﻿<?xml version="1.0" encoding="utf-8"?>
<svg version="1.1" xmlns:xlink="http://www.w3.org/1999/xlink" width="12px" height="12px" viewBox="587 314.5  12 12" xmlns="http://www.w3.org/2000/svg">
  <path d="M 587.5 315  L 598.5 315  L 598.5 326  L 587.5 326  L 587.5 315  Z " fill-rule="nonzero" fill="#ffffff" stroke="none" />
  <path d="M 587.5 315  L 598.5 315  L 598.5 326  L 587.5 326  L 587.5 315  Z " stroke-width="1" stroke="#797979" fill="none" />
  <path d="M 589.571428571429 320.5  L 592.142857142857 323.071428571429  L 596.428571428571 317.071428571429  " stroke-width="2.57142857142857" stroke="#797979" fill="none" />
</svg>