﻿<?xml version="1.0" encoding="utf-8"?>
<svg version="1.1" xmlns:xlink="http://www.w3.org/1999/xlink" width="12px" height="12px" viewBox="9 284  12 12" xmlns="http://www.w3.org/2000/svg">
  <path d="M 9.5 284.5  L 20.5 284.5  L 20.5 295.5  L 9.5 295.5  L 9.5 284.5  Z " fill-rule="nonzero" fill="#ffffff" stroke="none" />
  <path d="M 9.5 284.5  L 20.5 284.5  L 20.5 295.5  L 9.5 295.5  L 9.5 284.5  Z " stroke-width="1" stroke="#797979" fill="none" />
  <path d="M 11.5714285714286 290  L 14.1428571428571 292.571428571429  " stroke-width="2.57142857142857" stroke="#797979" fill="none" />
  <path d="M 14.1428571428571 292.571428571429  L 18.4285714285714 286.571428571429  " stroke-width="2.57142857142857" stroke="#797979" fill="none" />
</svg>