﻿<?xml version="1.0" encoding="utf-8"?>
<svg version="1.1" xmlns:xlink="http://www.w3.org/1999/xlink" width="12px" height="12px" viewBox="19 263  12 12" xmlns="http://www.w3.org/2000/svg">
  <path d="M 25 263  C 28.36 263  31 265.64  31 269  C 31 272.36  28.36 275  25 275  C 21.64 275  19 272.36  19 269  C 19 265.64  21.64 263  25 263  Z " fill-rule="nonzero" fill="#f0f0f0" stroke="none" />
  <path d="M 25 263.5  C 28.08 263.5  30.5 265.92  30.5 269  C 30.5 272.08  28.08 274.5  25 274.5  C 21.92 274.5  19.5 272.08  19.5 269  C 19.5 265.92  21.92 263.5  25 263.5  Z " stroke-width="1" stroke="#797979" fill="none" />
</svg>