﻿<?xml version="1.0" encoding="utf-8"?>
<svg version="1.1" xmlns:xlink="http://www.w3.org/1999/xlink" width="12px" height="12px" viewBox="111 586  12 12" xmlns="http://www.w3.org/2000/svg">
  <path d="M 111.5 586.5  L 122.5 586.5  L 122.5 597.5  L 111.5 597.5  L 111.5 586.5  Z " fill-rule="nonzero" fill="#ffffff" stroke="none" />
  <path d="M 111.5 586.5  L 122.5 586.5  L 122.5 597.5  L 111.5 597.5  L 111.5 586.5  Z " stroke-width="1" stroke="#797979" fill="none" />
  <path d="M 113.571428571429 592  L 116.142857142857 594.571428571429  L 120.428571428571 588.571428571429  " stroke-width="2.57142857142857" stroke="#797979" fill="none" />
</svg>