﻿<?xml version="1.0" encoding="utf-8"?>
<svg version="1.1" xmlns:xlink="http://www.w3.org/1999/xlink" width="12px" height="12px" viewBox="585 480  12 12" xmlns="http://www.w3.org/2000/svg">
  <path d="M 585.5 480.5  L 596.5 480.5  L 596.5 491.5  L 585.5 491.5  L 585.5 480.5  Z " fill-rule="nonzero" fill="#ffffff" stroke="none" />
  <path d="M 585.5 480.5  L 596.5 480.5  L 596.5 491.5  L 585.5 491.5  L 585.5 480.5  Z " stroke-width="1" stroke="#797979" fill="none" />
  <path d="M 587.571428571429 486  L 590.142857142857 488.571428571429  L 594.428571428571 482.571428571429  " stroke-width="2.57142857142857" stroke="#797979" fill="none" />
</svg>