﻿<?xml version="1.0" encoding="utf-8"?>
<svg version="1.1" xmlns:xlink="http://www.w3.org/1999/xlink" width="12px" height="12px" viewBox="9 127  12 12" xmlns="http://www.w3.org/2000/svg">
  <path d="M 15 127  C 18.36 127  21 129.64  21 133  C 21 136.36  18.36 139  15 139  C 11.64 139  9 136.36  9 133  C 9 129.64  11.64 127  15 127  Z " fill-rule="nonzero" fill="#ffffff" stroke="none" />
  <path d="M 15 127.5  C 18.08 127.5  20.5 129.92  20.5 133  C 20.5 136.08  18.08 138.5  15 138.5  C 11.92 138.5  9.5 136.08  9.5 133  C 9.5 129.92  11.92 127.5  15 127.5  Z " stroke-width="1" stroke="#797979" fill="none" />
  <path d="M 15 136  C 13.32 136  12 134.68  12 133  C 12 131.32  13.32 130  15 130  C 16.68 130  18 131.32  18 133  C 18 134.68  16.68 136  15 136  " fill-rule="nonzero" fill="#797979" stroke="none" />
</svg>