﻿<?xml version="1.0" encoding="utf-8"?>
<svg version="1.1" xmlns:xlink="http://www.w3.org/1999/xlink" width="12px" height="12px" viewBox="17 223  12 12" xmlns="http://www.w3.org/2000/svg">
  <path d="M 23 223  C 26.36 223  29 225.64  29 229  C 29 232.36  26.36 235  23 235  C 19.64 235  17 232.36  17 229  C 17 225.64  19.64 223  23 223  Z " fill-rule="nonzero" fill="#ffffff" stroke="none" />
  <path d="M 23 223.5  C 26.08 223.5  28.5 225.92  28.5 229  C 28.5 232.08  26.08 234.5  23 234.5  C 19.92 234.5  17.5 232.08  17.5 229  C 17.5 225.92  19.92 223.5  23 223.5  Z " stroke-width="1" stroke="#797979" fill="none" />
</svg>