﻿<?xml version="1.0" encoding="utf-8"?>
<svg version="1.1" xmlns:xlink="http://www.w3.org/1999/xlink" width="12px" height="12px" viewBox="17 282  12 12" xmlns="http://www.w3.org/2000/svg">
  <path d="M 23 282  C 26.36 282  29 284.64  29 288  C 29 291.36  26.36 294  23 294  C 19.64 294  17 291.36  17 288  C 17 284.64  19.64 282  23 282  Z " fill-rule="nonzero" fill="#f0f0f0" stroke="none" />
  <path d="M 23 282.5  C 26.08 282.5  28.5 284.92  28.5 288  C 28.5 291.08  26.08 293.5  23 293.5  C 19.92 293.5  17.5 291.08  17.5 288  C 17.5 284.92  19.92 282.5  23 282.5  Z " stroke-width="1" stroke="#797979" fill="none" />
</svg>