﻿<?xml version="1.0" encoding="utf-8"?>
<svg version="1.1" xmlns:xlink="http://www.w3.org/1999/xlink" width="12px" height="12px" viewBox="17 343  12 12" xmlns="http://www.w3.org/2000/svg">
  <path d="M 23 343  C 26.36 343  29 345.64  29 349  C 29 352.36  26.36 355  23 355  C 19.64 355  17 352.36  17 349  C 17 345.64  19.64 343  23 343  Z " fill-rule="nonzero" fill="#f0f0f0" stroke="none" />
  <path d="M 23 343.5  C 26.08 343.5  28.5 345.92  28.5 349  C 28.5 352.08  26.08 354.5  23 354.5  C 19.92 354.5  17.5 352.08  17.5 349  C 17.5 345.92  19.92 343.5  23 343.5  Z " stroke-width="1" stroke="#797979" fill="none" />
</svg>