﻿<?xml version="1.0" encoding="utf-8"?>
<svg version="1.1" xmlns:xlink="http://www.w3.org/1999/xlink" width="12px" height="12px" viewBox="16 373  12 12" xmlns="http://www.w3.org/2000/svg">
  <path d="M 22 373  C 25.36 373  28 375.64  28 379  C 28 382.36  25.36 385  22 385  C 18.64 385  16 382.36  16 379  C 16 375.64  18.64 373  22 373  Z " fill-rule="nonzero" fill="#ffffff" stroke="none" />
  <path d="M 22 373.5  C 25.08 373.5  27.5 375.92  27.5 379  C 27.5 382.08  25.08 384.5  22 384.5  C 18.92 384.5  16.5 382.08  16.5 379  C 16.5 375.92  18.92 373.5  22 373.5  Z " stroke-width="1" stroke="#797979" fill="none" />
</svg>