﻿<?xml version="1.0" encoding="utf-8"?>
<svg version="1.1" xmlns:xlink="http://www.w3.org/1999/xlink" width="178.5px" height="31px" xmlns="http://www.w3.org/2000/svg">
  <g transform="matrix(1 0 0 1 -259.5 -167 )">
    <path d="M 413 194  L 425 182.5  L 413 171  L 413 194  Z " fill-rule="nonzero" fill="#d9001b" stroke="none" />
    <path d="M 262 182.5  L 416 182.5  " stroke-width="5" stroke="#d9001b" fill="none" />
  </g>
</svg>