﻿<?xml version="1.0" encoding="utf-8"?>
<svg version="1.1" xmlns:xlink="http://www.w3.org/1999/xlink" width="102.5px" height="31px" xmlns="http://www.w3.org/2000/svg">
  <g transform="matrix(1 0 0 1 -850.5 -1705 )">
    <path d="M 928 1732  L 940 1720.5  L 928 1709  L 928 1732  Z " fill-rule="nonzero" fill="#d9001b" stroke="none" />
    <path d="M 853 1720.5  L 931 1720.5  " stroke-width="5" stroke="#d9001b" fill="none" />
  </g>
</svg>