﻿<?xml version="1.0" encoding="utf-8"?>
<svg version="1.1" xmlns:xlink="http://www.w3.org/1999/xlink" width="114px" height="60px" xmlns="http://www.w3.org/2000/svg">
  <g transform="matrix(1 0 0 1 -210 -30 )">
    <path d="M 210.5 39.1753323276073  L 219.175332327607 30.5  L 314.824667672393 30.5  L 323.5 39.1753323276073  L 323.5 80.8246676723927  L 314.824667672393 89.5  L 219.175332327607 89.5  L 210.5 80.8246676723927  L 210.5 39.1753323276073  Z " fill-rule="nonzero" fill="#ffffff" stroke="none" />
    <path d="M 210.5 39.1753323276073  L 219.175332327607 30.5  L 314.824667672393 30.5  L 323.5 39.1753323276073  L 323.5 80.8246676723927  L 314.824667672393 89.5  L 219.175332327607 89.5  L 210.5 80.8246676723927  L 210.5 39.1753323276073  Z " stroke-width="1" stroke="#cccccc" fill="none" />
  </g>
</svg>