﻿<?xml version="1.0" encoding="utf-8"?>
<svg version="1.1" xmlns:xlink="http://www.w3.org/1999/xlink" width="34px" height="34px" preserveAspectRatio="xMinYMid meet" viewBox="336 487  34 32" xmlns="http://www.w3.org/2000/svg">
  <defs>
    <mask fill="white" id="clip538">
      <path d="M 465 490  L 537 490  L 537 515  L 465 515  Z M 334 486  L 667 486  L 667 520  L 334 520  Z " fill-rule="evenodd" />
    </mask>
  </defs>
  <path d="M 465 503  L 353 503  M 537 503  L 648 503  " stroke-width="2" stroke="#999999" fill="none" />
  <path d="M 360.4 495  L 351 503  L 360.4 511  L 356.8 503  L 360.4 495  Z M 640.6 511  L 650 503  L 640.6 495  L 644.2 503  L 640.6 511  Z " fill-rule="nonzero" fill="#999999" stroke="none" mask="url(#clip538)" />
</svg>