﻿<?xml version="1.0" encoding="utf-8"?>
<svg version="1.1" xmlns:xlink="http://www.w3.org/1999/xlink" width="16px" height="16px" xmlns="http://www.w3.org/2000/svg">
  <g transform="matrix(1 0 0 1 -687 -83 )">
    <path d="M 695 83  C 699.48 83  703 86.52  703 91  C 703 95.48  699.48 99  695 99  C 690.52 99  687 95.48  687 91  C 687 86.52  690.52 83  695 83  Z " fill-rule="nonzero" fill="#ffffff" stroke="none" />
    <path d="M 695 83.5  C 699.2 83.5  702.5 86.8  702.5 91  C 702.5 95.2  699.2 98.5  695 98.5  C 690.8 98.5  687.5 95.2  687.5 91  C 687.5 86.8  690.8 83.5  695 83.5  Z " stroke-width="1" stroke="#d7d7d7" fill="none" />
  </g>
</svg>