﻿<?xml version="1.0" encoding="utf-8"?>
<svg version="1.1" xmlns:xlink="http://www.w3.org/1999/xlink" width="6px" height="6px" preserveAspectRatio="xMinYMid meet" viewBox="402 777  6 4" xmlns="http://www.w3.org/2000/svg">
  <path d="M 557 789.2  L 567 779  L 557 768.8  L 557 789.2  Z " fill-rule="nonzero" fill="#0000ff" stroke="none" />
  <path d="M 405 779  L 559 779  " stroke-width="4" stroke="#0000ff" fill="none" />
</svg>