﻿<?xml version="1.0" encoding="utf-8"?>
<svg version="1.1" xmlns:xlink="http://www.w3.org/1999/xlink" width="12px" height="12px" viewBox="128 74  12 12" xmlns="http://www.w3.org/2000/svg">
  <path d="M 128.5 74.5  L 139.5 74.5  L 139.5 85.5  L 128.5 85.5  L 128.5 74.5  Z " fill-rule="nonzero" fill="#f0f0f0" stroke="none" />
  <path d="M 128.5 74.5  L 139.5 74.5  L 139.5 85.5  L 128.5 85.5  L 128.5 74.5  Z " stroke-width="1" stroke="#797979" fill="none" />
  <path d="M 130.571428571429 80  L 133.142857142857 82.5714285714286  L 137.428571428571 76.5714285714286  " stroke-width="2.57142857142857" stroke="#797979" fill="none" />
</svg>