﻿<?xml version="1.0" encoding="utf-8"?>
<svg version="1.1" xmlns:xlink="http://www.w3.org/1999/xlink" width="255px" height="44px" xmlns="http://www.w3.org/2000/svg">
  <defs>
    <filter x="5px" y="185px" width="255px" height="44px" filterUnits="userSpaceOnUse" id="filter453">
      <feOffset dx="0" dy="0" in="SourceAlpha" result="shadowOffsetInner" />
      <feGaussianBlur stdDeviation="2.5" in="shadowOffsetInner" result="shadowGaussian" />
      <feComposite in2="shadowGaussian" operator="atop" in="SourceAlpha" result="shadowComposite" />
      <feColorMatrix type="matrix" values="0 0 0 0 0  0 0 0 0 0  0 0 0 0 0  0 0 0 0.349019607843137 0  " in="shadowComposite" />
    </filter>
    <g id="widget454">
      <path d="M 10 190  L 255 190  L 255 224  L 10 224  L 10 190  Z " fill-rule="nonzero" fill="#ffffff" stroke="none" fill-opacity="0" />
    </g>
  </defs>
  <g transform="matrix(1 0 0 1 -5 -185 )">
    <use xlink:href="#widget454" filter="url(#filter453)" />
    <use xlink:href="#widget454" />
  </g>
</svg>