﻿<?xml version="1.0" encoding="utf-8"?>
<svg version="1.1" xmlns:xlink="http://www.w3.org/1999/xlink" width="39px" height="27px" xmlns="http://www.w3.org/2000/svg">
  <defs>
    <filter x="21px" y="409px" width="39px" height="27px" filterUnits="userSpaceOnUse" id="filter190">
      <feOffset dx="0" dy="0" in="SourceAlpha" result="shadowOffsetInner" />
      <feGaussianBlur stdDeviation="2.5" in="shadowOffsetInner" result="shadowGaussian" />
      <feComposite in2="shadowGaussian" operator="atop" in="SourceAlpha" result="shadowComposite" />
      <feColorMatrix type="matrix" values="0 0 0 0 0  0 0 0 0 0  0 0 0 0 0  0 0 0 0.349019607843137 0  " in="shadowComposite" />
    </filter>
    <g id="widget191">
      <path d="M 26 414  L 55 414  L 55 431  L 26 431  L 26 414  Z " fill-rule="nonzero" fill="#ffffff" stroke="none" fill-opacity="0" />
    </g>
  </defs>
  <g transform="matrix(1 0 0 1 -21 -409 )">
    <use xlink:href="#widget191" filter="url(#filter190)" />
    <use xlink:href="#widget191" />
  </g>
</svg>