﻿<?xml version="1.0" encoding="utf-8"?>
<svg version="1.1" xmlns:xlink="http://www.w3.org/1999/xlink" width="285px" height="2px" xmlns="http://www.w3.org/2000/svg">
  <g transform="matrix(1 0 0 1 -26 -67 )">
    <path d="M 26 67.5  L 310 67.5  " stroke-width="1" stroke="#e9e9e9" fill="none" />
  </g>
</svg>