﻿<?xml version="1.0" encoding="utf-8"?>
<svg version="1.1" xmlns:xlink="http://www.w3.org/1999/xlink" width="12px" height="12px" viewBox="294 370  12 12" xmlns="http://www.w3.org/2000/svg">
  <path d="M 300 370  C 303.36 370  306 372.64  306 376  C 306 379.36  303.36 382  300 382  C 296.64 382  294 379.36  294 376  C 294 372.64  296.64 370  300 370  Z " fill-rule="nonzero" fill="#f0f0f0" stroke="none" />
  <path d="M 300 370.5  C 303.08 370.5  305.5 372.92  305.5 376  C 305.5 379.08  303.08 381.5  300 381.5  C 296.92 381.5  294.5 379.08  294.5 376  C 294.5 372.92  296.92 370.5  300 370.5  Z " stroke-width="1" stroke="#797979" fill="none" />
</svg>