﻿<?xml version="1.0" encoding="utf-8"?>
<svg version="1.1" xmlns:xlink="http://www.w3.org/1999/xlink" width="12px" height="12px" viewBox="294 341  12 12" xmlns="http://www.w3.org/2000/svg">
  <path d="M 300 341  C 303.36 341  306 343.64  306 347  C 306 350.36  303.36 353  300 353  C 296.64 353  294 350.36  294 347  C 294 343.64  296.64 341  300 341  Z " fill-rule="nonzero" fill="#f0f0f0" stroke="none" />
  <path d="M 300 341.5  C 303.08 341.5  305.5 343.92  305.5 347  C 305.5 350.08  303.08 352.5  300 352.5  C 296.92 352.5  294.5 350.08  294.5 347  C 294.5 343.92  296.92 341.5  300 341.5  Z " stroke-width="1" stroke="#797979" fill="none" />
</svg>