﻿<?xml version="1.0" encoding="utf-8"?>
<svg version="1.1" xmlns:xlink="http://www.w3.org/1999/xlink" width="12px" height="12px" viewBox="17 253  12 12" xmlns="http://www.w3.org/2000/svg">
  <path d="M 23 253  C 26.36 253  29 255.64  29 259  C 29 262.36  26.36 265  23 265  C 19.64 265  17 262.36  17 259  C 17 255.64  19.64 253  23 253  Z " fill-rule="nonzero" fill="#f0f0f0" stroke="none" />
  <path d="M 23 253.5  C 26.08 253.5  28.5 255.92  28.5 259  C 28.5 262.08  26.08 264.5  23 264.5  C 19.92 264.5  17.5 262.08  17.5 259  C 17.5 255.92  19.92 253.5  23 253.5  Z " stroke-width="1" stroke="#797979" fill="none" />
</svg>