﻿<?xml version="1.0" encoding="utf-8"?>
<svg version="1.1" xmlns:xlink="http://www.w3.org/1999/xlink" width="225px" height="30px" xmlns="http://www.w3.org/2000/svg">
  <defs>
    <filter x="46px" y="348px" width="225px" height="30px" filterUnits="userSpaceOnUse" id="filter296">
      <feOffset dx="0" dy="0" in="SourceAlpha" result="shadowOffsetInner" />
      <feGaussianBlur stdDeviation="2.5" in="shadowOffsetInner" result="shadowGaussian" />
      <feComposite in2="shadowGaussian" operator="atop" in="SourceAlpha" result="shadowComposite" />
      <feColorMatrix type="matrix" values="0 0 0 0 0  0 0 0 0 0  0 0 0 0 0  0 0 0 0.349019607843137 0  " in="shadowComposite" />
    </filter>
    <g id="widget297">
      <path d="M 51 353  L 266 353  L 266 373  L 51 373  L 51 353  Z " fill-rule="nonzero" fill="#ffffff" stroke="none" fill-opacity="0" />
    </g>
  </defs>
  <g transform="matrix(1 0 0 1 -46 -348 )">
    <use xlink:href="#widget297" filter="url(#filter296)" />
    <use xlink:href="#widget297" />
  </g>
</svg>