﻿<?xml version="1.0" encoding="utf-8"?>
<svg version="1.1" xmlns:xlink="http://www.w3.org/1999/xlink" width="12px" height="12px" viewBox="34 144  12 12" xmlns="http://www.w3.org/2000/svg">
  <path d="M 40 144  C 43.36 144  46 146.64  46 150  C 46 153.36  43.36 156  40 156  C 36.64 156  34 153.36  34 150  C 34 146.64  36.64 144  40 144  Z " fill-rule="nonzero" fill="#f0f0f0" stroke="none" />
  <path d="M 40 144.5  C 43.08 144.5  45.5 146.92  45.5 150  C 45.5 153.08  43.08 155.5  40 155.5  C 36.92 155.5  34.5 153.08  34.5 150  C 34.5 146.92  36.92 144.5  40 144.5  Z " stroke-width="1" stroke="#797979" fill="none" />
  <path d="M 40 153  C 38.32 153  37 151.68  37 150  C 37 148.32  38.32 147  40 147  C 41.68 147  43 148.32  43 150  C 43 151.68  41.68 153  40 153  " fill-rule="nonzero" fill="#797979" stroke="none" />
</svg>