﻿<?xml version="1.0" encoding="utf-8"?>
<svg version="1.1" xmlns:xlink="http://www.w3.org/1999/xlink" width="12px" height="12px" viewBox="296 304  12 12" xmlns="http://www.w3.org/2000/svg">
  <path d="M 296.5 304.5  L 307.5 304.5  L 307.5 315.5  L 296.5 315.5  L 296.5 304.5  Z " fill-rule="nonzero" fill="#f0f0f0" stroke="none" />
  <path d="M 296.5 304.5  L 307.5 304.5  L 307.5 315.5  L 296.5 315.5  L 296.5 304.5  Z " stroke-width="1" stroke="#797979" fill="none" />
  <path d="M 298.571428571429 310  L 301.142857142857 312.571428571429  " stroke-width="2.57142857142857" stroke="#797979" fill="none" />
  <path d="M 301.142857142857 312.571428571429  L 305.428571428571 306.571428571429  " stroke-width="2.57142857142857" stroke="#797979" fill="none" />
</svg>