﻿<?xml version="1.0" encoding="utf-8"?>
<svg version="1.1" xmlns:xlink="http://www.w3.org/1999/xlink" width="126px" height="25px" xmlns="http://www.w3.org/2000/svg">
  <g transform="matrix(1 0 0 1 -355 -505 )">
    <path d="M 371.7 512.4  L 366 517.5  L 371.7 522.6  L 377.1 517.5  L 371.7 512.4  Z M 464.3 522.6  L 470 517.5  L 464.3 512.4  L 458.9 517.5  L 464.3 522.6  Z " fill-rule="nonzero" fill="#ff0000" stroke="none" />
    <path d="M 369 517.5  L 467 517.5  " stroke-width="3" stroke="#ff0000" fill="none" />
  </g>
</svg>