﻿<?xml version="1.0" encoding="utf-8"?>
<svg version="1.1" xmlns:xlink="http://www.w3.org/1999/xlink" width="16px" height="8px" xmlns="http://www.w3.org/2000/svg">
  <g transform="matrix(1 0 0 1 -548 -78 )">
    <path d="M 548 78  L 556 86  L 564 78  L 548 78  Z " fill-rule="nonzero" fill="#bcbcbc" stroke="none" />
  </g>
</svg>