﻿<?xml version="1.0" encoding="utf-8"?>
<svg version="1.1" xmlns:xlink="http://www.w3.org/1999/xlink" width="68px" height="24px" xmlns="http://www.w3.org/2000/svg">
  <defs>
    <filter x="21px" y="124px" width="68px" height="24px" filterUnits="userSpaceOnUse" id="filter286">
      <feOffset dx="0" dy="0" in="SourceAlpha" result="shadowOffsetInner" />
      <feGaussianBlur stdDeviation="2.5" in="shadowOffsetInner" result="shadowGaussian" />
      <feComposite in2="shadowGaussian" operator="atop" in="SourceAlpha" result="shadowComposite" />
      <feColorMatrix type="matrix" values="0 0 0 0 0  0 0 0 0 0  0 0 0 0 0  0 0 0 0.349019607843137 0  " in="shadowComposite" />
    </filter>
    <g id="widget287">
      <path d="M 26 129  L 84 129  L 84 143  L 26 143  L 26 129  Z " fill-rule="nonzero" fill="#ffffff" stroke="none" fill-opacity="0" />
    </g>
  </defs>
  <g transform="matrix(1 0 0 1 -21 -124 )">
    <use xlink:href="#widget287" filter="url(#filter286)" />
    <use xlink:href="#widget287" />
  </g>
</svg>