﻿<?xml version="1.0" encoding="utf-8"?>
<svg version="1.1" xmlns:xlink="http://www.w3.org/1999/xlink" width="12px" height="12px" viewBox="26 234  12 12" xmlns="http://www.w3.org/2000/svg">
  <path d="M 32 234  C 35.36 234  38 236.64  38 240  C 38 243.36  35.36 246  32 246  C 28.64 246  26 243.36  26 240  C 26 236.64  28.64 234  32 234  Z " fill-rule="nonzero" fill="#f0f0f0" stroke="none" />
  <path d="M 32 234.5  C 35.08 234.5  37.5 236.92  37.5 240  C 37.5 243.08  35.08 245.5  32 245.5  C 28.92 245.5  26.5 243.08  26.5 240  C 26.5 236.92  28.92 234.5  32 234.5  Z " stroke-width="1" stroke="#797979" fill="none" />
</svg>