﻿<?xml version="1.0" encoding="utf-8"?>
<svg version="1.1" xmlns:xlink="http://www.w3.org/1999/xlink" width="28px" height="28px" preserveAspectRatio="xMinYMid meet" viewBox="336 1  28 26" xmlns="http://www.w3.org/2000/svg">
  <g transform="matrix(0 -1 1 0 336 364 )">
    <path d="M 33.2 328.9  L 27.5 334  L 33.2 339.1  L 38.6 334  L 33.2 328.9  Z M 667.8 339.1  L 673.5 334  L 667.8 328.9  L 662.4 334  L 667.8 339.1  Z " fill-rule="nonzero" fill="#ff0000" stroke="none" transform="matrix(6.12303176911189E-17 1 -1 6.12303176911189E-17 684.5 -17.5 )" />
    <path d="M 30.5 334  L 670.5 334  " stroke-width="3" stroke-dasharray="9,3" stroke="#ff0000" fill="none" transform="matrix(6.12303176911189E-17 1 -1 6.12303176911189E-17 684.5 -17.5 )" />
  </g>
</svg>