﻿<?xml version="1.0" encoding="utf-8"?>
<svg version="1.1" xmlns:xlink="http://www.w3.org/1999/xlink" width="668px" height="25px" xmlns="http://www.w3.org/2000/svg">
  <g transform="matrix(1 0 0 1 -17 -321 )">
    <path d="M 33.7 328.4  L 28 333.5  L 33.7 338.6  L 39.1 333.5  L 33.7 328.4  Z M 668.3 338.6  L 674 333.5  L 668.3 328.4  L 662.9 333.5  L 668.3 338.6  Z " fill-rule="nonzero" fill="#ff0000" stroke="none" />
    <path d="M 31 333.5  L 671 333.5  " stroke-width="3" stroke-dasharray="9,3" stroke="#ff0000" fill="none" />
  </g>
</svg>