﻿<?xml version="1.0" encoding="utf-8"?>
<svg version="1.1" xmlns:xlink="http://www.w3.org/1999/xlink" width="12px" height="12px" xmlns="http://www.w3.org/2000/svg">
  <g transform="matrix(1 0 0 1 -140 -145 )">
    <path d="M 141 151  A 5 5 0 0 1 146 146 A 5 5 0 0 1 151 151 A 5 5 0 0 1 146 156 A 5 5 0 0 1 141 151 Z " fill-rule="nonzero" fill="#ff6c47" stroke="none" />
  </g>
</svg>