﻿<?xml version="1.0" encoding="utf-8"?>
<svg version="1.1" xmlns:xlink="http://www.w3.org/1999/xlink" width="127px" height="24px" xmlns="http://www.w3.org/2000/svg">
  <g transform="matrix(1 0 0 1 -10 -248 )">
    <path d="M 11 249  L 129 249  A 7 7 0 0 1 136 256 L 136 264  A 7 7 0 0 1 129 271 L 11 271  L 11 249  Z " fill-rule="nonzero" fill="#035df3" stroke="none" />
  </g>
</svg>