﻿<?xml version="1.0" encoding="utf-8"?>
<svg version="1.1" xmlns:xlink="http://www.w3.org/1999/xlink" width="86px" height="24px" xmlns="http://www.w3.org/2000/svg">
  <defs>
    <filter x="49px" y="72px" width="86px" height="24px" filterUnits="userSpaceOnUse" id="filter146">
      <feOffset dx="0" dy="0" in="SourceAlpha" result="shadowOffsetInner" />
      <feGaussianBlur stdDeviation="2.5" in="shadowOffsetInner" result="shadowGaussian" />
      <feComposite in2="shadowGaussian" operator="atop" in="SourceAlpha" result="shadowComposite" />
      <feColorMatrix type="matrix" values="0 0 0 0 0  0 0 0 0 0  0 0 0 0 0  0 0 0 0.349019607843137 0  " in="shadowComposite" />
    </filter>
    <g id="widget147">
      <path d="M 54 77  L 130 77  L 130 91  L 54 91  L 54 77  Z " fill-rule="nonzero" fill="#ffffff" stroke="none" fill-opacity="0" />
    </g>
  </defs>
  <g transform="matrix(1 0 0 1 -49 -72 )">
    <use xlink:href="#widget147" filter="url(#filter146)" />
    <use xlink:href="#widget147" />
  </g>
</svg>