﻿<?xml version="1.0" encoding="utf-8"?>
<svg version="1.1" xmlns:xlink="http://www.w3.org/1999/xlink" width="12px" height="12px" viewBox="1102 165  12 12" xmlns="http://www.w3.org/2000/svg">
  <path d="M 1108 165  C 1111.36 165  1114 167.64  1114 171  C 1114 174.36  1111.36 177  1108 177  C 1104.64 177  1102 174.36  1102 171  C 1102 167.64  1104.64 165  1108 165  Z " fill-rule="nonzero" fill="#f0f0f0" stroke="none" />
  <path d="M 1108 165.5  C 1111.08 165.5  1113.5 167.92  1113.5 171  C 1113.5 174.08  1111.08 176.5  1108 176.5  C 1104.92 176.5  1102.5 174.08  1102.5 171  C 1102.5 167.92  1104.92 165.5  1108 165.5  Z " stroke-width="1" stroke="#797979" fill="none" />
</svg>