﻿<?xml version="1.0" encoding="utf-8"?>
<svg version="1.1" xmlns:xlink="http://www.w3.org/1999/xlink" width="8px" height="14px" xmlns="http://www.w3.org/2000/svg">
  <g transform="matrix(1 0 0 1 -398 -232 )">
    <path d="M 7.60045819014891 6.35938543754176  C 7.68904161893852 6.44845246047649  7.73333333333335 6.55087953685148  7.73333333333335 6.66666666666669  C 7.73333333333335 6.78245379648186  7.68904161893852 6.88488087285683  7.60045819014891 6.97394789579158  L 1.40847651775488 13.1997327989312  C 1.31989308896527 13.288799821866  1.21802214585722 13.3333333333333  1.10286368843072 13.3333333333333  C 0.987705231004213 13.3333333333333  0.885834287896159 13.288799821866  0.797250859106498 13.1997327989312  L 0.132875143184435 12.5317301269205  C 0.0442917143948307 12.4426631039858  0 12.3402360276108  0 12.2244488977956  C 0 12.1086617679804  0.0442917143948307 12.0062346916054  0.132875143184435 11.9171676686707  L 5.35486827033219 6.66666666666669  L 0.132875143184435 1.41616566466266  C 0.0442917143948307 1.3270986417279  0 1.22467156535293  0 1.10888443553776  C 0 0.993097305722557  0.0442917143948307 0.890670229347592  0.132875143184435 0.801603206412807  L 0.797250859106498 0.13360053440212  C 0.885834287896159 0.0445335114673924  0.987705231004213 0  1.10286368843072 0  C 1.21802214585722 0  1.31989308896527 0.0445335114673924  1.40847651775488 0.13360053440212  L 7.60045819014891 6.35938543754176  Z " fill-rule="nonzero" fill="#cccccc" stroke="none" transform="matrix(1 0 0 1 398 232 )" />
  </g>
</svg>