﻿<?xml version="1.0" encoding="utf-8"?>
<svg version="1.1" xmlns:xlink="http://www.w3.org/1999/xlink" width="40px" height="50px" xmlns="http://www.w3.org/2000/svg">
  <defs>
    <filter x="251px" y="365px" width="40px" height="50px" filterUnits="userSpaceOnUse" id="filter166">
      <feOffset dx="1" dy="1" in="SourceAlpha" result="shadowOffsetInner" />
      <feGaussianBlur stdDeviation="2.5" in="shadowOffsetInner" result="shadowGaussian" />
      <feComposite in2="shadowGaussian" operator="atop" in="SourceAlpha" result="shadowComposite" />
      <feColorMatrix type="matrix" values="0 0 0 0 0  0 0 0 0 0  0 0 0 0 0  0 0 0 0.698039215686274 0  " in="shadowComposite" />
    </filter>
    <g id="widget167">
      <path d="M 270 408.036928468354  C 264.2 398.40734059591  255.5 392.629587872444  255.5 383  C 255.5 377.985714285714  258.4 369.5  270 369.5  C 281.6 369.5  284.5 377.985714285714  284.5 383  C 284.5 392.629587872444  275.8 398.40734059591  270 408.036928468354  Z " fill-rule="nonzero" fill="#009dd9" stroke="none" />
      <path d="M 270 409  C 264 399  255 393  255 383  C 255 377.8  258 369  270 369  C 282 369  285 377.8  285 383  C 285 393  276 399  270 409  Z M 270 407.073856936707  C 275.6 397.81468119182  284 392.259175744887  284 383  C 284 378.171428571429  281.2 370  270 370  C 258.8 370  256 378.171428571429  256 383  C 256 392.259175744887  264.4 397.81468119182  270 407.073856936707  Z " fill-rule="nonzero" fill="#ffffff" stroke="none" />
    </g>
  </defs>
  <g transform="matrix(1 0 0 1 -251 -365 )">
    <use xlink:href="#widget167" filter="url(#filter166)" />
    <use xlink:href="#widget167" />
  </g>
</svg>