﻿<?xml version="1.0" encoding="utf-8"?>
<svg version="1.1" xmlns:xlink="http://www.w3.org/1999/xlink" width="9px" height="9px" xmlns="http://www.w3.org/2000/svg">
  <g transform="matrix(1 0 0 1 -113 -709 )">
    <path d="M 117.5 709  C 120.02 709  122 710.98  122 713.5  C 122 716.02  120.02 718  117.5 718  C 114.98 718  113 716.02  113 713.5  C 113 710.98  114.98 709  117.5 709  Z " fill-rule="nonzero" fill="#fc3966" stroke="none" />
    <path d="M 117.5 709.5  C 119.74 709.5  121.5 711.26  121.5 713.5  C 121.5 715.74  119.74 717.5  117.5 717.5  C 115.26 717.5  113.5 715.74  113.5 713.5  C 113.5 711.26  115.26 709.5  117.5 709.5  Z " stroke-width="1" stroke="#fc3966" fill="none" />
  </g>
</svg>