﻿<?xml version="1.0" encoding="utf-8"?>
<svg version="1.1" xmlns:xlink="http://www.w3.org/1999/xlink" width="78px" height="25px" xmlns="http://www.w3.org/2000/svg">
  <defs>
    <filter x="236px" y="334px" width="78px" height="25px" filterUnits="userSpaceOnUse" id="filter265">
      <feOffset dx="0" dy="0" in="SourceAlpha" result="shadowOffsetInner" />
      <feGaussianBlur stdDeviation="2.5" in="shadowOffsetInner" result="shadowGaussian" />
      <feComposite in2="shadowGaussian" operator="atop" in="SourceAlpha" result="shadowComposite" />
      <feColorMatrix type="matrix" values="0 0 0 0 0  0 0 0 0 0  0 0 0 0 0  0 0 0 0.349019607843137 0  " in="shadowComposite" />
    </filter>
    <g id="widget266">
      <path d="M 241 339  L 309 339  L 309 354  L 241 354  L 241 339  Z " fill-rule="nonzero" fill="#ffffff" stroke="none" fill-opacity="0" />
    </g>
  </defs>
  <g transform="matrix(1 0 0 1 -236 -334 )">
    <use xlink:href="#widget266" filter="url(#filter265)" />
    <use xlink:href="#widget266" />
  </g>
</svg>