﻿<?xml version="1.0" encoding="utf-8"?>
<svg version="1.1" xmlns:xlink="http://www.w3.org/1999/xlink" width="12px" height="12px" viewBox="840 164  12 12" xmlns="http://www.w3.org/2000/svg">
  <path d="M 846 164  C 849.36 164  852 166.64  852 170  C 852 173.36  849.36 176  846 176  C 842.64 176  840 173.36  840 170  C 840 166.64  842.64 164  846 164  Z " fill-rule="nonzero" fill="#ffffff" stroke="none" />
  <path d="M 846 164.5  C 849.08 164.5  851.5 166.92  851.5 170  C 851.5 173.08  849.08 175.5  846 175.5  C 842.92 175.5  840.5 173.08  840.5 170  C 840.5 166.92  842.92 164.5  846 164.5  Z " stroke-width="1" stroke="#797979" fill="none" />
  <path d="M 846 173  C 844.32 173  843 171.68  843 170  C 843 168.32  844.32 167  846 167  C 847.68 167  849 168.32  849 170  C 849 171.68  847.68 173  846 173  " fill-rule="nonzero" fill="#797979" stroke="none" />
</svg>