﻿<?xml version="1.0" encoding="utf-8"?>
<svg version="1.1" xmlns:xlink="http://www.w3.org/1999/xlink" width="12px" height="12px" viewBox="840 92  12 12" xmlns="http://www.w3.org/2000/svg">
  <path d="M 846 92  C 849.36 92  852 94.64  852 98  C 852 101.36  849.36 104  846 104  C 842.64 104  840 101.36  840 98  C 840 94.64  842.64 92  846 92  Z " fill-rule="nonzero" fill="#ffffff" stroke="none" />
  <path d="M 846 92.5  C 849.08 92.5  851.5 94.92  851.5 98  C 851.5 101.08  849.08 103.5  846 103.5  C 842.92 103.5  840.5 101.08  840.5 98  C 840.5 94.92  842.92 92.5  846 92.5  Z " stroke-width="1" stroke="#797979" fill="none" />
  <path d="M 846 101  C 844.32 101  843 99.68  843 98  C 843 96.32  844.32 95  846 95  C 847.68 95  849 96.32  849 98  C 849 99.68  847.68 101  846 101  " fill-rule="nonzero" fill="#797979" stroke="none" />
</svg>