﻿<?xml version="1.0" encoding="utf-8"?>
<svg version="1.1" xmlns:xlink="http://www.w3.org/1999/xlink" width="12px" height="12px" viewBox="840 55  12 12" xmlns="http://www.w3.org/2000/svg">
  <path d="M 846 55  C 849.36 55  852 57.64  852 61  C 852 64.36  849.36 67  846 67  C 842.64 67  840 64.36  840 61  C 840 57.64  842.64 55  846 55  Z " fill-rule="nonzero" fill="#ffffff" stroke="none" />
  <path d="M 846 55.5  C 849.08 55.5  851.5 57.92  851.5 61  C 851.5 64.08  849.08 66.5  846 66.5  C 842.92 66.5  840.5 64.08  840.5 61  C 840.5 57.92  842.92 55.5  846 55.5  Z " stroke-width="1" stroke="#797979" fill="none" />
  <path d="M 846 64  C 844.32 64  843 62.68  843 61  C 843 59.32  844.32 58  846 58  C 847.68 58  849 59.32  849 61  C 849 62.68  847.68 64  846 64  " fill-rule="nonzero" fill="#797979" stroke="none" />
</svg>