﻿<?xml version="1.0" encoding="utf-8"?>
<svg version="1.1" xmlns:xlink="http://www.w3.org/1999/xlink" width="12px" height="12px" viewBox="840 127  12 12" xmlns="http://www.w3.org/2000/svg">
  <path d="M 846 127  C 849.36 127  852 129.64  852 133  C 852 136.36  849.36 139  846 139  C 842.64 139  840 136.36  840 133  C 840 129.64  842.64 127  846 127  Z " fill-rule="nonzero" fill="#ffffff" stroke="none" />
  <path d="M 846 127.5  C 849.08 127.5  851.5 129.92  851.5 133  C 851.5 136.08  849.08 138.5  846 138.5  C 842.92 138.5  840.5 136.08  840.5 133  C 840.5 129.92  842.92 127.5  846 127.5  Z " stroke-width="1" stroke="#797979" fill="none" />
</svg>