﻿<?xml version="1.0" encoding="utf-8"?>
<svg version="1.1" xmlns:xlink="http://www.w3.org/1999/xlink" width="12px" height="12px" viewBox="797 127  12 12" xmlns="http://www.w3.org/2000/svg">
  <path d="M 803 127  C 806.36 127  809 129.64  809 133  C 809 136.36  806.36 139  803 139  C 799.64 139  797 136.36  797 133  C 797 129.64  799.64 127  803 127  Z " fill-rule="nonzero" fill="#ffffff" stroke="none" />
  <path d="M 803 127.5  C 806.08 127.5  808.5 129.92  808.5 133  C 808.5 136.08  806.08 138.5  803 138.5  C 799.92 138.5  797.5 136.08  797.5 133  C 797.5 129.92  799.92 127.5  803 127.5  Z " stroke-width="1" stroke="#797979" fill="none" />
</svg>