﻿<?xml version="1.0" encoding="utf-8"?>
<svg version="1.1" xmlns:xlink="http://www.w3.org/1999/xlink" width="79px" height="24px" xmlns="http://www.w3.org/2000/svg">
  <defs>
    <filter x="226px" y="46px" width="79px" height="24px" filterUnits="userSpaceOnUse" id="filter415">
      <feOffset dx="0" dy="0" in="SourceAlpha" result="shadowOffsetInner" />
      <feGaussianBlur stdDeviation="2.5" in="shadowOffsetInner" result="shadowGaussian" />
      <feComposite in2="shadowGaussian" operator="atop" in="SourceAlpha" result="shadowComposite" />
      <feColorMatrix type="matrix" values="0 0 0 0 0  0 0 0 0 0  0 0 0 0 0  0 0 0 0.349019607843137 0  " in="shadowComposite" />
    </filter>
    <g id="widget416">
      <path d="M 231 51  L 300 51  L 300 65  L 231 65  L 231 51  Z " fill-rule="nonzero" fill="#ffffff" stroke="none" fill-opacity="0" />
    </g>
  </defs>
  <g transform="matrix(1 0 0 1 -226 -46 )">
    <use xlink:href="#widget416" filter="url(#filter415)" />
    <use xlink:href="#widget416" />
  </g>
</svg>