﻿<?xml version="1.0" encoding="utf-8"?>
<svg version="1.1" xmlns:xlink="http://www.w3.org/1999/xlink" width="301px" height="2px" xmlns="http://www.w3.org/2000/svg">
  <g transform="matrix(1 0 0 1 -46 -202 )">
    <path d="M 46 202.5  L 346 202.5  " stroke-width="1" stroke="#ebebeb" fill="none" />
  </g>
</svg>