﻿<?xml version="1.0" encoding="utf-8"?>
<svg version="1.1" xmlns:xlink="http://www.w3.org/1999/xlink" width="134px" height="30px" xmlns="http://www.w3.org/2000/svg">
  <defs>
    <filter x="84px" y="84px" width="134px" height="30px" filterUnits="userSpaceOnUse" id="filter250">
      <feOffset dx="0" dy="0" in="SourceAlpha" result="shadowOffsetInner" />
      <feGaussianBlur stdDeviation="2.5" in="shadowOffsetInner" result="shadowGaussian" />
      <feComposite in2="shadowGaussian" operator="atop" in="SourceAlpha" result="shadowComposite" />
      <feColorMatrix type="matrix" values="0 0 0 0 0  0 0 0 0 0  0 0 0 0 0  0 0 0 0.349019607843137 0  " in="shadowComposite" />
    </filter>
    <g id="widget251">
      <path d="M 89 89  L 213 89  L 213 109  L 89 109  L 89 89  Z " fill-rule="nonzero" fill="#ffffff" stroke="none" fill-opacity="0" />
    </g>
  </defs>
  <g transform="matrix(1 0 0 1 -84 -84 )">
    <use xlink:href="#widget251" filter="url(#filter250)" />
    <use xlink:href="#widget251" />
  </g>
</svg>