﻿<?xml version="1.0" encoding="utf-8"?>
<svg version="1.1" xmlns:xlink="http://www.w3.org/1999/xlink" width="93px" height="24px" xmlns="http://www.w3.org/2000/svg">
  <defs>
    <filter x="221px" y="140px" width="93px" height="24px" filterUnits="userSpaceOnUse" id="filter246">
      <feOffset dx="0" dy="0" in="SourceAlpha" result="shadowOffsetInner" />
      <feGaussianBlur stdDeviation="2.5" in="shadowOffsetInner" result="shadowGaussian" />
      <feComposite in2="shadowGaussian" operator="atop" in="SourceAlpha" result="shadowComposite" />
      <feColorMatrix type="matrix" values="0 0 0 0 0  0 0 0 0 0  0 0 0 0 0  0 0 0 0.349019607843137 0  " in="shadowComposite" />
    </filter>
    <g id="widget247">
      <path d="M 226 145  L 309 145  L 309 159  L 226 159  L 226 145  Z " fill-rule="nonzero" fill="#ffffff" stroke="none" fill-opacity="0" />
    </g>
  </defs>
  <g transform="matrix(1 0 0 1 -221 -140 )">
    <use xlink:href="#widget247" filter="url(#filter246)" />
    <use xlink:href="#widget247" />
  </g>
</svg>