﻿<?xml version="1.0" encoding="utf-8"?>
<svg version="1.1" xmlns:xlink="http://www.w3.org/1999/xlink" width="12px" height="12px" viewBox="372 480  12 12" xmlns="http://www.w3.org/2000/svg">
  <path d="M 372.5 480.5  L 383.5 480.5  L 383.5 491.5  L 372.5 491.5  L 372.5 480.5  Z " fill-rule="nonzero" fill="#ffffff" stroke="none" />
  <path d="M 372.5 480.5  L 383.5 480.5  L 383.5 491.5  L 372.5 491.5  L 372.5 480.5  Z " stroke-width="1" stroke="#797979" fill="none" />
  <path d="M 374.571428571429 486  L 377.142857142857 488.571428571429  L 381.428571428571 482.571428571429  " stroke-width="2.57142857142857" stroke="#797979" fill="none" />
</svg>