﻿<?xml version="1.0" encoding="utf-8"?>
<svg version="1.1" xmlns:xlink="http://www.w3.org/1999/xlink" width="12px" height="12px" viewBox="19 327  12 12" xmlns="http://www.w3.org/2000/svg">
  <path d="M 25 327  C 28.36 327  31 329.64  31 333  C 31 336.36  28.36 339  25 339  C 21.64 339  19 336.36  19 333  C 19 329.64  21.64 327  25 327  Z " fill-rule="nonzero" fill="#f0f0f0" stroke="none" />
  <path d="M 25 327.5  C 28.08 327.5  30.5 329.92  30.5 333  C 30.5 336.08  28.08 338.5  25 338.5  C 21.92 338.5  19.5 336.08  19.5 333  C 19.5 329.92  21.92 327.5  25 327.5  Z " stroke-width="1" stroke="#797979" fill="none" />
</svg>