﻿<?xml version="1.0" encoding="utf-8"?>
<svg version="1.1" xmlns:xlink="http://www.w3.org/1999/xlink" width="12px" height="12px" viewBox="21 210  12 12" xmlns="http://www.w3.org/2000/svg">
  <path d="M 27 210  C 30.36 210  33 212.64  33 216  C 33 219.36  30.36 222  27 222  C 23.64 222  21 219.36  21 216  C 21 212.64  23.64 210  27 210  Z " fill-rule="nonzero" fill="#f0f0f0" stroke="none" />
  <path d="M 27 210.5  C 30.08 210.5  32.5 212.92  32.5 216  C 32.5 219.08  30.08 221.5  27 221.5  C 23.92 221.5  21.5 219.08  21.5 216  C 21.5 212.92  23.92 210.5  27 210.5  Z " stroke-width="1" stroke="#797979" fill="none" />
</svg>