﻿<?xml version="1.0" encoding="utf-8"?>
<svg version="1.1" xmlns:xlink="http://www.w3.org/1999/xlink" width="12px" height="12px" viewBox="217 523.5  12 12" xmlns="http://www.w3.org/2000/svg">
  <path d="M 223 523.5  C 226.36 523.5  229 526.14  229 529.5  C 229 532.86  226.36 535.5  223 535.5  C 219.64 535.5  217 532.86  217 529.5  C 217 526.14  219.64 523.5  223 523.5  Z " fill-rule="nonzero" fill="#f0f0f0" stroke="none" />
  <path d="M 223 524  C 226.08 524  228.5 526.42  228.5 529.5  C 228.5 532.58  226.08 535  223 535  C 219.92 535  217.5 532.58  217.5 529.5  C 217.5 526.42  219.92 524  223 524  Z " stroke-width="1" stroke="#797979" fill="none" />
</svg>