﻿<?xml version="1.0" encoding="utf-8"?>
<svg version="1.1" xmlns:xlink="http://www.w3.org/1999/xlink" width="12px" height="12px" viewBox="323 364.5  12 12" xmlns="http://www.w3.org/2000/svg">
  <path d="M 329 364.5  C 332.36 364.5  335 367.14  335 370.5  C 335 373.86  332.36 376.5  329 376.5  C 325.64 376.5  323 373.86  323 370.5  C 323 367.14  325.64 364.5  329 364.5  Z " fill-rule="nonzero" fill="#f0f0f0" stroke="none" />
  <path d="M 329 365  C 332.08 365  334.5 367.42  334.5 370.5  C 334.5 373.58  332.08 376  329 376  C 325.92 376  323.5 373.58  323.5 370.5  C 323.5 367.42  325.92 365  329 365  Z " stroke-width="1" stroke="#797979" fill="none" />
  <path d="M 329 373.5  C 327.32 373.5  326 372.18  326 370.5  C 326 368.82  327.32 367.5  329 367.5  C 330.68 367.5  332 368.82  332 370.5  C 332 372.18  330.68 373.5  329 373.5  " fill-rule="nonzero" fill="#797979" stroke="none" />
</svg>