﻿<?xml version="1.0" encoding="utf-8"?>
<svg version="1.1" xmlns:xlink="http://www.w3.org/1999/xlink" width="17px" height="5px" xmlns="http://www.w3.org/2000/svg">
  <g transform="matrix(1 0 0 1 -223 -216 )">
    <path d="M 224 218  L 238 218  " stroke-width="2" stroke="#dee0ec" fill="none" />
  </g>
</svg>