﻿<?xml version="1.0" encoding="utf-8"?>
<svg version="1.1" xmlns:xlink="http://www.w3.org/1999/xlink" width="12px" height="12px" viewBox="13 66  12 12" xmlns="http://www.w3.org/2000/svg">
  <path d="M 19 66  C 22.36 66  25 68.64  25 72  C 25 75.36  22.36 78  19 78  C 15.64 78  13 75.36  13 72  C 13 68.64  15.64 66  19 66  Z " fill-rule="nonzero" fill="#ffffff" stroke="none" />
  <path d="M 19 66.5  C 22.08 66.5  24.5 68.92  24.5 72  C 24.5 75.08  22.08 77.5  19 77.5  C 15.92 77.5  13.5 75.08  13.5 72  C 13.5 68.92  15.92 66.5  19 66.5  Z " stroke-width="1" stroke="#797979" fill="none" />
</svg>