﻿<?xml version="1.0" encoding="utf-8"?>
<svg version="1.1" xmlns:xlink="http://www.w3.org/1999/xlink" width="20px" height="20px" preserveAspectRatio="xMinYMid meet" viewBox="201 656  20 18" xmlns="http://www.w3.org/2000/svg">
  <defs>
    <mask fill="white" id="clip16">
      <path d="M 155 617  L 267 617  L 267 645  L 155 645  Z M 155 596  L 267 596  L 267 677  L 155 677  Z " fill-rule="evenodd" />
    </mask>
  </defs>
  <path d="M 211 617  L 211 596  M 211 645  L 211 665  " stroke-width="2" stroke="#cccccc" fill="none" />
  <path d="M 215.292893218813 659.892893218813  L 211 664.185786437627  L 206.707106781187 659.892893218813  L 205.292893218813 661.307106781187  L 210.292893218813 666.307106781187  L 211 667.014213562373  L 211.707106781187 666.307106781187  L 216.707106781187 661.307106781187  L 215.292893218813 659.892893218813  Z " fill-rule="nonzero" fill="#cccccc" stroke="none" mask="url(#clip16)" />
</svg>