﻿<?xml version="1.0" encoding="utf-8"?>
<svg version="1.1" xmlns:xlink="http://www.w3.org/1999/xlink" width="10px" height="141px" preserveAspectRatio="xMidYMin meet" viewBox="382 561  8 141" xmlns="http://www.w3.org/2000/svg">
  <defs>
    <mask fill="white" id="clip18">
      <path d="M 343 609  L 429 609  L 429 655  L 343 655  Z M 261 563  L 521 563  L 521 707  L 261 707  Z " fill-rule="evenodd" />
    </mask>
  </defs>
  <path d="M 261 566  L 381 566  A 5 5 0 0 1 386 571 L 386 692  A 5 5 0 0 0 391 697 L 509 697  " stroke-width="2" stroke="#cccccc" fill="none" mask="url(#clip18)" />
  <path d="M 503.892893218813 692.707106781187  L 508.185786437627 697  L 503.892893218813 701.292893218813  L 505.307106781187 702.707106781187  L 510.307106781187 697.707106781187  L 511.014213562373 697  L 510.307106781187 696.292893218813  L 505.307106781187 691.292893218813  L 503.892893218813 692.707106781187  Z " fill-rule="nonzero" fill="#cccccc" stroke="none" mask="url(#clip18)" />
</svg>