﻿<?xml version="1.0" encoding="utf-8"?>
<svg version="1.1" xmlns:xlink="http://www.w3.org/1999/xlink" width="20px" height="20px" preserveAspectRatio="xMinYMid meet" viewBox="551 720  20 18" xmlns="http://www.w3.org/2000/svg">
  <defs>
    <mask fill="white" id="clip42">
      <path d="M 83.5 1183  L 130.5 1183  L 130.5 1211  L 83.5 1211  Z M 68 396  L 571 396  L 571 1211  L 68 1211  Z " fill-rule="evenodd" />
    </mask>
  </defs>
  <path d="M 161 399  L 76 399  A 5 5 0 0 0 71 404 L 71 1192  A 5 5 0 0 0 76 1197 L 556 1197  A 5 5 0 0 0 561 1192 L 561 729  " stroke-width="2" stroke="#cccccc" fill="none" mask="url(#clip42)" />
  <path d="M 556.707106781187 734.107106781187  L 561 729.814213562373  L 565.292893218813 734.107106781187  L 566.707106781187 732.692893218813  L 561.707106781187 727.692893218813  L 561 726.985786437627  L 560.292893218813 727.692893218813  L 555.292893218813 732.692893218813  L 556.707106781187 734.107106781187  Z " fill-rule="nonzero" fill="#cccccc" stroke="none" mask="url(#clip42)" />
</svg>