﻿<?xml version="1.0" encoding="utf-8"?>
<svg version="1.1" xmlns:xlink="http://www.w3.org/1999/xlink" width="10px" height="112px" preserveAspectRatio="xMidYMin meet" viewBox="207 429  8 112" xmlns="http://www.w3.org/2000/svg">
  <defs>
    <mask fill="white" id="clip11">
      <path d="M 155 450  L 267 450  L 267 514  L 155 514  Z M 155 429  L 267 429  L 267 546  L 155 546  Z " fill-rule="evenodd" />
    </mask>
  </defs>
  <path d="M 211 450  L 211 429  M 211 514  L 211 534  " stroke-width="2" stroke="#cccccc" fill="none" />
  <path d="M 215.292893218813 528.892893218813  L 211 533.185786437627  L 206.707106781187 528.892893218813  L 205.292893218813 530.307106781187  L 210.292893218813 535.307106781187  L 211 536.014213562373  L 211.707106781187 535.307106781187  L 216.707106781187 530.307106781187  L 215.292893218813 528.892893218813  Z " fill-rule="nonzero" fill="#cccccc" stroke="none" mask="url(#clip11)" />
</svg>