﻿<?xml version="1.0" encoding="utf-8"?>
<svg version="1.1" xmlns:xlink="http://www.w3.org/1999/xlink" width="20px" height="20px" preserveAspectRatio="xMinYMid meet" viewBox="499 390  20 18" xmlns="http://www.w3.org/2000/svg">
  <defs>
    <mask fill="white" id="clip31">
      <path d="M 343 376  L 429 376  L 429 422  L 343 422  Z M 261 376  L 521 376  L 521 422  L 261 422  Z " fill-rule="evenodd" />
    </mask>
  </defs>
  <path d="M 343 399  L 261 399  M 429 399  L 509 399  " stroke-width="2" stroke="#cccccc" fill="none" />
  <path d="M 503.892893218813 394.707106781187  L 508.185786437627 399  L 503.892893218813 403.292893218813  L 505.307106781187 404.707106781187  L 510.307106781187 399.707106781187  L 511.014213562373 399  L 510.307106781187 398.292893218813  L 505.307106781187 393.292893218813  L 503.892893218813 394.707106781187  Z " fill-rule="nonzero" fill="#cccccc" stroke="none" mask="url(#clip31)" />
</svg>