﻿<?xml version="1.0" encoding="utf-8"?>
<svg version="1.1" xmlns:xlink="http://www.w3.org/1999/xlink" width="12px" height="12px" viewBox="26 264  12 12" xmlns="http://www.w3.org/2000/svg">
  <path d="M 32 264  C 35.36 264  38 266.64  38 270  C 38 273.36  35.36 276  32 276  C 28.64 276  26 273.36  26 270  C 26 266.64  28.64 264  32 264  Z " fill-rule="nonzero" fill="#ffffff" stroke="none" />
  <path d="M 32 264.5  C 35.08 264.5  37.5 266.92  37.5 270  C 37.5 273.08  35.08 275.5  32 275.5  C 28.92 275.5  26.5 273.08  26.5 270  C 26.5 266.92  28.92 264.5  32 264.5  Z " stroke-width="1" stroke="#797979" fill="none" />
</svg>