﻿<?xml version="1.0" encoding="utf-8"?>
<svg version="1.1" xmlns:xlink="http://www.w3.org/1999/xlink" width="12px" height="12px" viewBox="107 661  12 12" xmlns="http://www.w3.org/2000/svg">
  <path d="M 107.5 661.5  L 118.5 661.5  L 118.5 672.5  L 107.5 672.5  L 107.5 661.5  Z " fill-rule="nonzero" fill="#ffffff" stroke="none" />
  <path d="M 107.5 661.5  L 118.5 661.5  L 118.5 672.5  L 107.5 672.5  L 107.5 661.5  Z " stroke-width="1" stroke="#797979" fill="none" />
  <path d="M 109.571428571429 667  L 112.142857142857 669.571428571429  L 116.428571428571 663.571428571429  " stroke-width="2.57142857142857" stroke="#797979" fill="none" />
</svg>