﻿<?xml version="1.0" encoding="utf-8"?>
<svg version="1.1" xmlns:xlink="http://www.w3.org/1999/xlink" width="12px" height="12px" viewBox="371 482  12 12" xmlns="http://www.w3.org/2000/svg">
  <path d="M 371.5 482.5  L 382.5 482.5  L 382.5 493.5  L 371.5 493.5  L 371.5 482.5  Z " fill-rule="nonzero" fill="#ffffff" stroke="none" />
  <path d="M 371.5 482.5  L 382.5 482.5  L 382.5 493.5  L 371.5 493.5  L 371.5 482.5  Z " stroke-width="1" stroke="#797979" fill="none" />
  <path d="M 373.571428571429 488  L 376.142857142857 490.571428571429  L 380.428571428571 484.571428571429  " stroke-width="2.57142857142857" stroke="#797979" fill="none" />
</svg>