﻿<?xml version="1.0" encoding="utf-8"?>
<svg version="1.1" xmlns:xlink="http://www.w3.org/1999/xlink" width="28px" height="28px" preserveAspectRatio="xMinYMid meet" viewBox="694 431  28 26" xmlns="http://www.w3.org/2000/svg">
  <g transform="matrix(0 1 -1 0 1152 -264 )">
    <path d="M 496.2 223.9  L 490.5 229  L 496.2 234.1  L 501.6 229  L 496.2 223.9  Z M 920.8 234.1  L 926.5 229  L 920.8 223.9  L 915.4 229  L 920.8 234.1  Z " fill-rule="nonzero" fill="#ff0000" stroke="none" transform="matrix(6.12303176911189E-17 1 -1 6.12303176911189E-17 937.5 -480.5 )" />
    <path d="M 493.5 229  L 923.5 229  " stroke-width="3" stroke-dasharray="9,3" stroke="#ff0000" fill="none" transform="matrix(6.12303176911189E-17 1 -1 6.12303176911189E-17 937.5 -480.5 )" />
  </g>
</svg>