﻿<?xml version="1.0" encoding="utf-8"?>
<svg version="1.1" xmlns:xlink="http://www.w3.org/1999/xlink" width="10px" height="16px" xmlns="http://www.w3.org/2000/svg">
  <g transform="matrix(1 0 0 1 -200 -410 )">
    <path d="M 9.67013888888889 7.296875  C 9.89004629629633 7.49479166666663  10 7.72916666666663  10 8  C 10 8.27083333333337  9.89004629629633 8.50520833333337  9.67013888888889 8.703125  L 1.89236111111111 15.703125  C 1.6724537037037 15.9010416666666  1.41203703703701 16  1.11111111111111 16  C 0.81018518518519 16  0.549768518518533 15.9010416666666  0.329861111111114 15.703125  C 0.109953703703695 15.5052083333334  0 15.2708333333334  0 15  L 0 1  C 0 0.729166666666629  0.109953703703695 0.494791666666629  0.329861111111114 0.296875  C 0.549768518518533 0.0989583333333712  0.81018518518519 0  1.11111111111111 0  C 1.41203703703701 0  1.6724537037037 0.0989583333333712  1.89236111111111 0.296875  L 9.67013888888889 7.296875  Z " fill-rule="nonzero" fill="#0099ff" stroke="none" transform="matrix(1 0 0 1 200 410 )" />
  </g>
</svg>