﻿<?xml version="1.0" encoding="utf-8"?>
<svg version="1.1" xmlns:xlink="http://www.w3.org/1999/xlink" width="17px" height="17px" xmlns="http://www.w3.org/2000/svg">
  <g transform="matrix(1 0 0 1 -252 -410 )">
    <path d="M 16.6181640625 10.0152895250488  C 16.6882595486111 10.0853394057688  16.7233072916667 10.1682932118846  16.7233072916667 10.2641509433963  C 16.7233072916667 10.30101930167  16.7196180555555 10.3268271524615  16.7122395833333 10.341574495771  C 16.2400173611111 12.317718499241  15.2513020833333 13.9196486662329  13.74609375 15.1473649967469  C 12.2408854166667 16.3750813272609  10.4774305555555 16.9889394925179  8.45572916666674 16.9889394925179  C 7.37847222222223 16.9889394925179  6.33626302083326 16.7861635220125  5.3291015625 16.380611581002  C 4.32194010416671 15.9750596399913  3.42361111111111 15.3962264150943  2.63411458333329 14.644111906311  L 1.20638020833329 16.070917371503  C 1.06618923611111 16.211017132943  0.900173611111114 16.281067013663  0.708333333333343 16.281067013663  C 0.516493055555543 16.281067013663  0.350477430555543 16.211017132943  0.210286458333343 16.070917371503  C 0.0700954861111143 15.9308176100629  0 15.7649099978313  0 15.5731945348081  L 0 10.6180871828237  C 0 10.4263717198005  0.0700954861111143 10.2604641075689  0.210286458333343 10.1203643461288  C 0.350477430555543 9.98026458468883  0.516493055555543 9.91021470396873  0.708333333333343 9.91021470396873  L 5.66666666666674 9.91021470396873  C 5.85850694444446 9.91021470396873  6.02452256944446 9.98026458468883  6.16471354166674 10.1203643461288  C 6.30490451388891 10.2604641075689  6.375 10.4263717198005  6.375 10.6180871828237  C 6.375 10.8098026458469  6.30490451388891 10.9757102580785  6.16471354166674 11.1158100195186  L 4.6484375 12.6310995445673  C 5.17230902777777 13.1177618737801  5.76627604166674 13.4938191281718  6.43033854166674 13.7592713077424  C 7.09440104166674 14.0247234873129  7.78428819444446 14.1574495770982  8.5 14.1574495770982  C 9.48871527777777 14.1574495770982  10.4110243055555 13.9178052483192  11.2669270833333 13.4385165907612  C 12.1228298611111 12.9592279332032  12.8090277777778 12.2992843201041  13.3255208333333 11.4586857514639  C 13.4066840277778 11.3333333333333  13.6022135416667 10.9019735415311  13.912109375 10.1646063760572  C 13.9711371527778 9.99501192799829  14.0818142361111 9.91021470396873  14.244140625 9.91021470396873  L 16.369140625 9.91021470396873  C 16.4650607638889 9.91021470396873  16.5480685763889 9.94523964432881  16.6181640625 10.0152895250488  Z M 16.7897135416667 0.918022121014985  C 16.9299045138889 1.058121882455  17 1.22402949468665  17 1.41574495770982  L 17 6.37085230969421  C 17 6.56256777271744  16.9299045138889 6.72847538494904  16.7897135416667 6.86857514638905  C 16.6495225694445 7.00867490782912  16.4835069444445 7.0787247885491  16.2916666666667 7.0787247885491  L 11.3333333333333 7.0787247885491  C 11.1414930555555 7.0787247885491  10.9754774305555 7.00867490782912  10.8352864583333 6.86857514638905  C 10.6950954861111 6.72847538494904  10.625 6.56256777271744  10.625 6.37085230969421  C 10.625 6.17913684667104  10.6950954861111 6.01322923443934  10.8352864583333 5.87312947299938  L 12.3626302083333 4.34677944046842  C 11.2706163194445 3.33658642376923  9.98307291666674 2.83148991541964  8.5 2.83148991541964  C 7.51128472222223 2.83148991541964  6.58897569444446 3.07113424419862  5.73307291666674 3.55042290175669  C 4.87717013888889 4.02971155931471  4.19097222222223 4.68965517241378  3.67447916666671 5.53025374105403  C 3.59331597222223 5.65560615918457  3.39778645833329 6.08696595098678  3.087890625 6.82433311646065  C 3.02886284722223 6.99392756451965  2.91818576388889 7.0787247885491  2.755859375 7.0787247885491  L 0.553385416666657 7.0787247885491  C 0.457465277777771 7.0787247885491  0.374457465277771 7.04369984818914  0.304361979166657 6.9736499674691  C 0.234266493055543 6.90360008674907  0.19921875 6.8206462806333  0.19921875 6.72478854912168  L 0.19921875 6.64736499674689  C 0.678819444444457 4.67122099327696  1.67491319444446 3.069290826285  3.1875 1.841574495771  C 4.70008680555554 0.613858165257  6.47092013888891 0  8.5 0  C 9.57725694444446 0  10.625 0.204619388419019  11.6432291666667 0.613858165257  C 12.6614583333333 1.02309694209504  13.5653211805555 1.60008674907829  14.3548177083333 2.34482758620692  L 15.7936197916667 0.918022121014985  C 15.9338107638889 0.777922359574916  16.0998263888889 0.707872478854938  16.2916666666667 0.707872478854938  C 16.4835069444445 0.707872478854938  16.6495225694445 0.777922359574916  16.7897135416667 0.918022121014985  Z " fill-rule="nonzero" fill="#00cc33" stroke="none" transform="matrix(1 0 0 1 252 410 )" />
  </g>
</svg>