﻿<?xml version="1.0" encoding="utf-8"?>
<svg version="1.1" xmlns:xlink="http://www.w3.org/1999/xlink" width="12px" height="12px" viewBox="23 230  12 12" xmlns="http://www.w3.org/2000/svg">
  <path d="M 29 230  C 32.36 230  35 232.64  35 236  C 35 239.36  32.36 242  29 242  C 25.64 242  23 239.36  23 236  C 23 232.64  25.64 230  29 230  Z " fill-rule="nonzero" fill="#ffffff" stroke="none" />
  <path d="M 29 230.5  C 32.08 230.5  34.5 232.92  34.5 236  C 34.5 239.08  32.08 241.5  29 241.5  C 25.92 241.5  23.5 239.08  23.5 236  C 23.5 232.92  25.92 230.5  29 230.5  Z " stroke-width="1" stroke="#797979" fill="none" />
</svg>