﻿<?xml version="1.0" encoding="utf-8"?>
<svg version="1.1" xmlns:xlink="http://www.w3.org/1999/xlink" width="12px" height="12px" viewBox="39 269  12 12" xmlns="http://www.w3.org/2000/svg">
  <path d="M 39.5 269.5  L 50.5 269.5  L 50.5 280.5  L 39.5 280.5  L 39.5 269.5  Z " fill-rule="nonzero" fill="#ffffff" stroke="none" />
  <path d="M 39.5 269.5  L 50.5 269.5  L 50.5 280.5  L 39.5 280.5  L 39.5 269.5  Z " stroke-width="1" stroke="#797979" fill="none" />
  <path d="M 41.5714285714286 275  L 44.1428571428571 277.571428571429  L 48.4285714285714 271.571428571429  " stroke-width="2.57142857142857" stroke="#797979" fill="none" />
</svg>