﻿<?xml version="1.0" encoding="utf-8"?>
<svg version="1.1" xmlns:xlink="http://www.w3.org/1999/xlink" width="10px" height="149px" preserveAspectRatio="xMidYMin meet" viewBox="263 326  8 149" xmlns="http://www.w3.org/2000/svg">
  <defs>
    <mask fill="white" id="clip141">
      <path d="M 231 385  L 303 385  L 303 410  L 231 410  Z M 231 326  L 303 326  L 303 480  L 231 480  Z " fill-rule="evenodd" />
    </mask>
  </defs>
  <path d="M 267 385  L 267 326  M 267 410  L 267 468  " stroke-width="2" stroke="#cccccc" fill="none" />
  <path d="M 271.292893218813 462.892893218813  L 267 467.185786437627  L 262.707106781187 462.892893218813  L 261.292893218813 464.307106781187  L 266.292893218813 469.307106781187  L 267 470.014213562373  L 267.707106781187 469.307106781187  L 272.707106781187 464.307106781187  L 271.292893218813 462.892893218813  Z " fill-rule="nonzero" fill="#cccccc" stroke="none" mask="url(#clip141)" />
</svg>