﻿<?xml version="1.0" encoding="utf-8"?>
<svg version="1.1" xmlns:xlink="http://www.w3.org/1999/xlink" width="181px" height="10px" preserveAspectRatio="xMinYMid meet" viewBox="317 292  181 8" xmlns="http://www.w3.org/2000/svg">
  <defs>
    <mask fill="white" id="clip945">
      <path d="M 345 261  L 465 261  L 465 331  L 345 331  Z M 317 261  L 503 261  L 503 331  L 317 331  Z " fill-rule="evenodd" />
    </mask>
  </defs>
  <path d="M 345 296  L 317 296  M 465 296  L 491 296  " stroke-width="2" stroke="#cccccc" fill="none" />
  <path d="M 485.892893218813 291.707106781187  L 490.185786437627 296  L 485.892893218813 300.292893218813  L 487.307106781187 301.707106781187  L 492.307106781187 296.707106781187  L 493.014213562373 296  L 492.307106781187 295.292893218813  L 487.307106781187 290.292893218813  L 485.892893218813 291.707106781187  Z " fill-rule="nonzero" fill="#cccccc" stroke="none" mask="url(#clip945)" />
</svg>