﻿<?xml version="1.0" encoding="utf-8"?>
<svg version="1.1" xmlns:xlink="http://www.w3.org/1999/xlink" width="28px" height="26px" preserveAspectRatio="xMinYMid meet" viewBox="354 505  28 24" xmlns="http://www.w3.org/2000/svg">
  <path d="M 371.7 512.4  L 366 517.5  L 371.7 522.6  L 377.1 517.5  L 371.7 512.4  Z M 467.3 522.6  L 473 517.5  L 467.3 512.4  L 461.9 517.5  L 467.3 522.6  Z " fill-rule="nonzero" fill="#ff0000" stroke="none" />
  <path d="M 369 517.5  L 470 517.5  " stroke-width="3" stroke="#ff0000" fill="none" />
</svg>