﻿<?xml version="1.0" encoding="utf-8"?>
<svg version="1.1" xmlns:xlink="http://www.w3.org/1999/xlink" width="12px" height="12px" viewBox="478 482  12 12" xmlns="http://www.w3.org/2000/svg">
  <path d="M 478.5 482.5  L 489.5 482.5  L 489.5 493.5  L 478.5 493.5  L 478.5 482.5  Z " fill-rule="nonzero" fill="#ffffff" stroke="none" />
  <path d="M 478.5 482.5  L 489.5 482.5  L 489.5 493.5  L 478.5 493.5  L 478.5 482.5  Z " stroke-width="1" stroke="#797979" fill="none" />
  <path d="M 480.571428571429 488  L 483.142857142857 490.571428571429  L 487.428571428571 484.571428571429  " stroke-width="2.57142857142857" stroke="#797979" fill="none" />
</svg>