﻿<?xml version="1.0" encoding="utf-8"?>
<svg version="1.1" xmlns:xlink="http://www.w3.org/1999/xlink" width="2px" height="67px" xmlns="http://www.w3.org/2000/svg">
  <g transform="matrix(1 0 0 1 -66 -2901 )">
    <path d="M 66.5 2901  L 66.5 2967  " stroke-width="1" stroke="#cccccc" fill="none" />
  </g>
</svg>