﻿<?xml version="1.0" encoding="utf-8"?>
<svg version="1.1" xmlns:xlink="http://www.w3.org/1999/xlink" width="54px" height="24px" xmlns="http://www.w3.org/2000/svg">
  <defs>
    <filter x="21px" y="528px" width="54px" height="24px" filterUnits="userSpaceOnUse" id="filter468">
      <feOffset dx="0" dy="0" in="SourceAlpha" result="shadowOffsetInner" />
      <feGaussianBlur stdDeviation="2.5" in="shadowOffsetInner" result="shadowGaussian" />
      <feComposite in2="shadowGaussian" operator="atop" in="SourceAlpha" result="shadowComposite" />
      <feColorMatrix type="matrix" values="0 0 0 0 0  0 0 0 0 0  0 0 0 0 0  0 0 0 0.349019607843137 0  " in="shadowComposite" />
    </filter>
    <g id="widget469">
      <path d="M 26 533  L 70 533  L 70 547  L 26 547  L 26 533  Z " fill-rule="nonzero" fill="#ffffff" stroke="none" fill-opacity="0" />
    </g>
  </defs>
  <g transform="matrix(1 0 0 1 -21 -528 )">
    <use xlink:href="#widget469" filter="url(#filter468)" />
    <use xlink:href="#widget469" />
  </g>
</svg>