﻿<?xml version="1.0" encoding="utf-8"?>
<svg version="1.1" xmlns:xlink="http://www.w3.org/1999/xlink" width="72px" height="25px" xmlns="http://www.w3.org/2000/svg">
  <g transform="matrix(1 0 0 1 -26 -9 )">
    <path d="M 0 25  L 0 0  L 37.2849364791289 0  L 41.571428571427 0  L 72 0  L 72 25  L 56.1428571428587 25  L 52.7719298245614 25  L 0 25  Z " fill-rule="nonzero" fill="#ffffff" stroke="none" transform="matrix(1 0 0 1 26 9 )" />
  </g>
</svg>