﻿<?xml version="1.0" encoding="utf-8"?>
<svg version="1.1" xmlns:xlink="http://www.w3.org/1999/xlink" width="8px" height="8px" xmlns="http://www.w3.org/2000/svg">
  <g transform="matrix(1 0 0 1 -97 -598 )">
    <path d="M 101 598  C 103.24 598  105 599.76  105 602  C 105 604.24  103.24 606  101 606  C 98.76 606  97 604.24  97 602  C 97 599.76  98.76 598  101 598  Z " fill-rule="nonzero" fill="#fc3966" stroke="none" />
    <path d="M 101 598.5  C 102.96 598.5  104.5 600.04  104.5 602  C 104.5 603.96  102.96 605.5  101 605.5  C 99.04 605.5  97.5 603.96  97.5 602  C 97.5 600.04  99.04 598.5  101 598.5  Z " stroke-width="1" stroke="#fc3966" fill="none" />
  </g>
</svg>