﻿<?xml version="1.0" encoding="utf-8"?>
<svg version="1.1" xmlns:xlink="http://www.w3.org/1999/xlink" width="300px" height="5px" xmlns="http://www.w3.org/2000/svg">
  <g transform="matrix(1 0 0 1 -161 -1229 )">
    <path d="M 0 5  L 0 0  L 55.6792452830189 0  L 300 0  L 300 5  L 101.905660377358 5  L 0 5  Z " fill-rule="nonzero" fill="#ffffff" stroke="none" transform="matrix(1 0 0 1 161 1229 )" />
  </g>
</svg>