﻿<?xml version="1.0" encoding="utf-8"?>
<svg version="1.1" xmlns:xlink="http://www.w3.org/1999/xlink" width="12px" height="12px" viewBox="19 267  12 12" xmlns="http://www.w3.org/2000/svg">
  <path d="M 25 267  C 28.36 267  31 269.64  31 273  C 31 276.36  28.36 279  25 279  C 21.64 279  19 276.36  19 273  C 19 269.64  21.64 267  25 267  Z " fill-rule="nonzero" fill="#ffffff" stroke="none" />
  <path d="M 25 267.5  C 28.08 267.5  30.5 269.92  30.5 273  C 30.5 276.08  28.08 278.5  25 278.5  C 21.92 278.5  19.5 276.08  19.5 273  C 19.5 269.92  21.92 267.5  25 267.5  Z " stroke-width="1" stroke="#797979" fill="none" />
</svg>