﻿<?xml version="1.0" encoding="utf-8"?>
<svg version="1.1" xmlns:xlink="http://www.w3.org/1999/xlink" width="12px" height="12px" viewBox="8 62  12 12" xmlns="http://www.w3.org/2000/svg">
  <path d="M 14 62  C 17.36 62  20 64.64  20 68  C 20 71.36  17.36 74  14 74  C 10.64 74  8 71.36  8 68  C 8 64.64  10.64 62  14 62  Z " fill-rule="nonzero" fill="#f0f0f0" stroke="none" />
  <path d="M 14 62.5  C 17.08 62.5  19.5 64.92  19.5 68  C 19.5 71.08  17.08 73.5  14 73.5  C 10.92 73.5  8.5 71.08  8.5 68  C 8.5 64.92  10.92 62.5  14 62.5  Z " stroke-width="1" stroke="#ebebeb" fill="none" />
</svg>