﻿<?xml version="1.0" encoding="utf-8"?>
<svg version="1.1" xmlns:xlink="http://www.w3.org/1999/xlink" width="12px" height="12px" viewBox="8 112  12 12" xmlns="http://www.w3.org/2000/svg">
  <path d="M 14 112  C 17.36 112  20 114.64  20 118  C 20 121.36  17.36 124  14 124  C 10.64 124  8 121.36  8 118  C 8 114.64  10.64 112  14 112  Z " fill-rule="nonzero" fill="#f0f0f0" stroke="none" />
  <path d="M 14 112.5  C 17.08 112.5  19.5 114.92  19.5 118  C 19.5 121.08  17.08 123.5  14 123.5  C 10.92 123.5  8.5 121.08  8.5 118  C 8.5 114.92  10.92 112.5  14 112.5  Z " stroke-width="1" stroke="#ebebeb" fill="none" />
</svg>