﻿<?xml version="1.0" encoding="utf-8"?>
<svg version="1.1" xmlns:xlink="http://www.w3.org/1999/xlink" width="45px" height="20px" xmlns="http://www.w3.org/2000/svg">
  <defs>
    <mask fill="white" id="clip106">
      <path d="M 0 16  L 0 4  C 0 1.75999999999999  1.38947368421052 0  3.15789473684211 0  L 14.6902065289807 0  L 41.8421052631579 0  C 43.6105263157895 0  45 1.75999999999999  45 4  L 45 16  C 45 18.24  43.6105263157895 20  41.8421052631579 20  L 3.15789473684211 20  C 1.38947368421052 20  0 18.24  0 16  Z " fill-rule="evenodd" />
    </mask>
  </defs>
  <g transform="matrix(1 0 0 1 -1045 -188 )">
    <path d="M 0 16  L 0 4  C 0 1.75999999999999  1.38947368421052 0  3.15789473684211 0  L 14.6902065289807 0  L 41.8421052631579 0  C 43.6105263157895 0  45 1.75999999999999  45 4  L 45 16  C 45 18.24  43.6105263157895 20  41.8421052631579 20  L 3.15789473684211 20  C 1.38947368421052 20  0 18.24  0 16  Z " fill-rule="nonzero" fill="#f5f5f5" stroke="none" transform="matrix(1 0 0 1 1045 188 )" />
    <path d="M 0 16  L 0 4  C 0 1.75999999999999  1.38947368421052 0  3.15789473684211 0  L 14.6902065289807 0  L 41.8421052631579 0  C 43.6105263157895 0  45 1.75999999999999  45 4  L 45 16  C 45 18.24  43.6105263157895 20  41.8421052631579 20  L 3.15789473684211 20  C 1.38947368421052 20  0 18.24  0 16  Z " stroke-width="2" stroke="#d9d9d9" fill="none" transform="matrix(1 0 0 1 1045 188 )" mask="url(#clip106)" />
  </g>
</svg>