﻿<?xml version="1.0" encoding="utf-8"?>
<svg version="1.1" xmlns:xlink="http://www.w3.org/1999/xlink" width="20px" height="9px" xmlns="http://www.w3.org/2000/svg">
  <g transform="matrix(1 0 0 1 -21 -12 )">
    <path d="M 23 16  L 38 16  " stroke-width="4" stroke="#ffffff" fill="none" />
  </g>
</svg>