﻿<?xml version="1.0" encoding="utf-8"?>
<svg version="1.1" xmlns:xlink="http://www.w3.org/1999/xlink" width="1281px" height="2px" xmlns="http://www.w3.org/2000/svg">
  <g transform="matrix(1 0 0 1 0 -833 )">
    <path d="M 0 833.5  L 1280 833.5  " stroke-width="1" stroke-dasharray="9,4" stroke="#aaaaaa" fill="none" />
  </g>
</svg>