﻿<?xml version="1.0" encoding="utf-8"?>
<svg version="1.1" xmlns:xlink="http://www.w3.org/1999/xlink" width="12px" height="12px" viewBox="44 159  12 12" xmlns="http://www.w3.org/2000/svg">
  <path d="M 44.5 159.5  L 55.5 159.5  L 55.5 170.5  L 44.5 170.5  L 44.5 159.5  Z " fill-rule="nonzero" fill="#ffffff" stroke="none" />
  <path d="M 44.5 159.5  L 55.5 159.5  L 55.5 170.5  L 44.5 170.5  L 44.5 159.5  Z " stroke-width="1" stroke="#797979" fill="none" />
  <path d="M 46.5714285714286 165  L 49.1428571428571 167.571428571429  " stroke-width="2.57142857142857" stroke="#797979" fill="none" />
  <path d="M 49.1428571428571 167.571428571429  L 53.4285714285714 161.571428571429  " stroke-width="2.57142857142857" stroke="#797979" fill="none" />
</svg>