﻿<?xml version="1.0" encoding="utf-8"?>
<svg version="1.1" xmlns:xlink="http://www.w3.org/1999/xlink" width="12px" height="12px" viewBox="8 162  12 12" xmlns="http://www.w3.org/2000/svg">
  <path d="M 8.5 162.5  L 19.5 162.5  L 19.5 173.5  L 8.5 173.5  L 8.5 162.5  Z " fill-rule="nonzero" fill="#ffffff" stroke="none" />
  <path d="M 8.5 162.5  L 19.5 162.5  L 19.5 173.5  L 8.5 173.5  L 8.5 162.5  Z " stroke-width="1" stroke="#797979" fill="none" />
  <path d="M 10.5714285714286 168  L 13.1428571428571 170.571428571429  " stroke-width="2.57142857142857" stroke="#797979" fill="none" />
  <path d="M 13.1428571428571 170.571428571429  L 17.4285714285714 164.571428571429  " stroke-width="2.57142857142857" stroke="#797979" fill="none" />
</svg>