﻿<?xml version="1.0" encoding="utf-8"?>
<svg version="1.1" xmlns:xlink="http://www.w3.org/1999/xlink" width="12px" height="12px" viewBox="5 211  12 12" xmlns="http://www.w3.org/2000/svg">
  <path d="M 5.5 211.5  L 16.5 211.5  L 16.5 222.5  L 5.5 222.5  L 5.5 211.5  Z " fill-rule="nonzero" fill="#f0f0f0" stroke="none" />
  <path d="M 5.5 211.5  L 16.5 211.5  L 16.5 222.5  L 5.5 222.5  L 5.5 211.5  Z " stroke-width="1" stroke="#797979" fill="none" />
  <path d="M 7.57142857142857 217  L 10.1428571428571 219.571428571429  " stroke-width="2.57142857142857" stroke="#797979" fill="none" />
  <path d="M 10.1428571428571 219.571428571429  L 14.4285714285714 213.571428571429  " stroke-width="2.57142857142857" stroke="#797979" fill="none" />
</svg>