﻿<?xml version="1.0" encoding="utf-8"?>
<svg version="1.1" xmlns:xlink="http://www.w3.org/1999/xlink" width="12px" height="12px" viewBox="8 111  12 12" xmlns="http://www.w3.org/2000/svg">
  <path d="M 8.5 111.5  L 19.5 111.5  L 19.5 122.5  L 8.5 122.5  L 8.5 111.5  Z " fill-rule="nonzero" fill="#f0f0f0" stroke="none" />
  <path d="M 8.5 111.5  L 19.5 111.5  L 19.5 122.5  L 8.5 122.5  L 8.5 111.5  Z " stroke-width="1" stroke="#797979" fill="none" />
  <path d="M 10.5714285714286 117  L 13.1428571428571 119.571428571429  " stroke-width="2.57142857142857" stroke="#797979" fill="none" />
  <path d="M 13.1428571428571 119.571428571429  L 17.4285714285714 113.571428571429  " stroke-width="2.57142857142857" stroke="#797979" fill="none" />
</svg>