﻿<?xml version="1.0" encoding="utf-8"?>
<svg version="1.1" xmlns:xlink="http://www.w3.org/1999/xlink" width="12px" height="12px" viewBox="21 254  12 12" xmlns="http://www.w3.org/2000/svg">
  <path d="M 27 254  C 30.36 254  33 256.64  33 260  C 33 263.36  30.36 266  27 266  C 23.64 266  21 263.36  21 260  C 21 256.64  23.64 254  27 254  Z " fill-rule="nonzero" fill="#ffffff" stroke="none" />
  <path d="M 27 254.5  C 30.08 254.5  32.5 256.92  32.5 260  C 32.5 263.08  30.08 265.5  27 265.5  C 23.92 265.5  21.5 263.08  21.5 260  C 21.5 256.92  23.92 254.5  27 254.5  Z " stroke-width="1" stroke="#797979" fill="none" />
</svg>