﻿<?xml version="1.0" encoding="utf-8"?>
<svg version="1.1" xmlns:xlink="http://www.w3.org/1999/xlink" width="12px" height="12px" viewBox="21 374  12 12" xmlns="http://www.w3.org/2000/svg">
  <path d="M 27 374  C 30.36 374  33 376.64  33 380  C 33 383.36  30.36 386  27 386  C 23.64 386  21 383.36  21 380  C 21 376.64  23.64 374  27 374  Z " fill-rule="nonzero" fill="#ffffff" stroke="none" />
  <path d="M 27 374.5  C 30.08 374.5  32.5 376.92  32.5 380  C 32.5 383.08  30.08 385.5  27 385.5  C 23.92 385.5  21.5 383.08  21.5 380  C 21.5 376.92  23.92 374.5  27 374.5  Z " stroke-width="1" stroke="#797979" fill="none" />
</svg>