﻿<?xml version="1.0" encoding="utf-8"?>
<svg version="1.1" xmlns:xlink="http://www.w3.org/1999/xlink" width="12px" height="12px" viewBox="14 68  12 12" xmlns="http://www.w3.org/2000/svg">
  <path d="M 20 68  C 23.36 68  26 70.64  26 74  C 26 77.36  23.36 80  20 80  C 16.64 80  14 77.36  14 74  C 14 70.64  16.64 68  20 68  Z " fill-rule="nonzero" fill="#ffffff" stroke="none" />
  <path d="M 20 68.5  C 23.08 68.5  25.5 70.92  25.5 74  C 25.5 77.08  23.08 79.5  20 79.5  C 16.92 79.5  14.5 77.08  14.5 74  C 14.5 70.92  16.92 68.5  20 68.5  Z " stroke-width="1" stroke="#797979" fill="none" />
</svg>