﻿<?xml version="1.0" encoding="utf-8"?>
<svg version="1.1" xmlns:xlink="http://www.w3.org/1999/xlink" width="12px" height="12px" viewBox="14 318  12 12" xmlns="http://www.w3.org/2000/svg">
  <path d="M 20 318  C 23.36 318  26 320.64  26 324  C 26 327.36  23.36 330  20 330  C 16.64 330  14 327.36  14 324  C 14 320.64  16.64 318  20 318  Z " fill-rule="nonzero" fill="#ffffff" stroke="none" />
  <path d="M 20 318.5  C 23.08 318.5  25.5 320.92  25.5 324  C 25.5 327.08  23.08 329.5  20 329.5  C 16.92 329.5  14.5 327.08  14.5 324  C 14.5 320.92  16.92 318.5  20 318.5  Z " stroke-width="1" stroke="#797979" fill="none" />
  <path d="M 20 327  C 18.32 327  17 325.68  17 324  C 17 322.32  18.32 321  20 321  C 21.68 321  23 322.32  23 324  C 23 325.68  21.68 327  20 327  " fill-rule="nonzero" fill="#797979" stroke="none" />
</svg>