﻿<?xml version="1.0" encoding="utf-8"?>
<svg version="1.1" xmlns:xlink="http://www.w3.org/1999/xlink" width="119px" height="35px" xmlns="http://www.w3.org/2000/svg">
  <defs>
    <linearGradient gradientUnits="userSpaceOnUse" x1="59.5" y1="0" x2="59.5" y2="35" id="LinearGradient206">
      <stop id="Stop207" stop-color="#dee0e7" stop-opacity="0.286274509803922" offset="0" />
      <stop id="Stop208" stop-color="#000000" stop-opacity="0" offset="1" />
    </linearGradient>
    <mask fill="white" id="clip209">
      <path d="M 0 35  L 0 0  L 75.5555555555555 0  L 119 0  L 119 35  L 0 35  Z " fill-rule="evenodd" />
    </mask>
  </defs>
  <g transform="matrix(1 0 0 1 -282 -240 )">
    <path d="M 0 35  L 0 0  L 75.5555555555555 0  L 119 0  L 119 35  L 0 35  Z " fill-rule="nonzero" fill="url(#LinearGradient206)" stroke="none" transform="matrix(1 0 0 1 282 240 )" />
    <path d="M 0 35  L 0 0  L 75.5555555555555 0  L 119 0  L 119 35  L 0 35  Z " stroke-width="2" stroke="#a9acb5" fill="none" transform="matrix(1 0 0 1 282 240 )" mask="url(#clip209)" />
  </g>
</svg>