﻿<?xml version="1.0" encoding="utf-8"?>
<svg version="1.1" xmlns:xlink="http://www.w3.org/1999/xlink" width="12px" height="12px" viewBox="14 368  12 12" xmlns="http://www.w3.org/2000/svg">
  <path d="M 20 368  C 23.36 368  26 370.64  26 374  C 26 377.36  23.36 380  20 380  C 16.64 380  14 377.36  14 374  C 14 370.64  16.64 368  20 368  Z " fill-rule="nonzero" fill="#f0f0f0" stroke="none" />
  <path d="M 20 368.5  C 23.08 368.5  25.5 370.92  25.5 374  C 25.5 377.08  23.08 379.5  20 379.5  C 16.92 379.5  14.5 377.08  14.5 374  C 14.5 370.92  16.92 368.5  20 368.5  Z " stroke-width="1" stroke="#797979" fill="none" />
  <path d="M 20 377  C 18.32 377  17 375.68  17 374  C 17 372.32  18.32 371  20 371  C 21.68 371  23 372.32  23 374  C 23 375.68  21.68 377  20 377  " fill-rule="nonzero" fill="#797979" stroke="none" />
</svg>