﻿<?xml version="1.0" encoding="utf-8"?>
<svg version="1.1" xmlns:xlink="http://www.w3.org/1999/xlink" width="12px" height="12px" viewBox="14 268  12 12" xmlns="http://www.w3.org/2000/svg">
  <path d="M 20 268  C 23.36 268  26 270.64  26 274  C 26 277.36  23.36 280  20 280  C 16.64 280  14 277.36  14 274  C 14 270.64  16.64 268  20 268  Z " fill-rule="nonzero" fill="#ffffff" stroke="none" />
  <path d="M 20 268.5  C 23.08 268.5  25.5 270.92  25.5 274  C 25.5 277.08  23.08 279.5  20 279.5  C 16.92 279.5  14.5 277.08  14.5 274  C 14.5 270.92  16.92 268.5  20 268.5  Z " stroke-width="1" stroke="#797979" fill="none" />
</svg>