﻿<?xml version="1.0" encoding="utf-8"?>
<svg version="1.1" xmlns:xlink="http://www.w3.org/1999/xlink" width="12px" height="12px" viewBox="14 168  12 12" xmlns="http://www.w3.org/2000/svg">
  <path d="M 20 168  C 23.36 168  26 170.64  26 174  C 26 177.36  23.36 180  20 180  C 16.64 180  14 177.36  14 174  C 14 170.64  16.64 168  20 168  Z " fill-rule="nonzero" fill="#ffffff" stroke="none" />
  <path d="M 20 168.5  C 23.08 168.5  25.5 170.92  25.5 174  C 25.5 177.08  23.08 179.5  20 179.5  C 16.92 179.5  14.5 177.08  14.5 174  C 14.5 170.92  16.92 168.5  20 168.5  Z " stroke-width="1" stroke="#797979" fill="none" />
</svg>