﻿<?xml version="1.0" encoding="utf-8"?>
<svg version="1.1" xmlns:xlink="http://www.w3.org/1999/xlink" width="12px" height="12px" viewBox="14 223  12 12" xmlns="http://www.w3.org/2000/svg">
  <path d="M 20 223  C 23.36 223  26 225.64  26 229  C 26 232.36  23.36 235  20 235  C 16.64 235  14 232.36  14 229  C 14 225.64  16.64 223  20 223  Z " fill-rule="nonzero" fill="#ffffff" stroke="none" />
  <path d="M 20 223.5  C 23.08 223.5  25.5 225.92  25.5 229  C 25.5 232.08  23.08 234.5  20 234.5  C 16.92 234.5  14.5 232.08  14.5 229  C 14.5 225.92  16.92 223.5  20 223.5  Z " stroke-width="1" stroke="#797979" fill="none" />
</svg>