﻿<?xml version="1.0" encoding="utf-8"?>
<svg version="1.1" xmlns:xlink="http://www.w3.org/1999/xlink" width="8px" height="16px" xmlns="http://www.w3.org/2000/svg">
  <g transform="matrix(1 0 0 1 -88 -353 )">
    <path d="M 2.1015625 7.53246753246754  L 7.6484375 0.155844155844136  C 7.74739583333332 0.0242424242424022  7.83072916666668 -0.0207792207792181  7.8984375 0.0207792207792181  C 7.96614583333332 0.0623376623376544  8 0.17316017316017  8 0.353246753246765  L 8 15.6467532467532  C 8 15.8268398268398  7.96614583333332 15.9376623376623  7.8984375 15.9792207792208  C 7.83072916666668 16.0207792207792  7.74739583333332 15.9757575757576  7.6484375 15.8441558441559  L 2.1015625 8.46753246753246  C 2.0546875 8.40519480519481  2.02083333333332 8.33939393939397  2 8.27012987012989  L 2 15.3142857142857  C 2 15.4943722943723  1.95052083333332 15.6502164502165  1.8515625 15.7818181818182  C 1.75260416666668 15.9134199134199  1.63541666666668 15.9792207792208  1.5 15.9792207792208  L 0.5 15.9792207792208  C 0.36458333333332 15.9792207792208  0.24739583333332 15.9134199134199  0.1484375 15.7818181818182  C 0.0494791666666804 15.6502164502165  0 15.4943722943723  0 15.3142857142857  L 0 0.685714285714312  C 0 0.505627705627717  0.0494791666666804 0.349783549783524  0.1484375 0.218181818181847  C 0.24739583333332 0.0865800865800566  0.36458333333332 0.0207792207792181  0.5 0.0207792207792181  L 1.5 0.0207792207792181  C 1.63541666666668 0.0207792207792181  1.75260416666668 0.0865800865800566  1.8515625 0.218181818181847  C 1.95052083333332 0.349783549783524  2 0.505627705627717  2 0.685714285714312  L 2 7.72987012987011  C 2.02083333333332 7.65367965367966  2.0546875 7.58787878787876  2.1015625 7.53246753246754  Z " fill-rule="nonzero" fill="#0099ff" stroke="none" transform="matrix(1 0 0 1 88 353 )" />
  </g>
</svg>