﻿<?xml version="1.0" encoding="utf-8"?>
<svg version="1.1" xmlns:xlink="http://www.w3.org/1999/xlink" width="12px" height="12px" viewBox="29 328  12 12" xmlns="http://www.w3.org/2000/svg">
  <path d="M 29.5 328.5  L 40.5 328.5  L 40.5 339.5  L 29.5 339.5  L 29.5 328.5  Z " fill-rule="nonzero" fill="#f0f0f0" stroke="none" />
  <path d="M 29.5 328.5  L 40.5 328.5  L 40.5 339.5  L 29.5 339.5  L 29.5 328.5  Z " stroke-width="1" stroke="#797979" fill="none" />
  <path d="M 31.5714285714286 334  L 34.1428571428571 336.571428571429  " stroke-width="2.57142857142857" stroke="#797979" fill="none" />
  <path d="M 34.1428571428571 336.571428571429  L 38.4285714285714 330.571428571429  " stroke-width="2.57142857142857" stroke="#797979" fill="none" />
</svg>