﻿<?xml version="1.0" encoding="utf-8"?>
<svg version="1.1" xmlns:xlink="http://www.w3.org/1999/xlink" width="12px" height="12px" viewBox="179 1391  12 12" xmlns="http://www.w3.org/2000/svg">
  <path d="M 185 1391  C 188.36 1391  191 1393.64  191 1397  C 191 1400.36  188.36 1403  185 1403  C 181.64 1403  179 1400.36  179 1397  C 179 1393.64  181.64 1391  185 1391  Z " fill-rule="nonzero" fill="#f0f0f0" stroke="none" />
  <path d="M 185 1391.5  C 188.08 1391.5  190.5 1393.92  190.5 1397  C 190.5 1400.08  188.08 1402.5  185 1402.5  C 181.92 1402.5  179.5 1400.08  179.5 1397  C 179.5 1393.92  181.92 1391.5  185 1391.5  Z " stroke-width="1" stroke="#797979" fill="none" />
</svg>