﻿<?xml version="1.0" encoding="utf-8"?>
<svg version="1.1" xmlns:xlink="http://www.w3.org/1999/xlink" width="12px" height="12px" viewBox="144 1140  12 12" xmlns="http://www.w3.org/2000/svg">
  <path d="M 150 1140  C 153.36 1140  156 1142.64  156 1146  C 156 1149.36  153.36 1152  150 1152  C 146.64 1152  144 1149.36  144 1146  C 144 1142.64  146.64 1140  150 1140  Z " fill-rule="nonzero" fill="#f0f0f0" stroke="none" />
  <path d="M 150 1140.5  C 153.08 1140.5  155.5 1142.92  155.5 1146  C 155.5 1149.08  153.08 1151.5  150 1151.5  C 146.92 1151.5  144.5 1149.08  144.5 1146  C 144.5 1142.92  146.92 1140.5  150 1140.5  Z " stroke-width="1" stroke="#797979" fill="none" />
</svg>