﻿<?xml version="1.0" encoding="utf-8"?>
<svg version="1.1" xmlns:xlink="http://www.w3.org/1999/xlink" width="171px" height="10px" preserveAspectRatio="xMinYMid meet" viewBox="362 468  171 8" xmlns="http://www.w3.org/2000/svg">
  <path d="M 367 535  L 367 477  A 5 5 0 0 1 372 472 L 523 472  A 5 5 0 0 0 528 467 L 528 412  " stroke-width="2" stroke="#035df3" fill="none" />
  <path d="M 523.707106781187 417.107106781187  L 528 412.814213562373  L 532.292893218813 417.107106781187  L 533.707106781187 415.692893218813  L 528.707106781187 410.692893218813  L 528 409.985786437627  L 527.292893218813 410.692893218813  L 522.292893218813 415.692893218813  L 523.707106781187 417.107106781187  Z " fill-rule="nonzero" fill="#035df3" stroke="none" />
</svg>